Division,WeightClassKg,Place,Name,Team,BodyweightKg,Best3SquatKg,Best3BenchKg,Best3DeadliftKg,TotalKg,Equipment,Event,Sex
Boys,51.71,1,Chandler Prnka,Malakoff,51.66,136.08,81.65,147.42,365.14,Single-ply,SBD,M
Boys,51.71,2,Alec Page,Tyler Lee,47.85,68.04,36.29,79.38,183.7,Single-ply,SBD,M
Boys,55.79,1,Vann Rainer,Tyler Lee,55.34,129.27,61.23,129.27,319.78,Single-ply,SBD,M
Boys,55.79,2,Lukas Gill,Tyler Lee,54.16,108.86,68.04,113.4,290.3,Single-ply,SBD,M
Boys,55.79,DQ,Omar Saenz,Winona,53.39,,,,,Single-ply,SBD,M
Boys,59.87,1,Stone Smith,Bullard,58.24,106.59,43.09,113.4,263.08,Single-ply,SBD,M
Boys,59.87,2,Austin Miller,Troup,58.24,81.65,45.36,102.06,229.06,Single-ply,SBD,M
Boys,67.13,1,Bryson Luscombe,Bullard,66.9,176.9,113.4,181.44,471.74,Single-ply,SBD,M
Boys,67.13,2,JJ Beckfield,Frankston,65.27,165.56,90.72,181.44,437.72,Single-ply,SBD,M
Boys,67.13,3,Noble Giles,Frankston,60.51,140.61,95.25,179.17,415.04,Single-ply,SBD,M
Boys,67.13,4,Kaden Mahoney,Troup,64.23,147.42,90.72,147.42,385.55,Single-ply,SBD,M
Boys,67.13,5,John Ford #3,Troup,67.13,145.15,86.18,147.42,378.75,Single-ply,SBD,M
Boys,67.13,6,Jeremiah Sheffie,Tyler Lee,60.06,120.2,81.65,151.95,353.8,Single-ply,SBD,M
Boys,67.13,7,Jesse Calley,Troup,65.32,122.47,74.84,151.95,349.27,Single-ply,SBD,M
Boys,67.13,8,Arturo Esparza,Fairfield,63.59,136.08,72.57,131.54,340.19,Single-ply,SBD,M
Boys,67.13,9,Walker Stegall,Bullard,64.18,129.27,88.45,113.4,331.12,Single-ply,SBD,M
Boys,67.13,DQ,Coy Elton,Frankston,66.32,,,,,Single-ply,SBD,M
Boys,67.13,DQ,Randall Watson,Tyler Lee,64.68,149.69,,,,Single-ply,SBD,M
Boys,67.13,DQ,Hunter Clemmons,Tyler Lee,59.96,92.99,,,,Single-ply,SBD,M
Boys,67.13,DQ,Tristan Peterson,Fairfield,65.23,,,,,Single-ply,SBD,M
Boys,74.84,1,Jamichael Turman,Tyler Lee,70.99,219.99,117.93,201.85,539.77,Single-ply,SBD,M
Boys,74.84,2,Bryce Attaway,Troup,73.66,208.65,127.01,188.24,523.9,Single-ply,SBD,M
Boys,74.84,3,Chadd Cole,Troup,69.63,190.51,104.33,188.24,483.08,Single-ply,SBD,M
Boys,74.84,4,Alonzo Moffitt,Fairfield,74.16,181.44,92.99,181.44,455.86,Single-ply,SBD,M
Boys,74.84,5,John Engle,Bullard,74.16,170.1,115.67,165.56,451.32,Single-ply,SBD,M
Boys,74.84,6,Kyle Kennerk,Cayuga,71.21,154.22,86.18,181.44,421.84,Single-ply,SBD,M
Boys,74.84,7,Bryce Gregory,Tyler Lee,67.68,147.42,102.06,170.1,419.57,Single-ply,SBD,M
Boys,74.84,8,Kelton Carlson,Fairfield,71.62,136.08,79.38,124.74,340.19,Single-ply,SBD,M
Boys,74.84,9,Angel Hernandez #12,Bullard,70.72,113.4,61.23,129.27,303.91,Single-ply,SBD,M
Boys,82.1,1,Byron Johnson #1,Rusk,80.56,204.12,124.74,208.65,537.51,Single-ply,SBD,M
Boys,82.1,2,Jared McLean,Tyler Lee,79.2,188.24,106.59,208.65,503.49,Single-ply,SBD,M
Boys,82.1,3,Sean Rogers,Rusk,81.74,176.9,111.13,195.04,483.08,Single-ply,SBD,M
Boys,82.1,4,Gage Gosse,Frankston,78.47,181.44,108.86,185.97,476.27,Single-ply,SBD,M
Boys,82.1,5,Casen Grasch,Cayuga,81.15,158.76,104.33,163.29,426.38,Single-ply,SBD,M
Boys,82.1,6,Jaiden Trevino,Malakoff,76.84,136.08,88.45,156.49,381.02,Single-ply,SBD,M
Boys,82.1,7,Dakota Walker,Cayuga,77.66,113.4,61.23,147.42,322.05,Single-ply,SBD,M
Boys,82.1,8,Nick Martinez,Fairfield,78.65,104.33,63.5,113.4,281.23,Single-ply,SBD,M
Boys,82.1,9,Jadan Henry,Cayuga,79.2,97.52,56.7,113.4,267.62,Single-ply,SBD,M
Boys,82.1,10,Corey Caldwell,Cayuga,75.61,127.01,,,127.01,Single-ply,S,M
Boys,82.1,DQ,Chris France,Van,79.88,161.03,,,,Single-ply,SBD,M
Boys,82.1,DQ,Michael Daudpota,Van,80.78,,,,,Single-ply,SBD,M
Boys,89.81,1,Jackson Rogers,Rusk,89.77,190.51,104.33,197.31,492.15,Single-ply,SBD,M
Boys,89.81,2,Mauricio Herrera,Van,88.18,183.7,120.2,185.97,489.88,Single-ply,SBD,M
Boys,89.81,3,Tariq Woods,Tyler Lee,87.63,181.44,111.13,181.44,474,Single-ply,SBD,M
Boys,89.81,4,Kevin Kennerk,Cayuga,83.05,176.9,92.99,192.78,462.66,Single-ply,SBD,M
Boys,89.81,5,Darion Peace,Malakoff,84.01,165.56,113.4,181.44,460.4,Single-ply,SBD,M
Boys,89.81,6,Jamichael Nicholson,Tyler Lee,89.63,174.63,95.25,183.7,453.59,Single-ply,SBD,M
Boys,89.81,7,TaKeenan Langley,Malakoff,85.18,172.37,92.99,172.37,437.72,Single-ply,SBD,M
Boys,89.81,8,Darian Harris,Fairfield,83.23,181.44,79.38,170.1,430.91,Single-ply,SBD,M
Boys,89.81,9,Hunter Guerrero,Malakoff,85.91,161.03,115.67,151.95,428.64,Single-ply,SBD,M
Boys,89.81,10,Adrian Cortes,Van,85.73,158.76,102.06,163.29,424.11,Single-ply,SBD,M
Boys,89.81,11,Keevie Rose,Malakoff,83.32,151.95,77.11,190.51,419.57,Single-ply,SBD,M
Boys,99.79,1,Cameron Bridges,Bullard,98.38,217.72,127.01,176.9,521.63,Single-ply,SBD,M
Boys,99.79,2,Kannon Hurd,Malakoff,94.62,165.56,95.25,176.9,437.72,Single-ply,SBD,M
Boys,99.79,3,Willy Figueroa,Tyler Lee,98.7,172.37,90.72,158.76,421.84,Single-ply,SBD,M
Boys,99.79,4,Kade Fry,Tyler Lee,97.57,149.69,81.65,136.08,367.41,Single-ply,SBD,M
Boys,99.79,5,Spencer Allen,Troup,99.56,131.54,77.11,127.01,335.66,Single-ply,SBD,M
Boys,99.79,DQ,Javian Hornbuckle,Malakoff,92.12,188.24,,,,Single-ply,SBD,M
Boys,109.77,1,Nick Acker,Rusk,105.51,247.21,124.74,210.92,582.87,Single-ply,SBD,M
Boys,109.77,2,Jesse Owen,Frankston,104.28,222.26,138.35,208.65,569.26,Single-ply,SBD,M
Boys,109.77,3,Juan Perez #4,Frankston,100.29,183.7,106.59,210.92,501.22,Single-ply,SBD,M
Boys,109.77,4,Jj Barrera,Winona,102.97,192.78,102.06,195.04,489.88,Single-ply,SBD,M
Boys,109.77,5,Joan Munoz,Fairfield,106.68,204.12,102.06,147.42,453.59,Single-ply,SBD,M
Boys,109.77,6,Dalton Fitzpatrick,Cayuga,102.97,172.37,102.06,161.03,435.45,Single-ply,SBD,M
Boys,109.77,7,Omar Hernandez #2,Van,106.46,156.49,83.91,133.81,374.21,Single-ply,SBD,M
Boys,109.77,8,Corey Lawrence,Tyler Lee,102.29,108.86,63.5,124.74,297.1,Single-ply,SBD,M
Boys,124.74,1,Lincoln Rogers,Malakoff,123.1,215.46,161.03,206.38,582.87,Single-ply,SBD,M
Boys,124.74,2,Zamir Ruiz,Malakoff,111.86,204.12,124.74,199.58,528.44,Single-ply,SBD,M
Boys,124.74,3,Carson Wilborn,Bullard,112.99,197.31,111.13,192.78,501.22,Single-ply,SBD,M
Boys,124.74,4,William Morse,Bullard,110.18,197.31,120.2,174.63,492.15,Single-ply,SBD,M
Boys,124.74,5,Justin Cooper,Fairfield,111.45,204.12,117.93,158.76,480.81,Single-ply,SBD,M
Boys,124.74,6,Carson McCoy,Van,124.15,192.78,117.93,170.1,480.81,Single-ply,SBD,M
Boys,124.74,7,Donovan Jordan,Tyler Lee,111.13,176.9,95.25,190.51,462.66,Single-ply,SBD,M
Boys,124.74,8,Tra Whitmill,Tyler Lee,111.49,167.83,90.72,183.7,442.25,Single-ply,SBD,M
Boys,124.74,9,Michael Black,Van,122.47,170.1,104.33,151.95,426.38,Single-ply,SBD,M
Boys,124.74,10,Caleb Otten,Van,111.31,138.35,86.18,136.08,360.61,Single-ply,SBD,M
Boys,124.74+,1,Chandler Noble,Fairfield,135.71,285.76,122.47,240.4,648.64,Single-ply,SBD,M
Boys,124.74+,2,Garrett Blaylock,Rusk,133.76,272.16,133.81,240.4,646.37,Single-ply,SBD,M
Boys,124.74+,3,Jermaine Lewis,Rusk,130.32,226.8,133.81,258.55,619.15,Single-ply,SBD,M
Boys,124.74+,4,Bosque Monico,Fairfield,138.48,226.8,108.86,181.44,517.1,Single-ply,SBD,M
