Name,Equipment,Sex,BirthDate,BodyweightKg,Age,Division,WeightClassKg,Squat1Kg,Squat2Kg,Squat3Kg,Best3SquatKg,Squat4Kg,Bench1Kg,Bench2Kg,Bench3Kg,Best3BenchKg,Bench4Kg,Deadlift1Kg,Deadlift2Kg,Deadlift3Kg,Best3DeadliftKg,Deadlift4Kg,TotalKg,Event,Place
Natalia Rojas,Wraps,F,1996-06-30,43.65,25,Open,44,70,85,-90,85,,30,35,37.5,37.5,,75,85,90,90,,212.5,SBD,1
Carolina González De León,Wraps,F,1985-05-08,47.85,36,Open,48,147.5,155,160,160,,67.5,70,-72.5,70,,140,147.5,-152.5,147.5,,377.5,SBD,1
Yazmin Fierro,Wraps,F,1996-08-11,49.35,25,Open,52,90,95,105,105,,60,67.5,-70,67.5,,100,110,120,120,,292.5,SBD,5
Carina Villanueva,Wraps,F,1982-06-16,50.25,39,Open,52,110,120,125,125,,45,-50,50,50,,110,125,130,130,,305,SBD,4
Ayelén Noguera,Wraps,F,1991-12-17,50.9,29,Open,52,130,140,142.5,142.5,,60,65,-67.5,65,,130,140,142.5,142.5,,350,SBD,2
Noemi Anaquin,Wraps,F,1992-08-19,51.4,29,Open,52,120,135,145,145,,-65,67.5,70,70,,125,127.5,142.5,142.5,,357.5,SBD,1
Agustina Lulich,Wraps,F,1997-05-06,50.75,24,Open,52,115,122.5,130,130,,-55,55,60,60,,125,132.5,-140,132.5,,322.5,SBD,3
Solange A. Viñas,Wraps,F,1993-02-22,54.6,28,Open,56,95,102.5,107.5,107.5,,42.5,47.5,50,50,,87.5,95,102.5,102.5,,260,SBD,3
Eliana Ocampo,Wraps,F,1986-10-13,54.7,34,Open,56,-160,160,170.5,170.5,,70,75,80,80,,145,152.5,160,160,,410.5,SBD,1
Mariana Miguez,Wraps,F,1983-08-29,55.3,38,Open,56,130,135,140,140,,65,70,72.5,72.5,,145,150,155,155,,367.5,SBD,2
Adriana Arce,Wraps,F,1995-02-05,57.55,26,Open,60,130,140,145,145,,65,-70,-70,65,,125,-135,-135,125,,335,SBD,3
Magali Santi,Wraps,F,1987-08-14,58.3,34,Open,60,135,-142.5,142.5,142.5,,60,65,-67.5,65,,130,-140,-140,130,,337.5,SBD,2
Solana Chasampi,Wraps,F,1998-02-28,58.7,23,Open,60,142.5,150,-157.5,150,,62.5,67.5,-72.5,67.5,,155,170,-180,170,,387.5,SBD,1
Solana Chasampi,Wraps,F,1998-02-28,58.7,23,Jun,60,142.5,150,-157.5,150,,62.5,67.5,-72.5,67.5,,155,170,-180,170,,387.5,SBD,1
Vanesa Ayala Benitez,Wraps,F,1995-02-20,62.65,26,Open,67.5,150,-162.5,-162.5,150,,50,57.5,62.5,62.5,,130,140,150,150,,362.5,SBD,3
Ana Castro,Wraps,F,1994-01-20,65.65,27,Open,67.5,125,137.5,145,145,,72.5,80.5,-82.5,80.5,,130,142.5,147.5,147.5,,373,SBD,2
Maribel Medina,Wraps,F,1993-09-17,66.6,27,Open,67.5,-160,160,-167.5,160,,70,75,-80,75,,170,182.5,-192.5,182.5,,417.5,SBD,1
Marta Vega,Wraps,F,1981-07-09,66.2,40,Open,67.5,130,140,150,150,,67.5,72.5,-75.5,72.5,,120,130,135,135,,357.5,SBD,4
Marta Vega,Wraps,F,1981-07-09,66.2,40,M 40-49,67.5,130,140,150,150,,67.5,72.5,-75.5,72.5,,120,130,135,135,,357.5,SBD,1
Daiana Gonzalez,Wraps,F,1985-02-10,71.6,36,Open,75,-115,115,125,125,,47.5,-52.5,-52.5,47.5,,115,130,140,140,,312.5,SBD,6
Sabrina D'Angelo,Wraps,F,1988-05-09,68.95,33,Open,75,125,135,137.5,137.5,,45,-50,50,50,,115,125,-130,125,,312.5,SBD,5
Maria Graciela Bernal,Wraps,F,1990-10-29,72.9,30,Open,75,120,130,135,135,,60,-65,65,65,,135,145,160,160,,360,SBD,4
Paula Firpo,Wraps,F,1996-04-11,74.5,25,Open,75,165,175,182.5,182.5,,60,65,-70,65,,160,170,180,180,,427.5,SBD,2
Aixa Tebaldi,Wraps,F,1993-10-28,74.9,27,Open,75,160,-170,170,170,,70,75,82.5,82.5,,150,160,170,170,,422.5,SBD,3
Lorena Rojas,Wraps,F,1979-03-06,68.65,42,Open,75,180,-190,-190,180,,80,-85,,80,,180,187.5,195,195,,455,SBD,1
Paula Stancati,Wraps,F,1998-09-29,77.45,22,Open,82.5,130,140,150,150,-156,70,75,-77.5,75,,135,150,-160,150,,375,SBD,1
Vanessa Leones,Wraps,F,1979-04-24,87.4,42,Open,90,150,160,170,170,,80,87.5,92.5,92.5,,150,160,170,170,,432.5,SBD,1
Maria Fernanda Godoy Cruz,Multi-ply,F,1979-12-11,84.2,41,Open,90,175,187.5,-200,187.5,,75,-82.5,-82.5,75,,150,165,170,170,,432.5,SBD,1
Ernesto Llul,Wraps,M,2003-11-04,66,17,Open,67.5,145,160,167.5,167.5,,80,90,95,95,,150,165,175,175,,437.5,SBD,7
Manuel Alvarez,Wraps,M,2002-01-29,65.35,19,Open,67.5,160,170,175,175,,95,100,-105,100,,180,190,-200,190,,465,SBD,5
Ramiro Beltrame,Wraps,M,1998-12-24,62.35,22,Open,67.5,-160,160,170,170,,85,90,-92.5,90,,190,200,-210,200,,460,SBD,6
Ulises Casco,Wraps,M,1998-01-22,66.7,23,Open,67.5,160,170,-180,170,,-115,-115,-115,,,,,,,,,SBD,DQ
Santiago Piñero,Wraps,M,2000-08-14,64.5,21,Open,67.5,160,175,182.5,182.5,,85,90,95,95,,180,195,205,205,,482.5,SBD,4
Lorena Rojas,Wraps,F,1979-03-06,68.65,42,M 40-49,75,180,-190,-190,180,,80,-85,,80,,180,187.5,195,195,,455,SBD,1
Paula Stancati,Wraps,F,1998-09-29,77.45,22,Jun,82.5,130,140,150,150,-156,70,75,-77.5,75,,135,150,-160,150,,375,SBD,1
Vanessa Leones,Wraps,F,1979-04-24,87.4,42,M 40-49,90,150,160,170,170,,80,87.5,92.5,92.5,,150,160,170,170,,432.5,SBD,1
Maria Fernanda Godoy Cruz,Multi-ply,F,1979-12-11,84.2,41,M 40-49,90,175,187.5,-200,187.5,,75,-82.5,-82.5,75,,150,165,170,170,,432.5,SBD,1
Ernesto Llul,Wraps,M,2003-11-04,66,17,Tn 16-17,67.5,145,160,167.5,167.5,,80,90,95,95,,150,165,175,175,,437.5,SBD,1
Manuel Alvarez,Wraps,M,2002-01-29,65.35,19,Tn 18-19,67.5,160,170,175,175,,95,100,-105,100,,180,190,-200,190,,465,SBD,2
Ramiro Beltrame,Wraps,M,1998-12-24,62.35,22,Jun,67.5,-160,160,170,170,,85,90,-92.5,90,,190,200,-210,200,,460,SBD,2
Ulises Casco,Wraps,M,1998-01-22,66.7,23,Jun,67.5,160,170,-180,170,,-115,-115,-115,,,,,,,,,SBD,DQ
Santiago Piñero,Wraps,M,2000-08-14,64.5,21,Jun,67.5,160,175,182.5,182.5,,85,90,95,95,,180,195,205,205,,482.5,SBD,1
Pablo Gomez,Wraps,M,1989-07-04,66.8,32,Open,67.5,200,215,230.5,230.5,,95,100,105,105,,192.5,205,-210,205,,540.5,SBD,1
Juan Iglesias,Wraps,M,1993-05-05,67.5,28,Open,67.5,180,190,200,200,,-127.5,130,140,140,,180,200,-215,200,,540,SBD,2
Andres Tang,Wraps,M,2002-05-30,66.5,19,Open,67.5,165,175,182.5,182.5,,92.5,97.5,100,100,,190,200,205,205,,487.5,SBD,3
Tobias Caltabiano,Wraps,M,2005-07-11,72.35,16,Open,75,-160,160,170,170,175,77.5,82.5,87.5,87.5,,180,190,200,200,210.5,457.5,SBD,10
Mateo Santin,Wraps,M,2002-01-24,73.35,19,Open,75,-195,195,-210,195,,-125,132.5,135,135,-137.5,195,207.5,-215,207.5,,537.5,SBD,7
Juan Fernandez Koller,Wraps,M,1998-09-24,73.6,22,Open,75,160,180,-195,180,,130,135,-140,135,,215,225,-230,225,,540,SBD,6
Lautarto Allassia,Wraps,M,1997-09-16,73.5,23,Open,75,215,222.5,232.5,232.5,,100,107.5,-112.5,107.5,,217.5,227.5,237.5,237.5,,577.5,SBD,4
Andres Tang,Wraps,M,2002-05-30,66.5,19,Tn 18-19,67.5,165,175,182.5,182.5,,92.5,97.5,100,100,,190,200,205,205,,487.5,SBD,1
Tobias Caltabiano,Wraps,M,2005-07-11,72.35,16,Tn 16-17,75,-160,160,170,170,175,77.5,82.5,87.5,87.5,,180,190,200,200,210.5,457.5,SBD,1
Mateo Santin,Wraps,M,2002-01-24,73.35,19,Tn 18-19,75,-195,195,-210,195,,-125,132.5,135,135,-137.5,195,207.5,-215,207.5,,537.5,SBD,1
Juan Fernandez Koller,Wraps,M,1998-09-24,73.6,22,Jun,75,160,180,-195,180,,130,135,-140,135,,215,225,-230,225,,540,SBD,2
Lautarto Allassia,Wraps,M,1997-09-16,73.5,23,Jun,75,215,222.5,232.5,232.5,,100,107.5,-112.5,107.5,,217.5,227.5,237.5,237.5,,577.5,SBD,1
Leonardo Rosato,Wraps,M,1985-12-27,73.9,35,Open,75,190,200,-207,200,,115,122.5,-127.5,122.5,,190,205,-215,205,,527.5,SBD,8
Luciano Escolano,Wraps,M,1997-01-22,73.65,24,Open,75,230,240,250,250,,125,132.5,140,140,,245,-265,-265,245,,635,SBD,2
Leonardo Moreno,Wraps,M,1988-07-31,73.2,33,Open,75,202.5,212.5,225,225,,-127.5,132.5,135,135,,205,215,225,225,,585,SBD,3
Matias Gonzalez,Wraps,M,1995-12-20,72.45,25,Open,75,195,207.5,215,215,,125,132.5,-137.5,132.5,,205,220,-227.5,220,,567.5,SBD,5
Renato Balbuena,Wraps,M,1987-02-24,73.75,34,Open,75,-180,-190,192.5,192.5,,115,122.5,130,130,,200,202.5,-212.5,202.5,,525,SBD,9
Pablo Asorey,Wraps,M,1990-06-13,74.1,31,Open,75,270,-280,-280,270,,135,140,-145,140,,270,280,-290,280,,690,SBD,1
Luis Bagnoli,Wraps,M,1974-05-07,80.5,47,Open,82.5,165,-175,180,180,,85,95,105,105,,165,-180,-182.5,165,,450,SBD,8
Ramiro Marengo,Wraps,M,2007-03-28,80.2,14,Open,82.5,145,155.5,162.5,162.5,,67.5,-72.5,-72.5,67.5,,127.5,137.5,140,140,,370,SBD,9
Enzo Escobar,Wraps,M,1997-10-09,77.6,23,Open,82.5,210,-220,-230,210,,100,105,110,110,,195,-207.5,-217.5,195,,515,SBD,7
Luca Lantella,Wraps,M,2001-05-02,80.9,20,Open,82.5,255,-270,270,270,,115,122.5,127.5,127.5,,190,200,205,205,,602.5,SBD,5
Luis Bagnoli,Wraps,M,1974-05-07,80.5,47,M 40-49,82.5,165,-175,180,180,,85,95,105,105,,165,-180,-182.5,165,,450,SBD,2
Ramiro Marengo,Wraps,M,2007-03-28,80.2,14,Tn 13-15,82.5,145,155.5,162.5,162.5,,67.5,-72.5,-72.5,67.5,,127.5,137.5,140,140,,370,SBD,1
Enzo Escobar,Wraps,M,1997-10-09,77.6,23,Jun,82.5,210,-220,-230,210,,100,105,110,110,,195,-207.5,-217.5,195,,515,SBD,2
Luca Lantella,Wraps,M,2001-05-02,80.9,20,Jun,82.5,255,-270,270,270,,115,122.5,127.5,127.5,,190,200,205,205,,602.5,SBD,1
Pablo N. Baggio,Wraps,M,1991-03-05,80.5,30,Open,82.5,220,235,240,240,,145,152.5,-157.5,152.5,,225,-237.5,-237.5,225,,617.5,SBD,4
Jonatan Chiappa,Wraps,M,1992-03-12,79.5,29,Open,82.5,215,-230,-230,215,,-130,135,140,140,,230,245,-260,245,,600,SBD,6
Damián Gomez,Wraps,M,1993-09-28,81.8,27,Open,82.5,-230,-230,240,240,,150,155,160,160,,230,240,-250,240,,640,SBD,3
Jose Salgado,Wraps,M,1993-08-10,81.6,28,Open,82.5,280,302.5,-320,302.5,,160,170,-175,170,,270,290,302.5,302.5,,775,SBD,1
Leandro Correa,Wraps,M,1979-03-02,81.75,42,Open,82.5,235,245,255,255,,135,142.5,-147.5,142.5,,250,262.5,270,270,,667.5,SBD,2
Gabriel A. Martinez Montoya,Wraps,M,1999-10-13,88.4,21,Open,90,210,230,-240,230,,110,120,-135,120,,225,235,245,245,,595,SBD,6
Agustin Ercolano,Wraps,M,2001-05-28,88.6,20,Open,90,200,-210,-210,200,,102.5,-110,,102.5,,205,215,-225,215,,517.5,SBD,14
Martin Casanova,Wraps,M,2001-07-17,89.7,20,Open,90,200,210,215,215,,105,-112.5,-120,105,,210,-217.5,-222.5,210,,530,SBD,13
Gianfranco Slepetis,Wraps,M,2001-05-02,88.85,20,Open,90,270,290,-300,290,,155,-165,-165,155,,270,-285,-300.5,270,,715,SBD,1
Leandro Correa,Wraps,M,1979-03-02,81.75,42,M 40-49,82.5,235,245,255,255,,135,142.5,-147.5,142.5,,250,262.5,270,270,,667.5,SBD,1
Gabriel A. Martinez Montoya,Wraps,M,1999-10-13,88.4,21,Jun,90,210,230,-240,230,,110,120,-135,120,,225,235,245,245,,595,SBD,2
Agustin Ercolano,Wraps,M,2001-05-28,88.6,20,Jun,90,200,-210,-210,200,,102.5,-110,,102.5,,205,215,-225,215,,517.5,SBD,4
Martin Casanova,Wraps,M,2001-07-17,89.7,20,Jun,90,200,210,215,215,,105,-112.5,-120,105,,210,-217.5,-222.5,210,,530,SBD,3
Gianfranco Slepetis,Wraps,M,2001-05-02,88.85,20,Jun,90,270,290,-300,290,,155,-165,-165,155,,270,-285,-300.5,270,,715,SBD,1
Ezequiel del Rio,Wraps,M,1987-11-21,89.9,33,Open,90,190,200,215,215,,125,135,140,140,,200,220,-240,220,,575,SBD,10
Facundo Nahuel Bruno,Wraps,M,1997-08-05,88.25,24,Open,90,230,245,260,260,,120,-130,-130,120,,230,250,255,255,,635,SBD,2
Michele Cuccaro,Wraps,M,1990-06-21,88.7,31,Open,90,240,250,-260,250,,125,130,-135,130,,-230,230,-250,230,,610,SBD,3
Mauricio Messara,Wraps,M,1990-12-08,88.8,30,Open,90,220,-232.5,-232.5,220,,127.5,-132.5,-140,127.5,,220,232.5,247.5,247.5,,595,SBD,7
Nicolas Giglio,Wraps,M,1997-05-21,87.9,24,Open,90,205,-215,215,215,,130,-137.5,-142,130,,240,257.5,-267.5,257.5,,602.5,SBD,5
Gonzalo Taraborrelli,Wraps,M,1992-02-19,89.95,29,Open,90,210,220,225,225,,105,-112.5,-115,105,,210,-217.5,217.5,217.5,,547.5,SBD,12
Emanuel Cascallar,Wraps,M,1995-03-02,85.9,26,Open,90,200,220,225,225,,120,130,-137.5,130,,190,205,220,220,,575,SBD,9
Nicolas Medina,Wraps,M,1982-12-02,89.7,38,Open,90,160,170,-180,170,,115,-125,130,130,,180,190,200,200,,500,SBD,15
Nicolas Mayo,Wraps,M,1972-11-27,87.95,48,Open,90,210,-222.5,-235,210,,102.5,110,115,115,,200,215,225,225,,550,SBD,11
Sergio Kimmel,Wraps,M,1979-01-02,89.45,42,Open,90,210,225,240,240,,115,125,135,135,,200,220,235,235,,610,SBD,4
Juan Ales,Wraps,M,1957-03-09,84.1,64,Open,90,170,180,190,190,,110,120,-130,120,,160,170,180,180,,490,SBD,16
Fabricio Fantozzi,Wraps,M,1998-09-18,99.8,22,Open,100,-245,245,-255,245,,140,150,155,155,,250,262.5,275,275,,675,SBD,7
Ignacio Davicino,Wraps,M,1999-08-10,97.7,22,Open,100,182.5,-192.5,-202.5,182.5,,120,-127.5,132.5,132.5,,182.5,192.5,-202.5,192.5,,507.5,SBD,15
Mateo Codesido,Wraps,M,1998-09-21,97.65,22,Open,100,245,-257.5,-270,245,,135,145,-152.5,145,,245,257.5,-270,257.5,,647.5,SBD,10
Nicolas Mayo,Wraps,M,1972-11-27,87.95,48,M 40-49,90,210,-222.5,-235,210,,102.5,110,115,115,,200,215,225,225,,550,SBD,2
Sergio Kimmel,Wraps,M,1979-01-02,89.45,42,M 40-49,90,210,225,240,240,,115,125,135,135,,200,220,235,235,,610,SBD,1
Julio Travaglia,Wraps,M,,87.1,,Open,90,215,-230,-230,215,,135,-142.5,-150,135,,215,230,-240,230,,580,SBD,1
Juan Ales,Wraps,M,1957-03-09,84.1,64,M 60-69,90,170,180,190,190,,110,120,-130,120,,160,170,180,180,,490,SBD,1
Fabricio Fantozzi,Wraps,M,1998-09-18,99.8,22,Jun,100,-245,245,-255,245,,140,150,155,155,,250,262.5,275,275,,675,SBD,1
Ignacio Davicino,Wraps,M,1999-08-10,97.7,22,Jun,100,182.5,-192.5,-202.5,182.5,,120,-127.5,132.5,132.5,,182.5,192.5,-202.5,192.5,,507.5,SBD,3
Mateo Codesido,Wraps,M,1998-09-21,97.65,22,Jun,100,245,-257.5,-270,245,,135,145,-152.5,145,,245,257.5,-270,257.5,,647.5,SBD,2
Jeremías Olmedo,Wraps,M,1995-12-01,97.15,25,Open,100,190,205,220,220,,110,115,120,120,,215,225,240,240,,580,SBD,13
Sergio Iglesias,Wraps,M,1986-05-22,98.85,35,Open,100,-235,240,260,260,,140,-150,150,150,,245,255,265,265,,675,SBD,6
Nicolas E. Echazarreta,Wraps,M,1983-12-23,96.95,37,Open,100,217.5,225,-230,225,,122.5,127.5,132.5,132.5,,225,235,250,250,,607.5,SBD,11
Juan Vallarino,Wraps,M,1995-04-26,99.3,26,Open,100,245,260,-275,260,,170,175,-177.5,175,,270,285,-300,285,,720,SBD,4
Sebastian Alvarez Nichols,Wraps,M,1990-06-11,99.9,31,Open,100,205,220,-230,220,,120,130,-135,130,,210,225,-240,225,,575,SBD,14
Joel Bustos,Wraps,M,1996-07-13,97.8,25,Open,100,225,240,250,250,,127.5,132.5,140,140,,235,250,265,265,,655,SBD,9
Leandro Zanette,Wraps,M,1989-10-24,92.35,31,Open,100,240,250,255,255,,140,-150,-150,140,,260,-280,-280,260,,655,SBD,8
Guido Gola,Wraps,M,1996-11-05,95.4,24,Open,100,270,295,300,300,,170,180,-190,180,,270,285,-300,285,,765,SBD,1
Leandro Baez,Wraps,M,1985-11-08,97.6,35,Open,100,280,295,312.5,312.5,325.5,170,177.5,182.5,182.5,,240,-255,-255,240,,735,SBD,2
Jose Maria Acevedo,Wraps,M,1984-01-18,97.65,37,Open,100,245,-260,-260,245,,152.5,170,175,175,,250,272.5,-300,272.5,,692.5,SBD,5
Juan Pages,Wraps,M,1988-02-18,98.15,33,Open,100,260,275,285,285,,160,167.5,-172.5,167.5,,260,272.5,-280,272.5,,725,SBD,3
Hernan D. Concilo,Wraps,M,1981-06-29,99.35,40,Open,100,195,210,220,220,,120,127.5,135,135,,220,232.5,245,245,,600,SBD,12
Jose Aguirre,Multi-ply,M,1970-11-17,98.7,50,Open,100,185,205,225,225,,125,135,145,145,,205,-230,,205,,575,SBD,1
Federico Meijone,Wraps,M,1998-06-25,106.45,23,Open,110,325,345,355,355,,185,197.5,-205.5,197.5,,300,310,,310,,862.5,SBD,2
Hernan D. Concilo,Wraps,M,1981-06-29,99.35,40,M 40-49,100,195,210,220,220,,120,127.5,135,135,,220,232.5,245,245,,600,SBD,1
Jose Aguirre,Multi-ply,M,1970-11-17,98.7,50,M 50-59,100,185,205,225,225,,125,135,145,145,,205,-230,,205,,575,SBD,1
Federico Meijone,Wraps,M,1998-06-25,106.45,23,Jun,110,325,345,355,355,,185,197.5,-205.5,197.5,,300,310,,310,,862.5,SBD,1
Guillermo Hartl,Wraps,M,1996-07-01,104.8,25,Open,110,215,225,240,240,,125,132.5,150,150,,235,250,270,270,,660,SBD,6
Emiliano Barrionuevo,Wraps,M,1991-12-24,105.1,29,Open,110,280,300,-310,300,,190,-200,-200,190,,300,-310,,300,,790,SBD,3
Mauro Spinardi,Wraps,M,1980-02-28,109,41,Open,110,342.5,-362.5,362.5,362.5,,190,202.5,-210,202.5,,295,315,330,330,,895,SBD,1
German Ciacia,Wraps,M,1972-09-07,103.8,48,Open,110,-140,140,150,150,,-110,110,-117.5,110,,150,165,180,180,,440,SBD,8
Juan Manavella,Wraps,M,1977-01-01,109.2,44,Open,110,280,300,,300,,160,170,-175,170,,260,280,300,300,,770,SBD,4
Mauro Spinardi,Wraps,M,1980-02-28,109,41,M 40-49,110,342.5,-362.5,362.5,362.5,,190,202.5,-210,202.5,,295,315,330,330,,895,SBD,1
German Ciacia,Wraps,M,1972-09-07,103.8,48,M 40-49,110,-140,140,150,150,,-110,110,-117.5,110,,150,165,180,180,,440,SBD,3
Juan Manavella,Wraps,M,1977-01-01,109.2,44,M 40-49,110,280,300,,300,,160,170,-175,170,,260,280,300,300,,770,SBD,2
José Coelho,Wraps,M,1984-01-10,124.1,37,Open,125,190,215,-225,215,,85,92.5,-100,92.5,,200,210,220,220,,527.5,SBD,3
Facundo Estala,Wraps,M,1993-03-12,123.66,28,Open,125,-250,250,-280,250,,150,160,-170,160,,270,290,300,300,,710,SBD,2
Lautaro Jauregui Lorda,Wraps,M,1990-04-09,123.7,31,Open,125,300,320,335,335,,170,-180,,170,,300,315,330,330,,835,SBD,1
Leonardo Cavaglia,Wraps,M,1976-01-12,129,45,Open,140,300,,,300,,180,190,-200,190,,270,290,-300,290,,780,SBD,3
Joaquín Díaz,Wraps,M,2002-01-25,136.2,19,Open,140,240,250,260,260,,130,140,-145,140,,225,235,-245,235,,635,SBD,7
Facundo Giacche,Wraps,M,1998-01-21,133.2,23,Open,140,240,255,270,270,-280,170,180,185,185,,250,265,280,280,,735,SBD,4
Leonardo Cavaglia,Wraps,M,1976-01-12,129,45,M 40-49,140,300,,,300,,180,190,-200,190,,270,290,-300,290,,780,SBD,1
Joaquín Díaz,Wraps,M,2002-01-25,136.2,19,Tn 18-19,140,240,250,260,260,,130,140,-145,140,,225,235,-245,235,,635,SBD,1
Facundo Giacche,Wraps,M,1998-01-21,133.2,23,Jun,140,240,255,270,270,-280,170,180,185,185,,250,265,280,280,,735,SBD,1
Emanuel Mansilla,Wraps,M,1995-05-30,108.1,26,Open,110,225,245,255,255,,117.5,125,130,130,,220,235,250,250,,635,SBD,7
Nicolas Espinosa,Wraps,M,1989-05-03,139.1,32,Open,140,250,265,-270,265,,120,130,-140,130,,230,-240,,230,,625,SBD,8
Alexis Dalessandro,Wraps,M,1995-05-07,129.65,26,Open,140,280,290,300,300,,-170,170,180,180,,300,315,-330.5,315,,795,SBD,2
Adrian Lopez #3,Wraps,M,1986-08-07,139,35,Open,140,300,320,-332.5,320,,175,182.5,-187.5,182.5,,290,310,315,315,,817.5,SBD,1
Lautaro Antonuccio,Wraps,M,2002-02-05,105.85,19,Open,110,260,-280,280,280,300,117.5,130,140,140,,250,270,285,285,-300.5,705,SBD,5
Mario Martinez,Wraps,M,1979-11-07,141.5,41,Open,140+,250,270,282.5,282.5,,155,165,-175,165,,255,265,275,275,,722.5,SBD,5
Mariano Marengo,Wraps,M,1974-08-18,150.5,47,Open,140+,-240,250,-270,250,,155,165,175,175,,255,275,287.5,287.5,,712.5,SBD,6
Lautaro Antonuccio,Wraps,M,2002-02-05,105.85,19,Tn 18-19,110,260,-280,280,280,300,117.5,130,140,140,,250,270,285,285,-300.5,705,SBD,1
Mario Martinez,Wraps,M,1979-11-07,141.5,41,M 40-49,140+,250,270,282.5,282.5,,155,165,-175,165,,255,265,275,275,,722.5,SBD,2
Mariano Marengo,Wraps,M,1974-08-18,150.5,47,M 40-49,140+,-240,250,-270,250,,155,165,175,175,,255,275,287.5,287.5,,712.5,SBD,3
Soledad Gambarte,Raw,F,1997-01-15,66.45,24,Open,67.5,,,,,,57.5,62.5,67.5,67.5,70,,,,,,67.5,B,1
Ana Castro,Multi-ply,F,1994-01-20,66.7,27,Open,67.5,,,,,,75,82.5,-87.5,82.5,,,,,,,82.5,B,1
Mauro Lejona,Raw,M,1982-03-12,78.45,39,Open,82.5,,,,,,155,162.5,167.5,167.5,,,,,,,167.5,B,2
Maximiliano Odino,Raw,M,1977-01-13,81.65,44,Open,82.5,,,,,,172.5,177.5,-185,177.5,,,,,,,177.5,B,1
Carlos Porta,Raw,M,1933-02-03,81.4,88,Open,82.5,,,,,,60,67.5,70,70,-72.5,,,,,,70,B,3
Sergio Gomez Goldschmidt,Raw,M,2005-07-07,72.85,16,Open,75,,,,,,72.5,80,85,85,,,,,,,85,B,1
Maximiliano Odino,Raw,M,1977-01-13,81.65,44,M 40-49,82.5,,,,,,172.5,177.5,-185,177.5,,,,,,,177.5,B,1
Carlos Porta,Raw,M,1933-02-03,81.4,88,M 80+,82.5,,,,,,60,67.5,70,70,-72.5,,,,,,70,B,1
Sergio Gomez Goldschmidt,Raw,M,2005-07-07,72.85,16,Tn 16-17,75,,,,,,72.5,80,85,85,,,,,,,85,B,1
Mario Garcia,Multi-ply,M,1992-10-20,87,28,Open,90,,,,,,175,190,200,200,,,,,,,200,B,1
Facundo Paz,Raw,M,1974-12-05,87.95,46,Open,90,,,,,,175,-182.5,182.5,182.5,185,,,,,,182.5,B,1
Nicolas Godoy,Raw,M,1978-01-25,88.7,43,Open,90,,,,,,140,145,-147.5,145,,,,,,,145,B,2
Facundo Paz,Raw,M,1974-12-05,87.95,46,M 40-49,90,,,,,,175,-182.5,182.5,182.5,185,,,,,,182.5,B,1
Nicolas Godoy,Raw,M,1978-01-25,88.7,43,M 40-49,90,,,,,,140,145,-147.5,145,,,,,,,145,B,2
Ezequiel Millet,Raw,M,1986-05-27,98.8,35,Open,100,,,,,,180,190,-195,190,,,,,,,190,B,2
Marcos Azcurra,Raw,M,1976-11-16,98.05,44,Open,100,,,,,,-180,-190,-197.5,,,,,,,,,B,DQ
Pablo Aurellio,Raw,M,1978-12-22,99.3,42,Open,100,,,,,,180,190,197.5,197.5,,,,,,,197.5,B,1
Damian Brankovic,Raw,M,1980-05-28,90.3,41,Open,100,,,,,,145,152.5,155,155,,,,,,,155,B,3
Lucas Basualdo,Raw,M,1981-02-20,90,40,Open,90,,,,,,107.5,110,112.5,112.5,,,,,,,112.5,B,3
Javier Jimenez,Raw,M,1970-06-20,96.15,51,Open,100,,,,,,90,100,110,110,,,,,,,110,B,5
Nestor Gonzalez,Raw,M,1970-03-06,100,51,Open,100,,,,,,115,122.5,130,130,,,,,,,130,B,4
Sebastian Machado,Raw,M,1978-08-20,103.9,43,Open,110,,,,,,165,-170,170,170,,,,,,,170,B,1
Daniel Acuña #1,Raw,M,2004-05-06,120.5,17,Open,125,,,,,,115,125,140,140,,,,,,,140,B,3
Marcos Azcurra,Raw,M,1976-11-16,98.05,44,M 40-49,100,,,,,,-180,-190,-197.5,,,,,,,,,B,DQ
Pablo Aurellio,Raw,M,1978-12-22,99.3,42,M 40-49,100,,,,,,180,190,197.5,197.5,,,,,,,197.5,B,1
Damian Brankovic,Raw,M,1980-05-28,90.3,41,M 40-49,100,,,,,,145,152.5,155,155,,,,,,,155,B,2
Lucas Basualdo,Raw,M,1981-02-20,90,40,M 40-49,90,,,,,,107.5,110,112.5,112.5,,,,,,,112.5,B,3
Javier Jimenez,Raw,M,1970-06-20,96.15,51,M 50-59,100,,,,,,90,100,110,110,,,,,,,110,B,2
Nestor Gonzalez,Raw,M,1970-03-06,100,51,M 50-59,100,,,,,,115,122.5,130,130,,,,,,,130,B,1
Sebastian Machado,Raw,M,1978-08-20,103.9,43,M 40-49,110,,,,,,165,-170,170,170,,,,,,,170,B,1
Daniel Acuña #1,Raw,M,2004-05-06,120.5,17,Tn 16-17,125,,,,,,115,125,140,140,,,,,,,140,B,1
Erik Anzalo,Raw,M,1990-07-18,122.3,31,Open,125,,,,,,210,220,227.5,227.5,,,,,,,227.5,B,1
Pablo Garrido,Raw,M,1989-09-16,118.55,31,Open,125,,,,,,210,217.5,-225,217.5,,,,,,,217.5,B,2
Gabriel Lopez,Raw,M,1977-03-06,128.8,44,Open,140,,,,,,140,150,160,160,,,,,,,160,B,1
Yanina Delvalle,Raw,F,1978-08-29,52.5,43,Open,56,,,,,,50,55,57.5,57.5,,90,105,110,110,,167.5,BD,1
Gabriel Lopez,Raw,M,1977-03-06,128.8,44,M 40-49,140,,,,,,140,150,160,160,,,,,,,160,B,1
Yanina Delvalle,Raw,F,1978-08-29,52.5,43,M 40-49,56,,,,,,50,55,57.5,57.5,,90,105,110,110,,167.5,BD,1
Pablo Spagnuolo,Raw,M,1995-10-25,74.2,25,Open,75,,,,,,140,150,155,155,,220,235,250,250,,405,BD,1
Hernan Helmholt,Raw,M,,72.85,,Open,75,,,,,,97.5,105,-115,105,,190,200,210,210,,315,BD,2
Pablo Raccanello,Raw,M,1986-02-15,79.15,35,Open,82.5,,,,,,-60,60,,60,,-85,85,,85,,145,BD,3
Damián Gomez,Raw,M,1993-09-28,81.8,27,Open,82.5,,,,,,152.5,157.5,162.5,162.5,,230,240,245,245,-250.5,407.5,BD,1
Fabian Rivero,Raw,M,1990-07-29,85,31,Open,90,,,,,,132.5,142.5,-147.5,142.5,,232.5,247.5,252.5,252.5,,395,BD,1
Jose Luis Rodriguez,Raw,M,1989-12-13,80.4,31,Open,82.5,,,,,,110,-130,-130,110,,220,235,245,245,,355,BD,2
Andrés Elvira,Raw,M,1979-04-25,72,42,Open,75,,,,,,107.5,115,-120,115,,175,,,175,,290,BD,3
Andrés Elvira,Raw,M,1979-04-25,72,42,M 40-49,75,,,,,,107.5,115,-120,115,,175,,,175,,290,BD,1
Marcos Di Santo,Raw,M,1992-08-06,90,29,Open,90,,,,,,160,-170.5,-170.5,160,,-215,-215,215,215,,375,BD,2
German Orpianessi,Raw,M,1980-11-11,98,40,Open,100,,,,,,110,120,-125,120,,210,225,235,235,,355,BD,2
Martin Marquez,Raw,M,1998-11-06,105.2,22,Open,110,,,,,,127.5,-132.5,132.5,132.5,,185,192.5,-205,192.5,,325,BD,1
German Orpianessi,Raw,M,1980-11-11,98,40,M 40-49,100,,,,,,110,120,-125,120,,210,225,235,235,,355,BD,1
Martin Marquez,Raw,M,1998-11-06,105.2,22,Jun,110,,,,,,127.5,-132.5,132.5,132.5,,185,192.5,-205,192.5,,325,BD,1
Jonatan Fontana,Raw,M,1992-06-28,98.5,29,Open,100,,,,,,145,-155,-155,145,,270,-290,-290,270,,415,BD,1
Cesar Simioni,Raw,M,1999-10-03,77.5,21,Open,82.5,,,,,,,,,,,180,190,200,200,,200,D,2
Cesar Simioni,Raw,M,1999-10-03,77.5,21,Jun,82.5,,,,,,,,,,,180,190,200,200,,200,D,1
Damian Dominicheli,Raw,M,1987-02-13,80.9,34,Open,82.5,,,,,,,,,,,170,180,-190,180,,180,D,3
Jose Luis Rodriguez,Raw,M,1989-12-13,80.4,31,Open,82.5,,,,,,,,,,,220,235,245,245,,245,D,1
Nicolas Giglio,Raw,M,1997-05-21,88,24,Open,90,,,,,,,,,,,230,252.5,-263,252.5,,252.5,D,1
