Place,Name,Sex,Event,Division,WeightClassKg,Equipment,BirthYear,Team,State,BodyweightKg,Squat1Kg,Squat2Kg,Squat3Kg,Best3SquatKg,Bench1Kg,Bench2Kg,Bench3Kg,Best3BenchKg,Deadlift1Kg,Deadlift2Kg,Deadlift3Kg,Best3DeadliftKg,TotalKg,Age,BirthDate
1,Savannah McDougall,F,SBD,F-C,63,Single-ply,2001,,TX,62.3,150,157.5,162.5,162.5,57.5,62.5,67.5,67.5,155,170,182.5,182.5,412.5,,
1,Alice Hardin,F,SBD,F-O,63,Single-ply,1992,,TX,62.7,155,165,,165,97.5,100,102.5,102.5,155,-165,,155,422.5,,
1,Annabelle Butts,F,SBD,FR-C,52,Raw,2000,,TX,50.9,80,-85,-85,80,52.5,57.5,-62.5,57.5,112.5,-132.5,132.5,132.5,270,,
2,Jackie Peña,F,SBD,FR-C,52,Raw,2001,,TX,51.9,95,100,102.5,102.5,40,42.5,-47.5,42.5,110,120,125,125,270,,
3,Iliana Gamez,F,SBD,FR-C,52,Raw,2001,,TX,50.2,87.5,-95,-95,87.5,40,45,-47.5,45,102.5,110,115,115,247.5,,
1,Criselda Facundo,F,SBD,FR-C,57,Raw,2001,,TX,56.8,120,127.5,-130,127.5,-72.5,75,-80,75,165,175,-180,175,377.5,,
1,Elizabeth Beauchamp,F,SBD,FR-C,63,Raw,1999,Trinity University Powerlifting,TX,62.2,112.5,-122.5,122.5,122.5,70,77.5,-82.5,77.5,135,145,-152.5,145,345,,
2,Sophie Radi,F,SBD,FR-C,63,Raw,2002,Trinity University Powerlifting,TX,61.6,92.5,-97.5,-102.5,92.5,35,37.5,-40,37.5,-110,115,122.5,122.5,252.5,,
1,Tessa Willis,F,SBD,FR-C,69,Raw,1996,,TX,64.5,135,137.5,-142.5,137.5,60,-65,-65,60,175,182.5,-192.5,182.5,380,,
1,Britney George,F,SBD,FR-C,76,Raw,2000,,TX,71.2,147.5,-155,155,155,77.5,-85,-85,77.5,152.5,162.5,-167.5,162.5,395,,
2,Cara Garcia,F,SBD,FR-C,76,Raw,2001,,TX,72.4,97.5,105,112.5,112.5,60,65,-67.5,65,130,140,145,145,322.5,,
1,Rayna Webb,F,SBD,FR-C,84,Raw,2000,Trinity University Powerlifting,TX,81.5,127.5,132.5,137.5,137.5,62.5,65,-67.5,65,117.5,122.5,-125,122.5,325,,
1,Christina Peterson,F,SBD,FR-C,84+,Raw,2000,,TX,114.3,165,172.5,-177.5,172.5,72.5,77.5,-85,77.5,150,157.5,167.5,167.5,417.5,,
1,Adriana Resendez,F,SBD,FR-Jr,63,Raw,1999,,TX,61.8,-75,80,82.5,82.5,37.5,40,42.5,42.5,90,102.5,107.5,107.5,232.5,,
1,Shauna Flach,F,SBD,FR-Jr,69,Raw,2001,,TX,68.3,100,107.5,117,117,60,65,-70,65,120,130,137.5,137.5,319.5,,
1,Madeline Welch,F,SBD,FR-Jr,76,Raw,1999,,TN,75.9,117.5,125,127.5,127.5,65,70,72.5,72.5,162.5,172.5,182.5,182.5,382.5,,
1,Lili Semon,F,SBD,FR-Jr,84,Raw,1998,,TX,80.2,97.5,105,110,110,52.5,-57.5,57.5,57.5,110,120,125,125,292.5,,
1,Christina Peterson,F,SBD,FR-Jr,84+,Raw,2000,,TX,114.3,165,172.5,-177.5,172.5,72.5,77.5,-85,77.5,150,157.5,167.5,167.5,417.5,,
1,Jennifer Nunez,F,SBD,FR-M1b,69,Raw,1975,,TX,63.9,75,80,82.5,82.5,50,52.5,-55,52.5,100,105,-110,105,240,,
1,Lisa Benavides,F,SBD,FR-M1b,84+,Raw,1972,,TX,95.5,135,140,-145,140,95,-102.5,105,105,180,190,-195,190,435,,
1,Kymberly Bolden-Jones,F,SBD,FR-O,52,Raw,1996,,TX,51.4,90,97.5,105,105,55,60,62.5,62.5,112.5,122.5,132.5,132.5,300,,
2,Vanessa Gomez,F,SBD,FR-O,52,Raw,1994,,TX,50.7,87.5,92.5,97.5,97.5,40,45,-50,45,102.5,107.5,115,115,257.5,,
1,Angela Kalogeras,F,SBD,FR-O,63,Raw,1996,,TX,62.5,137.5,150,155,155,72.5,77.5,-82.5,77.5,145,165,,165,397.5,,
2,Alma Martinez,F,SBD,FR-O,63,Raw,1996,,TX,61.6,130,-135,-142.5,130,80,-85,-85,80,147.5,152.5,-160,152.5,362.5,,
3,Alexandra Berger,F,SBD,FR-O,63,Raw,1994,,TX,61.9,105,112.5,-117.5,112.5,70,75,80,80,130,137.5,142.5,142.5,335,,
1,Tessa Willis,F,SBD,FR-O,69,Raw,1996,,TX,64.5,135,137.5,-142.5,137.5,60,-65,-65,60,175,182.5,-192.5,182.5,380,,
1,Britney George,F,SBD,FR-O,76,Raw,2000,,TX,71.2,147.5,-155,155,155,77.5,-85,-85,77.5,152.5,162.5,-167.5,162.5,395,,
2,Madeline Welch,F,SBD,FR-O,76,Raw,1999,,TN,75.9,117.5,125,127.5,127.5,65,70,72.5,72.5,162.5,172.5,182.5,182.5,382.5,,
3,Selena Rios,F,SBD,FR-O,76,Raw,1996,,TX,75,-130,130,-135,130,55,-60,-60,55,140,145,150,150,335,,
4,Olga Gomez,F,SBD,FR-O,76,Raw,1989,,TX,75.3,102.5,-107.5,107.5,107.5,42.5,45,47.5,47.5,115,125,135,135,290,,
1,Lisa Benavides,F,SBD,FR-O,84+,Raw,1972,,TX,95.5,135,140,-145,140,95,-102.5,105,105,180,190,-195,190,435,,
1,Daniela Valdez,F,SBD,FR-T2,63,Raw,2004,,TX,62.3,112.5,122.5,127.5,127.5,60,-65,65,65,122.5,132.5,140,140,332.5,,
1,Isis Sandiford,F,SBD,FR-T2,69,Raw,2004,,TX,67.3,115,120,127.5,127.5,62.5,67.5,70,70,122.5,132.5,140,140,337.5,,
2,Exene Pena,F,SBD,FR-T2,69,Raw,2003,,TX,67.7,75,-80,-80,75,37.5,-40,-40,37.5,82.5,85,-92.5,85,197.5,,
1,Janet Trevino,F,SBD,FW-M1a,76,Wraps,1979,,TX,75.1,-87.5,87.5,100,100,50,52.5,57.5,57.5,127.5,145,-150,145,302.5,,
1,Janet Trevino,F,SBD,FW-O,76,Wraps,1979,,TX,75.1,-87.5,87.5,100,100,50,52.5,57.5,57.5,127.5,145,-150,145,302.5,,
1,Sindy Garcia,F,SBD,F-T3,76,Single-ply,2002,,TX,69.4,137.5,-140,-140,137.5,42.5,45,47.5,47.5,117.5,122.5,-132.5,122.5,307.5,,
1,Michael Van,M,SBD,MR-C,66,Raw,2000,,TX,64.7,142.5,152.5,160,160,97.5,105,107.5,107.5,205,215,227.5,227.5,495,,
1,Marcos Chavez,M,SBD,MR-C,74,Raw,1999,,TX,70,185,195,202.5,202.5,-127.5,135,140,140,227.5,247.5,265,265,607.5,,
2,Alvin Vo,M,SBD,MR-C,74,Raw,2001,,CA,72.7,190,200,202.5,202.5,120,122.5,-125,122.5,240,-252.5,-252.5,240,565,,
3,José Lagunas,M,SBD,MR-C,74,Raw,2000,,TX,73.6,190,200,210,210,112.5,117.5,125,125,197.5,210,227.5,227.5,562.5,,
4,Faysal Al-Zand,M,SBD,MR-C,74,Raw,2002,Trinity University Powerlifting,TX,72.9,170,182.5,-187.5,182.5,115,120,122.5,122.5,215,220,222.5,222.5,527.5,,
5,Steven Chacon,M,SBD,MR-C,74,Raw,1998,,TX,72,165,175,-182.5,175,100,105,110,110,210,222.5,232.5,232.5,517.5,,
1,Enver Ogmen,M,SBD,MR-C,83,Raw,2001,Trinity University Powerlifting,TX,81.5,145,155,-165,155,100,110,115,115,182.5,207.5,215,215,485,,
2,Jonathan Rodriguez,M,SBD,MR-C,83,Raw,2001,Trinity University Powerlifting,TX,78.6,150,155,160,160,82.5,-87.5,-87.5,82.5,175,185,187.5,187.5,430,,
3,Jonluca Biagini,M,SBD,MR-C,83,Raw,2001,Trinity University Powerlifting,TX,75.2,92.5,105,125,125,70,77.5,80,80,102.5,130,140,140,345,,
1,Jason Cambra,M,SBD,MR-C,93,Raw,2001,,TX,90,242.5,255,262.5,262.5,160,172.5,-180,172.5,237.5,247.5,260,260,695,,
2,Phillip Villalba,M,SBD,MR-C,93,Raw,2000,Trinity University Powerlifting,TX,88.8,200,205,215,215,127.5,132.5,-137.5,132.5,215,222.5,230,230,577.5,,
3,Jeremiah Poblete,M,SBD,MR-C,93,Raw,1999,,TX,89.9,187.5,-200,-200,187.5,97.5,102.5,105,105,200,210,217.5,217.5,510,,
1,Obed Hernandez,M,SBD,MR-C,105,Raw,2001,,TX,98.8,240,250,260,260,155,162.5,167.5,167.5,245,257.5,265,265,692.5,,
2,Austin Banks-Wilson,M,SBD,MR-C,105,Raw,1995,,TX,104.6,215,235,-242.5,235,160,167.5,170,170,265,282.5,-290,282.5,687.5,,
3,Raul Aguilera,M,SBD,MR-C,105,Raw,1997,,TX,104.1,205,220,230,230,160,167.5,177.5,177.5,245,255,-272.5,255,662.5,,
4,Juan Gomez,M,SBD,MR-C,105,Raw,1998,,TX,100.4,210,220,-230,220,155,160,-162.5,160,260,-275,-282.5,260,640,,
5,Jacob Caldera,M,SBD,MR-C,105,Raw,1997,,TX,101.5,210,217.5,222.5,222.5,155,165,170,170,240,-245,-245,240,632.5,,
6,Asa Meyer,M,SBD,MR-C,105,Raw,1998,,TX,101,225,235,242.5,242.5,120,125,132.5,132.5,237.5,252.5,-257.5,252.5,627.5,,
1,Matthew Willis,M,SBD,MR-C,120+,Raw,1998,Trinity University Powerlifting,TX,135,-265,265,,265,130,145,-157.5,145,220,232.5,242.5,242.5,652.5,,
2,Ameer Mustafa,M,SBD,MR-C,120+,Raw,2001,Trinity University Powerlifting,TX,154.4,207.5,220,235,235,175,182.5,-192.5,182.5,207.5,217.5,230,230,647.5,,
3,Clayton Malone,M,SBD,MR-C,120+,Raw,2003,,LA,144.5,200,210,-215,210,137.5,147.5,155,155,175,187.5,205,205,570,,
1,Brandon Nguyen,M,SBD,MR-Jr,66,Raw,2001,,NJ,65.2,140,152.5,160,160,90,95,97.5,97.5,205,215,222.5,222.5,480,,
2,Zach Wetherbee,M,SBD,MR-Jr,66,Raw,2000,,TX,61.5,125,132.5,137.5,137.5,87.5,92.5,95,95,145,152.5,162.5,162.5,395,,
1,Alvin Vo,M,SBD,MR-Jr,74,Raw,2001,,CA,72.7,190,200,202.5,202.5,120,122.5,-125,122.5,240,-252.5,-252.5,240,565,,
1,Jorge Molina,M,SBD,MR-Jr,83,Raw,2000,,TX,81.5,195,205,215,215,130,135,137.5,137.5,235,-245,-245,235,587.5,,
2,Donovan Torres,M,SBD,MR-Jr,83,Raw,1998,,TX,80.8,185,197.5,-200,197.5,125,130,132.5,132.5,220,237.5,-240,237.5,567.5,,
3,Lucas Riley,M,SBD,MR-Jr,83,Raw,2001,Trinity University Powerlifting,FL,78.2,102.5,112.5,-127.5,112.5,75,80,87.5,87.5,142.5,-157.5,162.5,162.5,362.5,,
4,Nicholas Miliatis,M,SBD,MR-Jr,83,Raw,2001,Trinity University Powerlifting,NM,76.9,80,87.5,92.5,92.5,72.5,80,-82.5,80,137.5,147.5,157.5,157.5,330,,
1,Michael Berry,M,SBD,MR-Jr,105,Raw,1997,,TX,104.8,180,-192.5,205,205,142.5,-147.5,-147.5,142.5,235,252.5,-272.5,252.5,600,,
DQ,Juan Martinez,M,SBD,MR-Jr,105,Raw,1999,,TX,101.3,-192.5,205,-215,205,-117.5,-127.5,-127.5,,207.5,220,-232.5,220,,,
1,Pablo Olivares,M,SBD,MR-Jr,120+,Raw,1999,,TX,171.3,305,325,342.5,342.5,175,185,192.5,192.5,300,320,-335,320,855,,
2,Charleston Stephens,M,SBD,MR-Jr,120+,Raw,1999,,TN,159.6,295,312.5,330,330,182.5,192.5,200,200,265,280,-290,280,810,,
3,Gilbert Ibarra,M,SBD,MR-Jr,120+,Raw,1999,,TX,134.5,182.5,192.5,-197.5,192.5,110,117.5,122.5,122.5,205,217.5,-227.5,217.5,532.5,,
1,Dan Mallard,M,SBD,MR-M1b,105,Raw,1975,,TX,104.3,220,230,235,235,130,-135,-135,130,225,237.5,247.5,247.5,612.5,,
1,Duane Young,M,SBD,MR-M3a,74,Raw,1960,,TX,73.7,135,142.5,-150,142.5,87.5,92.5,-100,92.5,167.5,182.5,-187.5,182.5,417.5,,
1,Joshua Holl,M,SBD,MR-O,59,Raw,1994,,TX,,167.5,175,-180,175,-125,125,127.5,127.5,182.5,187.5,192.5,192.5,495,,
1,Bryan Rodriguez Gomez,M,SBD,MR-O,74,Raw,1996,,TX,73.8,222.5,235,-242.5,235,157.5,167.5,172.5,172.5,245,257.5,-267.5,257.5,665,,
2,Brandon Cantu,M,SBD,MR-O,74,Raw,1993,,TX,72.7,185,192.5,195,195,132.5,137.5,142.5,142.5,192.5,202.5,215,215,552.5,,
3,Aaron Jim Rivera,M,SBD,MR-O,74,Raw,1995,,PA,73,170,180,187.5,187.5,97.5,102.5,107.5,107.5,197.5,207.5,-220,207.5,502.5,,
1,Seth Wolfe,M,SBD,MR-O,83,Raw,1992,,TX,82.7,-210,210,-220,210,142.5,152.5,-160,152.5,220,230,242.5,242.5,605,,
2,Donovan Torres,M,SBD,MR-O,83,Raw,1998,,TX,80.8,185,197.5,-200,197.5,125,130,132.5,132.5,220,237.5,-240,237.5,567.5,,
3,Josh Arnold,M,SBD,MR-O,83,Raw,1990,,TX,80.4,170,180,185,185,130,140,-145,140,210,220,-225,220,545,,
4,Cristian Najarro,M,SBD,MR-O,83,Raw,1994,,TX,81.2,175,185,-192.5,185,120,127.5,132.5,132.5,205,220,227.5,227.5,545,,
5,Miguel Hernandez,M,SBD,MR-O,83,Raw,1986,,TX,80.8,147.5,-152.5,152.5,152.5,-85,85,-87.5,85,175,177.5,182.5,182.5,420,,
6,Yi Chen #2,M,SBD,MR-O,83,Raw,1988,,TX,82.2,115,125,140,140,92.5,97.5,100,100,140,152.5,-162.5,152.5,392.5,,
DQ,Michael Incrocci,M,SBD,MR-O,83,Raw,1987,,TX,80.3,120,122.5,125,125,-100,-100,-100,,152.5,157.5,162.5,162.5,,,
1,Collin White,M,SBD,MR-O,93,Raw,1991,,TX,92.9,225,237.5,250,250,120,130,135,135,237.5,255,272.5,272.5,657.5,,
2,Adam Jurado,M,SBD,MR-O,93,Raw,1994,,TX,87.1,212.5,222.5,227.5,227.5,152.5,-160,-160,152.5,237.5,245,-250,245,625,,
3,Jeremy Smith #10,M,SBD,MR-O,93,Raw,1995,,TX,90.8,175,182.5,190,190,130,137.5,142.5,142.5,202.5,215,-227.5,215,547.5,,
4,Bradley Ensley,M,SBD,MR-O,93,Raw,1996,,TX,90.8,152.5,165,175,175,-105,112.5,-117.5,112.5,167.5,175,190,190,477.5,,
1,Riley Hubbard,M,SBD,MR-O,105,Raw,1994,,TX,100.6,227.5,240,250,250,-142.5,152.5,-167.5,152.5,257.5,277.5,-290,277.5,680,,
2,Caleb Lamberth,M,SBD,MR-O,105,Raw,1996,,TX,96.3,215,230,245,245,155,165,-175,165,220,237.5,255,255,665,,
3,Ethan Deschner,M,SBD,MR-O,105,Raw,1997,,TX,101.3,215,227.5,237.5,237.5,135,145,-152.5,145,225,235,250,250,632.5,,
1,Gordon Webb,M,SBD,MR-O,120,Raw,1997,,TX,111.8,197.5,210,222.5,222.5,120,132.5,-145,132.5,225,235,240,240,595,,
1,Charleston Stephens,M,SBD,MR-O,120+,Raw,1999,,TN,159.6,295,312.5,330,330,182.5,192.5,200,200,265,280,-290,280,810,,
1,Zachary Garcez,M,SBD,MR-T2,74,Raw,2004,,TX,71.9,152.5,157.5,165,165,-95,100,107.5,107.5,185,192.5,200,200,472.5,,
1,Rey Torres,M,SBD,MR-T2,93,Raw,2004,,TX,85.6,112.5,120,132.5,132.5,90,97.5,102.5,102.5,130,135,147.5,147.5,382.5,,
1,John Hawes,M,SBD,MR-T3,83,Raw,2002,Trinity University Powerlifting,TX,79.9,100,-110,115,115,75,-82.5,-87.5,75,125,140,160,160,350,,
1,Grant O'Neal,M,SBD,MR-T3,93,Raw,2002,Trinity University Powerlifting,TX,86.4,87.5,97.5,105,105,55,-67.5,-67.5,55,130,145,-147.5,145,305,,
1,Ryan Garcia #1,M,SBD,MR-T3,120+,Raw,2001,,TX,152.3,227.5,240,255,255,130,140,142.5,142.5,240,255,-275,255,652.5,,
1,Erik Trevino,M,SBD,MW-Jr,105,Wraps,1998,,TX,102.7,185,192.5,-195,192.5,-112.5,117.5,-122.5,117.5,192.5,210,215,215,525,,
DQ,Joshua Tillis,M,SBD,MW-Jr,105,Wraps,1997,,TX,101.9,167.5,-172.5,-172.5,167.5,165,170,-175,170,-232.5,-237.5,250,250,,,
1,Cody Saenz,M,SBD,MW-O,105,Wraps,2006,,TX,103.6,172.5,177.5,-187.5,177.5,80,87.5,90,90,175,182.5,187.5,187.5,455,,
1,Cody Saenz,M,SBD,MW-T1,105,Wraps,2006,,TX,103.6,172.5,177.5,-187.5,177.5,80,87.5,90,90,175,182.5,187.5,187.5,455,,
