Name,Sex,Division,Age,WeightClassKg,School,Event,Equipment,Best3SquatKg,Best3BenchKg,Best3DeadliftKg,TotalKg,Place
Jeff Juangco,M,Frosh/Soph,15,52,Stockdale,SBD,Raw,74.84,65.77,138.35,278.96,1
Alex Magana,M,Frosh/Soph,15,52,Ridgeview,SBD,Raw,102.06,61.23,115.67,278.96,2
Jay Garber,M,Frosh/Soph,15,52,Stockdale,SBD,Raw,77.11,-49.9,83.91,,DQ
John Sy,M,Frosh/Soph,15,56,Golden Valley,SBD,Raw,115.67,83.91,122.47,322.05,1
Tyler Watt,M,Frosh/Soph,15,56,Ridgeview,SBD,Raw,102.06,61.23,120.2,283.5,2
Christian Reyes,M,Frosh/Soph,15,56,Golden Valley,SBD,Raw,95.25,74.84,108.86,278.96,3
Andrew Yasania,M,Frosh/Soph,15,56,East,SBD,Raw,74.84,68.04,102.06,244.94,4
Michael Barron,M,Frosh/Soph,15,56,Golden Valley,SBD,Raw,72.57,68.04,102.06,242.67,5
Keith Hough,M,Frosh/Soph,15,56,Stockdale,SBD,Raw,70.31,52.16,88.45,210.92,6
Kenny Geissel,M,Frosh/Soph,15,56,East,SBD,Raw,61.23,-40.82,,,DQ
Brandon Harris,M,Frosh/Soph,15,60,Ridgeview,SBD,Raw,124.74,72.57,122.47,319.78,1
Gene Blair,M,Frosh/Soph,15,60,Ridgeview,SBD,Raw,102.06,63.5,138.35,303.91,2
Ren Floyd,M,Frosh/Soph,15,60,Stockdale,SBD,Raw,113.4,65.77,115.67,294.84,3
Ricky Rosenberg,M,Frosh/Soph,15,60,Stockdale,SBD,Raw,81.65,81.65,113.4,276.69,4
Ryan Kirschenman,M,Frosh/Soph,15,60,Stockdale,SBD,Raw,83.91,72.57,120.2,276.69,5
Mitch Bettes,M,Frosh/Soph,15,60,Stockdale,SBD,Raw,83.91,70.31,113.4,267.62,6
David Calderon,M,Frosh/Soph,15,60,Highland,SBD,Raw,70.31,52.16,142.88,265.35,7
Josh Gil,M,Frosh/Soph,15,60,Highland,SBD,Raw,70.31,61.23,115.67,247.21,8
Hector Vela,M,Frosh/Soph,15,60,Highland,SBD,Raw,-102.06,61.23,142.88,,DQ
Brandon Eggenburg,M,Frosh/Soph,15,60,Stockdale,SBD,Raw,83.91,,,,DQ
Lance Claiborne,M,Frosh/Soph,15,60,Stockdale,SBD,Raw,-97.52,,,,DQ
Jeff Jones,M,Frosh/Soph,15,67.5,Stockdale,SBD,Raw,117.93,111.13,165.56,394.63,1
Jeffrey McDonald,M,Frosh/Soph,15,67.5,East,SBD,Raw,142.88,83.91,149.69,376.48,2
Moses Corbell,M,Frosh/Soph,15,67.5,Stockdale,SBD,Raw,129.27,90.72,149.69,369.68,3
Caleb Bolton,M,Frosh/Soph,15,67.5,Highland,SBD,Raw,133.81,77.11,154.22,365.14,4
Justin Spears,M,Frosh/Soph,15,67.5,Liberty,SBD,Raw,120.2,92.99,151.95,365.14,5
Charles Bagsby,M,Frosh/Soph,15,67.5,Golden Valley,SBD,Raw,108.86,77.11,142.88,328.85,6
Juan Solis,M,Frosh/Soph,15,67.5,Golden Valley,SBD,Raw,113.4,70.31,140.61,324.32,7
Chase Lanyon,M,Frosh/Soph,15,67.5,Ridgeview,SBD,Raw,113.4,81.65,122.47,317.51,8
Tyler Hernandez,M,Frosh/Soph,15,67.5,Stockdale,SBD,Raw,102.06,79.38,133.81,315.25,9
Edwin Rosas,M,Frosh/Soph,15,67.5,Highland,SBD,Raw,106.59,65.77,136.08,308.44,10
Ryan Corgiat,M,Frosh/Soph,15,67.5,Ridgeview,SBD,Raw,111.13,68.04,113.4,292.57,11
Taylor Hill,M,Frosh/Soph,15,67.5,Stockdale,SBD,Raw,83.91,61.23,142.88,288.03,12
Garrett Thomas,M,Frosh/Soph,15,67.5,Highland,SBD,Raw,83.91,65.77,129.27,278.96,13
Bricio Barranco,M,Frosh/Soph,15,67.5,Highland,SBD,Raw,79.38,70.31,124.74,274.42,14
Derrick Shivers,M,Frosh/Soph,15,67.5,Golden Valley,SBD,Raw,102.06,61.23,102.06,265.35,15
Alex Harrington,M,Frosh/Soph,15,67.5,Liberty,SBD,Raw,88.45,56.7,120.2,265.35,16
Joseph Aguirre,M,Frosh/Soph,15,67.5,Highland,SBD,Raw,,74.84,113.4,,DQ
Travis Barnett,M,Frosh/Soph,15,67.5,Stockdale,SBD,Raw,,68.04,117.93,,DQ
Marshall Mosely,M,Frosh/Soph,15,67.5,Stockdale,SBD,Raw,,65.77,106.59,,DQ
Greg Bailey,M,Frosh/Soph,15,67.5,Stockdale,SBD,Raw,-83.91,-79.38,-90.72,,DQ
Tim Armstrong,M,Frosh/Soph,15,75,Stockdale,SBD,Raw,165.56,115.67,192.78,474,1
Andre Hayes,M,Frosh/Soph,15,75,East,SBD,Raw,151.95,120.2,192.78,464.93,2
James Brown,M,Frosh/Soph,15,75,West,SBD,Raw,151.95,83.91,188.24,424.11,3
Blaine Lovan,M,Frosh/Soph,15,75,Liberty,SBD,Raw,147.42,102.06,170.1,419.57,4
Tommy Booth,M,Frosh/Soph,15,75,Liberty,SBD,Raw,156.49,95.25,163.29,415.04,5
Nick Harrington,M,Frosh/Soph,15,75,Liberty,SBD,Raw,142.88,97.52,170.1,410.5,6
Ed Webber,M,Frosh/Soph,15,75,Stockdale,SBD,Raw,142.88,90.72,170.1,403.7,7
Justin Collan,M,Frosh/Soph,15,75,Golden Valley,SBD,Raw,142.88,83.91,165.56,392.36,8
Miguel Chavez,M,Frosh/Soph,15,75,Golden Valley,SBD,Raw,124.74,99.79,165.56,390.09,9
Ray Martinez,M,Frosh/Soph,15,75,Golden Valley,SBD,Raw,124.74,102.06,158.76,385.55,10
Sergion Perez,M,Frosh/Soph,15,75,Golden Valley,SBD,Raw,142.88,95.25,142.88,381.02,11
Andrew Brown #4,M,Frosh/Soph,15,75,Golden Valley,SBD,Raw,142.88,83.91,129.27,356.07,12
Jose Salazar,M,Frosh/Soph,15,75,East,SBD,Raw,106.59,79.38,158.76,344.73,13
Brian Bonahoom,M,Frosh/Soph,15,75,Orange Glen,SBD,Raw,113.4,81.65,149.69,344.73,14
Justin Thatcher,M,Frosh/Soph,15,75,Stockdale,SBD,Raw,115.67,79.38,142.88,337.93,15
Cody Suniga,M,Frosh/Soph,15,75,Stockdale,SBD,Raw,106.59,83.91,147.42,337.93,16
Tyler Bassett,M,Frosh/Soph,15,75,Stockdale,SBD,Raw,102.06,92.99,140.61,335.66,17
Eric McBride,M,Frosh/Soph,15,75,Stockdale,SBD,Raw,115.67,74.84,145.15,335.66,18
Ryan Dawley,M,Frosh/Soph,15,75,Stockdale,SBD,Raw,111.13,70.31,147.42,328.85,19
Miguel Martinez,M,Frosh/Soph,15,75,Highland,SBD,Raw,88.45,92.99,147.42,328.85,20
Zach Hansen,M,Frosh/Soph,15,75,Stockdale,SBD,Raw,92.99,83.91,142.88,319.78,21
Chris Luevano,M,Frosh/Soph,15,75,Highland,SBD,Raw,102.06,72.57,145.15,319.78,22
Joseph Olivas,M,Frosh/Soph,15,75,Highland,SBD,Raw,79.38,52.16,129.27,260.82,23
Heath Emmerson,M,Frosh/Soph,15,75,Ridgeview,SBD,Raw,92.99,,127.01,,DQ
Chris Johns,M,Frosh/Soph,15,75,Highland,SBD,Raw,61.23,,129.27,,DQ
Sergio Hernandez,M,Frosh/Soph,15,75,East,SBD,Raw,-145.15,-83.91,-142.88,,DQ
Martin Cabera,M,Frosh/Soph,15,75,Liberty,SBD,Raw,,-88.45,-90.72,,DQ
Jeremy Ramirez,M,Frosh/Soph,15,82.5,Stockdale,SBD,Raw,165.56,124.74,174.63,464.93,1
Zack Burk,M,Frosh/Soph,15,82.5,Liberty,SBD,Raw,142.88,108.86,165.56,417.3,2
Ray Calderon,M,Frosh/Soph,15,82.5,Orange Glen,SBD,Raw,147.42,88.45,181.44,417.3,3
Anthony Vasquez,M,Frosh/Soph,15,82.5,Liberty,SBD,Raw,142.88,106.59,165.56,415.04,4
Troy Webber,M,Frosh/Soph,15,82.5,Stockdale,SBD,Raw,111.13,115.67,165.56,392.36,5
Moises Pena,M,Frosh/Soph,15,82.5,Orange Glen,SBD,Raw,140.61,83.91,165.56,390.09,6
Ongky Andriputra,M,Frosh/Soph,15,82.5,Highland,SBD,Raw,124.74,79.38,165.56,369.68,7
Paul Singh,M,Frosh/Soph,15,82.5,Stockdale,SBD,Raw,124.74,79.38,151.95,356.07,8
Pat Guerrero,M,Frosh/Soph,15,82.5,Liberty,SBD,Raw,115.67,92.99,124.74,333.39,9
Kris Kilbourn,M,Frosh/Soph,15,82.5,Stockdale,SBD,Raw,106.59,83.91,136.08,326.59,10
Drew Horize,M,Frosh/Soph,15,82.5,Orange Glen,SBD,Raw,95.25,79.38,149.69,324.32,11
Mitch Moretti,M,Frosh/Soph,15,82.5,Highland,SBD,Raw,102.06,79.38,108.86,290.3,12
Kenny Shanahan,M,Frosh/Soph,15,90,Stockdale,SBD,Raw,226.8,147.42,215.46,589.67,1
Bryson Hodges,M,Frosh/Soph,15,90,Golden Valley,SBD,Raw,199.58,142.88,183.7,526.17,2
Dustin Layshot,M,Frosh/Soph,15,90,Liberty,SBD,Raw,170.1,106.59,197.31,474,3
Daryl Carlin,M,Frosh/Soph,15,90,Stockdale,SBD,Raw,142.88,131.54,183.7,458.13,4
Juan Zamora,M,Frosh/Soph,15,90,West,SBD,Raw,158.76,104.33,183.7,446.79,5
Ruben Ochoa,M,Frosh/Soph,15,90,Ridgeview,SBD,Raw,142.88,113.4,183.7,439.98,6
David Cox,M,Frosh/Soph,15,90,Liberty,SBD,Raw,142.88,106.59,183.7,433.18,7
Miguel Hernandez,M,Frosh/Soph,15,90,Sylmar,SBD,Raw,142.88,81.65,183.7,408.23,8
Derrick Kernene,M,Frosh/Soph,15,90,Ridgeview,SBD,Raw,147.42,97.52,158.76,403.7,9
Jordan Vargas,M,Frosh/Soph,15,90,Orange Glenn,SBD,Raw,142.88,90.72,163.29,396.89,10
Dylan Pendley,M,Frosh/Soph,15,90,Liberty,SBD,Raw,136.08,88.45,158.76,383.29,11
Mark Renteria,M,Frosh/Soph,15,90,Highland,SBD,Raw,142.88,83.91,147.42,374.21,12
Patrick Lewis,M,Frosh/Soph,15,90,Stockdale,SBD,Raw,113.4,79.38,147.42,340.19,13
Will Sutton,M,Frosh/Soph,15,90,Liberty,SBD,Raw,111.13,83.91,145.15,340.19,14
Michael Dixon,M,Frosh/Soph,15,90,Ridgeview,SBD,Raw,111.13,72.57,145.15,328.85,15
Evan Cazares,M,Frosh/Soph,15,90,Stockdale,SBD,Raw,-136.08,92.99,142.88,,DQ
Trevor Goldberg,M,Frosh/Soph,15,100,Liberty,SBD,Raw,208.65,138.35,192.78,539.77,1
Blake Abbott,M,Frosh/Soph,15,100,Centennial,SBD,Raw,176.9,120.2,208.65,505.76,2
Brian McConnel,M,Frosh/Soph,15,100,Stockdale,SBD,Raw,158.76,151.95,183.7,494.42,3
Carlos Hernandez #3,M,Frosh/Soph,15,100,Stockdale,SBD,Raw,176.9,138.35,163.29,478.54,4
Jeff Belanger,M,Frosh/Soph,15,100,Liberty Christian,SBD,Raw,174.63,99.79,192.78,467.2,5
Alex Tapia,M,Frosh/Soph,15,100,Golden Valley,SBD,Raw,172.37,92.99,183.7,449.06,6
Taylor West #2,M,Frosh/Soph,15,100,Liberty,SBD,Raw,124.74,111.13,183.7,419.57,7
Anthony Marmolejo,M,Frosh/Soph,15,100,Highland,SBD,Raw,129.27,113.4,158.76,401.43,8
Erik Chavez,M,Frosh/Soph,15,100,Highland,SBD,Raw,142.88,102.06,154.22,399.16,9
Cody Blackburn,M,Frosh/Soph,15,100,Ridgeview,SBD,Raw,149.69,79.38,158.76,387.82,10
Angel Montijo,M,Frosh/Soph,15,100,Highland,SBD,Raw,106.59,-97.52,142.88,,DQ
Matt Blakemore,M,Frosh/Soph,15,110,Liberty,SBD,Raw,183.7,111.13,185.97,480.81,1
Nathan Mantle,M,Frosh/Soph,15,110,Liberty,SBD,Raw,156.49,124.74,174.63,455.86,2
Vladimir Greene,M,Frosh/Soph,15,110,Ridgeview,SBD,Raw,156.49,113.4,183.7,453.59,3
Josh Macias,M,Frosh/Soph,15,110,Stockdale,SBD,Raw,181.44,108.86,161.03,451.32,4
Soon-Jo Hong,M,Frosh/Soph,15,110,Stockdale,SBD,Raw,174.63,79.38,192.78,446.79,5
Jaime Rodriguez,M,Frosh/Soph,15,110,Sylmar,SBD,Raw,145.15,92.99,185.97,424.11,6
Joshua Reyes,M,Frosh/Soph,15,110,Sylmar,SBD,Raw,170.1,92.99,158.76,421.84,7
Kevin Nodolf,M,Frosh/Soph,15,110,Liberty,SBD,Raw,142.88,104.33,170.1,417.3,8
Alberto Ramos,M,Frosh/Soph,15,110,Sylmar,SBD,Raw,113.4,83.91,208.65,405.97,9
Matthew Vessell,M,Frosh/Soph,15,110,Highland,SBD,Raw,102.06,111.13,183.7,396.89,10
Gino Salazar,M,Frosh/Soph,15,110,Highland,SBD,Raw,124.74,90.72,136.08,351.53,11
Samuel Reynoso,M,Frosh/Soph,15,110,Highland,SBD,Raw,102.06,74.84,136.08,312.98,12
Brock Mueller,M,Frosh/Soph,15,110,Liberty,SBD,Raw,-113.4,102.06,183.7,,DQ
Jose Dominguez,M,Frosh/Soph,15,110,Highland,SBD,Raw,106.59,61.23,117.93,285.76,14
Isaiah Aguilera,M,Frosh/Soph,15,110,Highland,SBD,Raw,111.13,61.23,111.13,283.5,15
Daniel Herrera,M,Frosh/Soph,15,110,East,SBD,Raw,-113.4,-102.06,-133.81,,DQ
Sal Gomez,M,Frosh/Soph,15,125,Orange Glenn,SBD,Raw,176.9,113.4,183.7,474,1
Bo Brothers,M,Frosh/Soph,15,125,Stockdale,SBD,Raw,129.27,92.99,167.83,390.09,2
Eric Martinez,M,Frosh/Soph,15,125,Stockdale,SBD,Raw,-142.88,106.59,165.56,,DQ
Michael Ferrone,M,Frosh/Soph,15,125,Stockdale,SBD,Raw,-102.06,77.11,151.95,,DQ
Justin Lay,M,Junior/Senior,17,67.5,Stockdale,SBD,Raw,131.54,97.52,158.76,387.82,1
German Portillo,M,Junior/Senior,17,67.5,Orange Glen,SBD,Raw,129.27,86.18,170.1,385.55,2
Edson Perez,M,Junior/Senior,17,67.5,Orange Glen,SBD,Raw,127.01,88.45,163.29,378.75,3
Hugo Robles,M,Junior/Senior,17,67.5,Orange Glen,SBD,Raw,129.27,81.65,149.69,360.61,4
Joshua Martin,M,Junior/Senior,17,67.5,Stockdale,SBD,Raw,106.59,83.91,156.49,347,5
Mariano Indalecio,M,Junior/Senior,17,67.5,Orange Glen,SBD,Raw,102.06,72.57,147.42,322.05,6
Armando Garcia,M,Junior/Senior,17,67.5,Ridgeview,SBD,Raw,108.86,83.91,129.27,322.05,7
James Shiu,M,Junior/Senior,17,75,Liberty,SBD,Raw,165.56,142.88,204.12,512.56,1
Robert Garcia #8,M,Junior/Senior,17,75,Orange Glen,SBD,Raw,158.76,97.52,176.9,433.18,2
Travis Spears,M,Junior/Senior,17,75,Liberty,SBD,Raw,147.42,111.13,151.95,410.5,3
Lee Gomez,M,Junior/Senior,17,75,Ridgeview,SBD,Raw,124.74,90.72,183.7,399.16,4
Ruban Duran,M,Junior/Senior,17,75,Stockdale,SBD,Raw,115.67,124.74,156.49,396.89,5
Ricky Garcia,M,Junior/Senior,17,75,Orange Glen,SBD,Raw,122.47,70.31,156.49,349.27,6
Aaron Jackson,M,Junior/Senior,17,75,Highland,SBD,Raw,102.06,83.91,142.88,328.85,7
Alex Solis,M,Junior/Senior,17,75,Stockdale,SBD,Raw,-104.33,102.06,142.88,,DQ
Spencer Bockman,M,Junior/Senior,17,82.5,Liberty,SBD,Raw,170.1,117.93,174.63,462.66,1
Christian Ramirez #7,M,Junior/Senior,17,82.5,Orange Glenn,SBD,Raw,158.76,111.13,183.7,453.59,2
Joseph Peffer,M,Junior/Senior,17,82.5,Stockdale,SBD,Raw,149.69,136.08,165.56,451.32,3
Jacob Bishop,M,Junior/Senior,17,82.5,Liberty,SBD,Raw,142.88,102.06,170.1,415.04,4
David Flores,M,Junior/Senior,17,82.5,Liberty,SBD,Raw,156.49,90.72,165.56,412.77,5
Michael Richards,M,Junior/Senior,17,82.5,Ridgeview,SBD,Raw,136.08,122.47,142.88,401.43,6
Jordan Butler,M,Junior/Senior,17,82.5,Highland,SBD,Raw,142.88,102.06,142.88,387.82,7
Josh Knight,M,Junior/Senior,17,82.5,Liberty,SBD,Raw,120.2,102.06,165.56,387.82,8
Luis Valdez,M,Junior/Senior,17,82.5,Sylmar,SBD,Raw,102.06,117.93,158.76,378.75,9
Marco Segura,M,Junior/Senior,17,82.5,Orange Glenn,SBD,Raw,122.47,81.65,158.76,362.87,10
Matt Coronado,M,Junior/Senior,17,90,Centennial,SBD,Raw,183.7,111.13,219.99,514.83,1
Christian Mosher,M,Junior/Senior,17,90,Ridgeview,SBD,Raw,183.7,129.27,192.78,505.76,2
Anthony Merz,M,Junior/Senior,17,90,Centennial,SBD,Raw,183.7,131.54,183.7,498.95,3
Nick Legan,M,Junior/Senior,17,90,East,SBD,Raw,165.56,124.74,183.7,474,4
Jared Johnston,M,Junior/Senior,17,90,Liberty,SBD,Raw,151.95,124.74,176.9,453.59,5
Daniel Araiza,M,Junior/Senior,17,90,Orange Glenn,SBD,Raw,142.88,92.99,190.51,426.38,6
Mike Foster,M,Junior/Senior,17,90,Liberty,SBD,Raw,142.88,95.25,183.7,421.84,7
Tom Brezinski,M,Junior/Senior,17,90,Stockdale,SBD,Raw,124.74,97.52,185.97,408.23,8
John Cuddy,M,Junior/Senior,17,90,Ridgeview,SBD,Raw,133.81,92.99,165.56,392.36,9
Victor Alomar,M,Junior/Senior,17,90,Highland,SBD,Raw,120.2,79.38,151.95,351.53,10
Ryan Halstead,M,Junior/Senior,17,90,Stockdale,SBD,Raw,142.88,102.06,,,DQ
Neil Hopper,M,Junior/Senior,17,100,Stockdale,SBD,Raw,165.56,124.74,215.46,505.76,1
Jon Jackson,M,Junior/Senior,17,100,Ridgeview,SBD,Raw,188.24,115.67,195.04,498.95,2
Austin Sneed,M,Junior/Senior,17,100,Centennial,SBD,Raw,183.7,102.06,206.38,492.15,3
Rod Fiorini,M,Junior/Senior,17,100,Garces,SBD,Raw,165.56,124.74,188.24,478.54,4
Mike Noonchester,M,Junior/Senior,17,100,Liberty,SBD,Raw,170.1,92.99,199.58,462.66,5
Brandon Davis,M,Junior/Senior,17,100,East,SBD,Raw,142.88,111.13,183.7,437.72,6
Daniel Renteria,M,Junior/Senior,17,100,Highland,SBD,Raw,183.7,102.06,113.4,399.16,7
Aaron Gomez,M,Junior/Senior,17,100,Ridgeview,SBD,Raw,142.88,102.06,142.88,387.82,8
Justin Hedrick,M,Junior/Senior,17,100,Stockdale,SBD,Raw,-183.7,115.67,183.7,,DQ
Omar Garza,M,Junior/Senior,17,110,Stockdale,SBD,Raw,183.7,136.08,206.38,526.17,1
Jose Gomez,M,Junior/Senior,17,110,Liberty,SBD,Raw,183.7,122.47,183.7,489.88,2
Nick Burnett,M,Junior/Senior,17,110,Highland,SBD,Raw,124.74,83.91,142.88,351.53,3
Manuel Canez,M,Junior/Senior,17,125,East,SBD,Raw,147.42,108.86,174.63,430.91,1
Jorge Garcia,M,Junior/Senior,17,125,Stockdale,SBD,Raw,136.08,92.99,145.15,374.21,2
Brandon Harrison,M,Junior/Senior,17,125,Stockdale,SBD,Raw,,136.08,,,DQ
Bill Rauert,M,Junior/Senior,17,125,Stockdale,SBD,Raw,,92.99,,,DQ
Nicholas Nunez,M,Junior/Senior,17,125+,Sylmar,SBD,Raw,226.8,102.06,208.65,537.51,1
Jerry Miranda,M,Junior/Senior,17,125+,East,SBD,Raw,201.85,138.35,195.04,535.24,2
Zach Aguirre,M,Junior/Senior,17,125+,Highland,SBD,Raw,102.06,102.06,158.76,362.87,3
