Division,WeightClassKg,Place,Name,Team,BodyweightKg,Best3SquatKg,Best3BenchKg,Best3DeadliftKg,TotalKg,Equipment,Event,Sex
Boys,51.71,1,Chase Stansbury,Vidor,48.53,117.93,65.77,113.4,297.1,Single-ply,SBD,M
Boys,51.71,2,Spencer Beck,Bridge City,51.48,92.99,56.7,108.86,258.55,Single-ply,SBD,M
Boys,51.71,3,Logan Williams #3,Nederland,45.36,88.45,52.16,99.79,240.4,Single-ply,SBD,M
Boys,55.79,1,Brady Price,Vidor,54.88,142.88,108.86,136.08,387.82,Single-ply,SBD,M
Boys,55.79,2,Alex Williams #3,Bridge City,55.79,142.88,92.99,142.88,378.75,Single-ply,SBD,M
Boys,55.79,3,Shayan Rahim,Bridge City,55.79,138.35,74.84,115.67,328.85,Single-ply,SBD,M
Boys,55.79,4,Lucas Magneson,Vidor,53.75,115.67,56.7,131.54,303.91,Single-ply,SBD,M
Boys,55.79,DQ,Tien Nguyen,Nederland,54.43,,88.45,147.42,,Single-ply,SBD,M
Boys,59.87,1,Jake Potter,Bridge City,58.51,183.7,92.99,176.9,453.59,Single-ply,SBD,M
Boys,59.87,2,Stephen Lopez,Lumberton,58.74,131.54,81.65,136.08,349.27,Single-ply,SBD,M
Boys,67.13,1,Josh Fuselier,Bridge City,66.45,158.76,90.72,165.56,415.04,Single-ply,SBD,M
Boys,67.13,2,Sebastian Goodman,Lumberton,65.54,158.76,79.38,163.29,401.43,Single-ply,SBD,M
Boys,67.13,3,Dominick Breaux,Sour Lake Hardin-Jefferson,61.01,151.95,90.72,147.42,390.09,Single-ply,SBD,M
Boys,67.13,4,Estaban Quintinilla,Vidor,61.92,138.35,77.11,156.49,371.95,Single-ply,SBD,M
Boys,67.13,5,Tanner LeBlanc,Lumberton,66.45,133.81,68.04,138.35,340.19,Single-ply,SBD,M
Boys,67.13,6,Nate Stapleton,Lumberton,66.9,111.13,70.31,142.88,324.32,Single-ply,SBD,M
Boys,74.84,1,Shawn Aykock,Nederland,71.21,222.26,104.33,217.72,544.31,Single-ply,SBD,M
Boys,74.84,2,JC Marshall,Vidor,72.35,183.7,124.74,199.58,508.02,Single-ply,SBD,M
Boys,74.84,3,Westen Nugent,Sour Lake Hardin-Jefferson,71.44,181.44,117.93,156.49,455.86,Single-ply,SBD,M
Boys,74.84,5,Jacob Galle,Sour Lake Hardin-Jefferson,72.57,163.29,88.45,183.7,435.45,Single-ply,SBD,M
Boys,74.84,6,Davien Edwards,Bridge City,72.8,161.03,95.25,179.17,435.45,Single-ply,SBD,M
Boys,74.84,7,Texas Mayo,Nederland,72.35,108.86,63.5,106.59,278.96,Single-ply,SBD,M
Boys,82.1,1,Sheldon Becker,Bridge City,77.79,192.78,131.54,167.83,492.15,Single-ply,SBD,M
Boys,82.1,2,Trystain Conner,Sour Lake Hardin-Jefferson,82.1,192.78,104.33,190.51,487.61,Single-ply,SBD,M
Boys,82.1,3,Jackiebao Nguyen,Nederland,81.87,156.49,83.91,174.63,415.04,Single-ply,SBD,M
Boys,82.1,4,Tommy Romero,Bridge City,80.06,156.49,90.72,156.49,403.7,Single-ply,SBD,M
Boys,82.1,5,Dennis Tran,Nederland,80.97,154.22,83.91,161.03,399.16,Single-ply,SBD,M
Boys,82.1,6,John Torres,Nederland,76.43,147.42,72.57,138.35,358.34,Single-ply,SBD,M
Boys,82.1,7,Caleb Gay,Sour Lake Hardin-Jefferson,80.29,136.08,70.31,133.81,340.19,Single-ply,SBD,M
Boys,89.81,1,Davion Coleman,Bridge City,87.32,204.12,131.54,201.85,537.51,Single-ply,SBD,M
Boys,89.81,2,Joseph Rodriguez,Sour Lake Hardin-Jefferson,82.55,161.03,99.79,188.24,449.06,Single-ply,SBD,M
Boys,89.81,3,Mason Minnis,Nederland,86.64,111.13,74.84,108.86,294.84,Single-ply,SBD,M
Boys,89.81,DQ,Ben Leon,Sour Lake Hardin-Jefferson,88.22,,,,,Single-ply,SBD,M
Boys,99.79,1,Ian Wooten,Vidor,92.99,217.72,156.49,233.6,607.81,Single-ply,SBD,M
Boys,99.79,2,Kyler Thomas,Bridge City,91.4,138.35,97.52,170.1,405.97,Single-ply,SBD,M
Boys,99.79,DQ,Jesse Adkins,Sour Lake Hardin-Jefferson,91.85,176.9,,,,Single-ply,SBD,M
Boys,109.77,1,Jack Fontenot,Bridge City,105.69,322.05,183.7,242.67,748.43,Single-ply,SBD,M
Boys,109.77,2,Adonte Woodard,Vidor,103.65,258.55,156.49,215.46,630.49,Single-ply,SBD,M
Boys,109.77,3,Carl Stucker,Lumberton,104.1,208.65,88.45,195.04,492.15,Single-ply,SBD,M
Boys,109.77,4,Holden Craver,Nederland,103.65,181.44,83.91,158.76,424.11,Single-ply,SBD,M
Boys,109.77,5,Trenton Roccaforte,Bridge City,107.05,147.42,102.06,172.37,421.84,Single-ply,SBD,M
Boys,109.77,6,Guy Mapstone,Sour Lake Hardin-Jefferson,109.77,104.33,63.5,129.27,297.1,Single-ply,SBD,M
Boys,109.77,DQ,Kolin McCullough,Sour Lake Hardin-Jefferson,107.05,210.92,124.74,,,Single-ply,SBD,M
Boys,124.74,1,Reese Roccaforte,Nederland,121.34,185.97,102.06,170.1,458.13,Single-ply,SBD,M
Boys,124.74,DQ,Enrique Montes,Sour Lake Hardin-Jefferson,122.92,265.35,117.93,,,Single-ply,SBD,M
Boys,124.74+,1,Julius Chizer,Lumberton,127.23,244.94,158.76,181.44,585.13,Single-ply,SBD,M
Boys,74.84,4,Cole White,Lumberton,69.4,167.83,90.72,181.44,439.98,Single-ply,SBD,M
Boys,,NS,Champ Roach,Lumberton,,,,,,Single-ply,SBD,M
Boys,,NS,Mike Marshall,Nederland,,,,,,Single-ply,SBD,M
Boys,,NS,Cole Myers,Vidor,,,,,,Single-ply,SBD,M
Boys,,NS,Grant Johnson,Vidor,,,,,,Single-ply,SBD,M
