Division,WeightClassKg,Place,Name,Team,BodyweightKg,Best3SquatKg,Best3BenchKg,Best3DeadliftKg,TotalKg,Equipment,Event,Sex,BirthDate
Boys,51.71,1,Dillon Bobbit,Greenville,49.9,74.84,40.82,90.72,206.38,Single-ply,SBD,M,
Boys,55.79,1,Diego Martinez,Greenville,55.34,92.99,58.97,104.33,256.28,Single-ply,SBD,M,
Boys,59.87,1,Bryan Rodriguez,Greenville,58.51,208.65,111.13,176.9,496.68,Single-ply,SBD,M,
Boys,67.13,1,Nicholas Cates,Mount Pleasant,63.28,158.76,74.84,113.4,347,Single-ply,SBD,M,
Boys,67.13,2,Jimmy Osornio,Greenville,65.77,115.67,61.23,108.86,285.76,Single-ply,SBD,M,
Boys,67.13,3,Elijah Rider,Mount Pleasant,66.5,102.06,40.82,102.06,244.94,Single-ply,SBD,M,
Boys,74.84,1,Zane Phillips,Mount Pleasant,69.85,204.12,83.91,195.04,483.08,Single-ply,SBD,M,
Boys,74.84,2,Ashton Burks,Greenville,71.21,174.63,70.31,185.97,430.91,Single-ply,SBD,M,
Boys,82.1,1,Brandon Moore,Greenville,81.65,226.8,124.74,197.31,548.85,Single-ply,SBD,M,
Boys,82.1,2,Daniel García,Mount Pleasant,81.37,183.7,83.91,176.9,444.52,Single-ply,SBD,M,
Boys,82.1,3,Khaleel Parker,Greenville,81.19,149.69,111.13,158.76,419.57,Single-ply,SBD,M,
Boys,82.1,4,Ryder Marshall,Mount Pleasant,80.29,142.88,72.57,158.76,374.21,Single-ply,SBD,M,
Boys,82.1,5,Reuben Enriquez,Greenville,77.11,149.69,63.5,136.08,349.27,Single-ply,SBD,M,
Boys,89.81,1,Roberto Organista,Mount Pleasant,85.91,163.29,90.72,188.24,442.25,Single-ply,SBD,M,
Boys,99.79,1,Emiliano Portillo,Greenville,93.44,238.14,127.01,217.72,582.87,Single-ply,SBD,M,
Boys,109.77,1,Clayton Miller,Mount Pleasant,107.23,195.04,88.45,183.7,467.2,Single-ply,SBD,M,
Boys,109.77,2,Saul Gonzales,Greenville,108.86,204.12,77.11,181.44,462.66,Single-ply,SBD,M,
Boys,109.77,3,Miguel Banda,Mount Pleasant,101.2,170.1,99.79,142.88,412.77,Single-ply,SBD,M,
Boys,124.74,1,Andrew Ibarra,Greenville,124.28,226.8,124.74,219.99,571.53,Single-ply,SBD,M,
Boys,124.74,2,James Robles,Greenville,124.28,219.99,124.74,192.78,537.51,Single-ply,SBD,M,
Boys,124.74,3,Xander Gonzales,Greenville,122.47,206.38,79.38,181.44,467.2,Single-ply,SBD,M,
Boys,124.74,4,Oscar Perez,Mount Pleasant,116.48,174.63,88.45,158.76,421.84,Single-ply,SBD,M,
Boys,139.71,1,Daniel Bueno,Greenville,129.27,306.17,156.49,272.16,734.82,Single-ply,SBD,M,
Boys,139.71,2,Alex Rodriguez #16,Greenville,131.54,294.84,172.37,249.48,716.68,Single-ply,SBD,M,
Boys,139.71,3,Luis Venegas,Greenville,132.9,249.48,136.08,219.99,605.55,Single-ply,SBD,M,
Boys,139.71+,1,Tyler Welborn,Mount Pleasant,150.59,208.65,104.33,201.85,514.83,Single-ply,SBD,M,
