Division,WeightClassKg,Place,Name,Team,BodyweightKg,Best3SquatKg,Best3BenchKg,Best3DeadliftKg,TotalKg,Equipment,Event,Sex,BirthDate
Boys,51.71,1,Erik Orta,Victoria West,50.76,113.4,72.57,113.4,299.37,Single-ply,SBD,M,
Boys,51.71,2,Beau Galetti,Ganado,47.76,88.45,52.16,102.06,242.67,Single-ply,SBD,M,
Boys,51.71,3,Brandon Perez #4,Victoria West,50.26,72.57,52.16,72.57,197.31,Single-ply,SBD,M,
Boys,51.71,DQ,Christain Orona,Victoria East,51.35,,,,,Single-ply,SBD,M,
Boys,55.79,1,John Paul Acosta,Victoria West,54.88,97.52,65.77,124.74,288.03,Single-ply,SBD,M,
Boys,55.79,DQ,Damian Garza,Van Vleck,54.93,,,,,Single-ply,SBD,M,
Boys,59.87,1,Jeremiah Zelaya,Victoria East,59.65,217.72,127.01,213.19,557.92,Single-ply,SBD,M,
Boys,59.87,2,Miguel Sanchez,Palacios,59.19,192.78,92.99,183.7,469.47,Single-ply,SBD,M,
Boys,59.87,3,Tyrin Brito,Ganado,59.83,151.95,63.5,156.49,371.95,Single-ply,SBD,M,
Boys,59.87,4,Thomas Garcia,Palacios,58.2,92.99,68.04,136.08,297.1,Single-ply,SBD,M,
Boys,59.87,DQ,Jason Carmona,Victoria East,58.69,,,,,Single-ply,SBD,M,
Boys,59.87,DQ,Stade Yount,Louise,59.87,104.33,,,,Single-ply,SBD,M,
Boys,67.13,1,Seth Birmingham,Victoria West,66.54,154.22,83.91,165.56,403.7,Single-ply,SBD,M,
Boys,67.13,2,Bryce Duke,Palacios,65.91,136.08,83.91,181.44,401.43,Single-ply,SBD,M,
Boys,67.13,3,Connor Williams,Victoria West,63.59,113.4,65.77,161.03,340.19,Single-ply,SBD,M,
Boys,67.13,4,Chance McRae,Palacios,63.78,113.4,65.77,129.27,308.44,Single-ply,SBD,M,
Boys,67.13,5,Stephen Kelly,Ganado,63.68,108.86,58.97,136.08,303.91,Single-ply,SBD,M,
Boys,67.13,DQ,Blayke Yeager,Louise,61.19,136.08,79.38,,,Single-ply,SBD,M,
Boys,67.13,DQ,Kadin Nunez,Bay City,65.59,,,,,Single-ply,SBD,M,
Boys,67.13,DQ,Chris Ortiz,Louise,66.22,122.47,,,,Single-ply,SBD,M,
Boys,74.84,1,Seth Neibrandt,Victoria West,73.26,149.69,95.25,190.51,435.45,Single-ply,SBD,M,
Boys,74.84,2,Kevin Lara,El Maton Tidehaven,71.35,158.76,92.99,158.76,410.5,Single-ply,SBD,M,
Boys,74.84,3,Xain Dusek,El Maton Tidehaven,70.17,167.83,92.99,140.61,401.43,Single-ply,SBD,M,
Boys,74.84,4,Tony Aretega,Palacios,69.72,142.88,81.65,136.08,360.61,Single-ply,SBD,M,
Boys,74.84,5,Eryc Oliver,Louise,69.31,108.86,65.77,161.03,335.66,Single-ply,SBD,M,
Boys,74.84,DQ,Brityn Brown,Bloomington,70.58,,,,,Single-ply,SBD,M,
Boys,82.1,1,Nathaniel Reyna,Victoria West,78.24,199.58,117.93,197.31,514.83,Single-ply,SBD,M,
Boys,82.1,2,Nathan Nguyen,Palacios,82.1,145.15,72.57,142.88,360.61,Single-ply,SBD,M,
Boys,82.1,3,Cameron Davis #1,Bloomington,78.79,124.74,83.91,131.54,340.19,Single-ply,SBD,M,
Boys,82.1,4,Hayden Nieto,Palacios,77.02,124.74,72.57,136.08,333.39,Single-ply,SBD,M,
Boys,82.1,5,Roy Arrambide,Louise,76.61,111.13,63.5,136.08,310.71,Single-ply,SBD,M,
Boys,82.1,DQ,Tanner Coleman,Victoria St. Joseph,81.33,192.78,111.13,,,Single-ply,SBD,M,
Boys,89.81,1,Derek Luna,Louise,83.14,174.63,120.2,217.72,512.56,Single-ply,SBD,M,
Boys,89.81,2,Bradley Flores,Bloomington,85.59,192.78,117.93,201.85,512.56,Single-ply,SBD,M,
Boys,89.81,3,Zach Pierce,El Maton Tidehaven,89.27,192.78,102.06,217.72,512.56,Single-ply,SBD,M,
Boys,89.81,4,Ethan Resendez,Louise,89.81,124.74,79.38,142.88,347,Single-ply,SBD,M,
Boys,99.79,1,Josh Figueroa,Van Vleck,96.43,219.99,124.74,192.78,537.51,Single-ply,SBD,M,
Boys,99.79,2,Ryan Cain,Victoria East,97.2,192.78,97.52,188.24,478.54,Single-ply,SBD,M,
Boys,99.79,3,Jaden Galvan,Victoria East,93.35,170.1,83.91,188.24,442.25,Single-ply,SBD,M,
Boys,99.79,4,Devin Johnson,Bloomington,93.35,158.76,92.99,165.56,417.3,Single-ply,SBD,M,
Boys,99.79,5,Logan Jones,Van Vleck,98.66,161.03,95.25,158.76,415.04,Single-ply,SBD,M,
Boys,99.79,6,Hayden Land,Victoria St. Joseph,98.93,154.22,95.25,165.56,415.04,Single-ply,SBD,M,
Boys,99.79,DQ,Christian Martinez,Van Vleck,95.48,156.49,90.72,,,Single-ply,SBD,M,
Boys,109.77,1,Daniel Gaona,Louise,106.78,190.51,127.01,190.51,508.02,Single-ply,SBD,M,
Boys,109.77,2,Micah Coleman,El Maton Tidehaven,104.05,183.7,113.4,183.7,480.81,Single-ply,SBD,M,
Boys,109.77,3,Taylor Rickaway,El Maton Tidehaven,103.15,142.88,95.25,154.22,392.36,Single-ply,SBD,M,
Boys,109.77,DQ,Luis Islas,Victoria West,106.68,,,,,Single-ply,SBD,M,
Boys,109.77,DQ,Hayden Lawrence,Victoria West,101.83,,,,,Single-ply,SBD,M,
Boys,109.77,DQ,Jaylen Diaz,Bloomington,109.32,,,,,Single-ply,SBD,M,
Boys,124.74,1,Nate Beck,Victoria St. Joseph,111.31,213.19,140.61,226.8,580.6,Single-ply,SBD,M,
Boys,124.74,2,Michael Galvez,Bay City,114.76,206.38,145.15,197.31,548.85,Single-ply,SBD,M,
Boys,124.74,3,Chris Vasquez,Louise,117.93,219.99,102.06,208.65,530.7,Single-ply,SBD,M,
Boys,124.74,4,Logan MacLennan,Bay City,117.34,188.24,115.67,197.31,501.22,Single-ply,SBD,M,
Boys,124.74,5,Macario Martinez,Victoria East,111.4,179.17,113.4,188.24,480.81,Single-ply,SBD,M,
Boys,124.74,6,Ethan Carr,Palacios,122.06,172.37,142.88,142.88,458.13,Single-ply,SBD,M,
Boys,124.74,7,Ellian Perez,Palacios,113.94,181.44,83.91,136.08,401.43,Single-ply,SBD,M,
Boys,124.74,8,Cooper Kliem,Victoria East,115.76,142.88,95.25,151.95,390.09,Single-ply,SBD,M,
Boys,124.74,9,Henry Lopez,Palacios,116.94,145.15,88.45,154.22,387.82,Single-ply,SBD,M,
Boys,124.74,DQ,Walter Vasquez,Bloomington,115.48,140.61,88.45,,,Single-ply,SBD,M,
Boys,124.74,DQ,Wyatt Gobert,Van Vleck,121.2,,,,,Single-ply,SBD,M,
Boys,124.74+,1,Keegan Carrillo,El Maton Tidehaven,133.58,238.14,151.95,204.12,594.21,Single-ply,SBD,M,
Boys,124.74+,2,Dean Ramsey,Ganado,128.28,174.63,106.59,170.1,451.32,Single-ply,SBD,M,
Boys,124.74+,3,Jordan Pesina,Bay City,143.92,181.44,106.59,158.76,446.79,Single-ply,SBD,M,
Boys,124.74+,DQ,Patrick Perkins,Van Vleck,168.78,215.46,133.81,,,Single-ply,SBD,M,
Boys,,NS,Danail Garcia,Bloomington,,,,,,Single-ply,SBD,M,
Boys,,NS,Andres Bermudez,Bay City,,,,,,Single-ply,SBD,M,
Boys,,NS,Bruce Burtschell,Ganado,,,,,,Single-ply,SBD,M,
Boys,,NS,Austin Hill #3,Van Vleck,,,,,,Single-ply,SBD,M,
Boys,,NS,Connor Stevens,Van Vleck,,,,,,Single-ply,SBD,M,
Boys,,NS,Immanuel Flonnory,Victoria West,,,,,,Single-ply,SBD,M,
Boys,,NS,Jerry Johnson,El Maton Tidehaven,,,,,,Single-ply,SBD,M,
Boys,,NS,Stephen Alexander,Victoria West,,,,,,Single-ply,SBD,M,
Boys,,NS,Dillon Long,El Maton Tidehaven,,,,,,Single-ply,SBD,M,
