Division,WeightClassKg,Place,Name,Team,BodyweightKg,Best3SquatKg,Best3BenchKg,Best3DeadliftKg,TotalKg,Equipment,Event,Sex
Boys,51.71,1,Jacob Gray,Longview Pine Tree,51.71,142.88,74.84,138.35,356.07,Single-ply,SBD,M
Boys,51.71,2,Alec Page,Tyler Lee,46.08,68.04,34.02,74.84,176.9,Single-ply,SBD,M
Boys,55.79,1,Angel Barroso,Tyler Chapel Hill,54.43,149.69,97.52,161.03,408.23,Single-ply,SBD,M
Boys,55.79,2,Daniel Irvin,Longview Pine Tree,53.71,117.93,90.72,138.35,347,Single-ply,SBD,M
Boys,55.79,3,Vann Rainer,Tyler Lee,55.79,129.27,63.5,131.54,324.32,Single-ply,SBD,M
Boys,59.87,1,Tristian Larsen,Tyler Chapel Hill,58.6,188.24,90.72,190.51,469.47,Single-ply,SBD,M
Boys,59.87,2,Jeremiah Sheffie,Tyler Lee,59.42,140.61,86.18,158.76,385.55,Single-ply,SBD,M
Boys,59.87,3,Tysen Pierce,Henderson,59.24,124.74,70.31,151.95,347,Single-ply,SBD,M
Boys,59.87,4,Memphis Dorsey,Lindale,58.06,127.01,72.57,142.88,342.46,Single-ply,SBD,M
Boys,59.87,5,Caden Pickard,Longview Pine Tree,58.24,113.4,65.77,136.08,315.25,Single-ply,SBD,M
Boys,59.87,6,Hunter Clemmons,Tyler Lee,59.42,115.67,47.63,145.15,308.44,Single-ply,SBD,M
Boys,59.87,7,Stone Smith,Bullard,58.69,102.06,43.09,124.74,269.89,Single-ply,SBD,M
Boys,59.87,8,Austin Miller,Troup,59.87,97.52,52.16,106.59,256.28,Single-ply,SBD,M
Boys,67.13,1,Jaden Taylor,Lindale,66.5,192.78,106.59,206.38,505.76,Single-ply,SBD,M
Boys,67.13,2,Bryson Luscombe,Bullard,66.5,188.24,117.93,199.58,505.76,Single-ply,SBD,M
Boys,67.13,3,Orran Simmons,Longview Pine Tree,64.95,183.7,120.2,181.44,485.34,Single-ply,SBD,M
Boys,67.13,4,Julian Fierros,Longview Pine Tree,66.5,174.63,113.4,179.17,467.2,Single-ply,SBD,M
Boys,67.13,5,D'Cameron Walker,Henderson,65.59,181.44,115.67,161.03,458.13,Single-ply,SBD,M
Boys,67.13,6,Keandre Nesbitt,Longview Pine Tree,67.13,170.1,97.52,181.44,449.06,Single-ply,SBD,M
Boys,67.13,7,Alex Tellez,Tyler Chapel Hill,64.86,156.49,95.25,172.37,424.11,Single-ply,SBD,M
Boys,67.13,8,Kaden Mahoney,Troup,64.59,161.03,95.25,154.22,410.5,Single-ply,SBD,M
Boys,67.13,9,John Ford #3,Troup,67.13,163.29,83.91,145.15,392.36,Single-ply,SBD,M
Boys,67.13,10,Jesse Calley,Troup,65.68,140.61,70.31,154.22,365.14,Single-ply,SBD,M
Boys,67.13,11,Bryce Craft,Bullard,62.23,106.59,68.04,131.54,306.17,Single-ply,SBD,M
Boys,67.13,12,Caleb Morrow,Tyler Lee,64.23,111.13,56.7,117.93,285.76,Single-ply,SBD,M
Boys,67.13,13,Walker Stegall,Bullard,64.14,140.61,92.99,,233.6,Single-ply,SB,M
Boys,74.84,1,Jamichael Turman,Tyler Lee,70.4,226.8,124.74,206.38,557.92,Single-ply,SBD,M
Boys,74.84,2,Bryce Attaway,Troup,72.67,217.72,120.2,195.04,532.97,Single-ply,SBD,M
Boys,74.84,3,Chadd Cole,Troup,69.4,199.58,104.33,181.44,485.34,Single-ply,SBD,M
Boys,74.84,4,Daniel Benitez,Lindale,70.94,176.9,90.72,206.38,474,Single-ply,SBD,M
Boys,74.84,5,John Engle,Bullard,73.75,176.9,113.4,172.37,462.66,Single-ply,SBD,M
Boys,74.84,6,John Cunyus,Henderson,70.13,158.76,97.52,204.12,460.4,Single-ply,SBD,M
Boys,74.84,7,Maurion Rico,Tyler Chapel Hill,73.03,133.81,102.06,154.22,390.09,Single-ply,SBD,M
Boys,74.84,8,Malakai Preston,Tyler Lee,74.84,154.22,90.72,145.15,390.09,Single-ply,SBD,M
Boys,74.84,9,Jerermiah Ramirez,Troup,70.03,136.08,83.91,140.61,360.61,Single-ply,SBD,M
Boys,74.84,10,Angel Hernandez #12,Bullard,74.84,117.93,61.23,131.54,310.71,Single-ply,SBD,M
Boys,74.84,11,Owen Watkins,Lindale,71.67,97.52,45.36,102.06,244.94,Single-ply,SBD,M
Boys,82.1,1,Jayden Smith #1,Longview Pine Tree,82.1,244.94,133.81,204.12,582.87,Single-ply,SBD,M
Boys,82.1,2,Jared McLean,Tyler Lee,78.74,192.78,115.67,185.97,494.42,Single-ply,SBD,M
Boys,82.1,3,Luis Laiqi,Tyler Lee,82.1,172.37,92.99,204.12,469.47,Single-ply,SBD,M
Boys,82.1,4,Sidney McElroy,Tyler Chapel Hill,79.02,183.7,117.93,158.76,460.4,Single-ply,SBD,M
Boys,82.1,5,Jamarcus Mumphrey,Tyler Chapel Hill,79.56,174.63,102.06,181.44,458.13,Single-ply,SBD,M
Boys,82.1,6,Aj Mcgahee,Tyler Chapel Hill,81.01,151.95,63.5,154.22,369.68,Single-ply,SBD,M
Boys,82.1,7,Christian Hesse,Tyler Lee,81.56,145.15,70.31,151.95,367.41,Single-ply,SBD,M
Boys,82.1,8,Eben Retz,Lindale,79.92,90.72,56.7,111.13,258.55,Single-ply,SBD,M
Boys,82.1,9,Issac Estrada,Lindale,77.2,86.18,52.16,95.25,233.6,Single-ply,SBD,M
Boys,89.81,1,Ethan Thornton,Lindale,89.81,242.67,140.61,238.14,621.42,Single-ply,SBD,M
Boys,89.81,2,Lawson Barker,Bullard,89.63,199.58,154.22,199.58,553.38,Single-ply,SBD,M
Boys,89.81,3,Deaundre Heath,Longview Pine Tree,86.45,231.33,120.2,197.31,548.85,Single-ply,SBD,M
Boys,89.81,4,Jay'Quan Barnett,Henderson,89.81,215.46,120.2,197.31,532.97,Single-ply,SBD,M
Boys,89.81,5,Colton Munoz,Longview Pine Tree,87.09,192.78,127.01,199.58,519.36,Single-ply,SBD,M
Boys,89.81,6,Cameron Castles,Henderson,86.82,192.78,106.59,204.12,503.49,Single-ply,SBD,M
Boys,89.81,7,Tariq Woods,Tyler Lee,86.82,185.97,120.2,188.24,494.42,Single-ply,SBD,M
Boys,89.81,8,Jamichael Nicholson,Tyler Lee,88.72,185.97,102.06,204.12,492.15,Single-ply,SBD,M
Boys,89.81,9,Jacob Taylor,Henderson,87.54,188.24,102.06,195.04,485.34,Single-ply,SBD,M
Boys,99.79,1,Max Richardson,Tyler Chapel Hill,98.07,233.6,124.74,240.4,598.74,Single-ply,SBD,M
Boys,99.79,2,Andrew Reed,Lindale,93.08,226.8,129.27,190.51,546.58,Single-ply,SBD,M
Boys,99.79,3,Adrian Lacy,Tyler Chapel Hill,93.89,215.46,115.67,206.38,537.51,Single-ply,SBD,M
Boys,99.79,4,Cameron Bridges,Bullard,98.16,208.65,127.01,185.97,521.63,Single-ply,SBD,M
Boys,99.79,5,Willy Figueroa,Tyler Lee,99.06,183.7,95.25,188.24,467.2,Single-ply,SBD,M
Boys,99.79,6,Kade Fry,Tyler Lee,99.34,156.49,81.65,147.42,385.55,Single-ply,SBD,M
Boys,99.79,7,Yahir Soto,Lindale,98.97,147.42,83.91,140.61,371.95,Single-ply,SBD,M
Boys,99.79,8,Spencer Allen,Troup,98.79,147.42,83.91,138.35,369.68,Single-ply,SBD,M
Boys,99.79,9,Will Nix,Henderson,99.79,147.42,74.84,142.88,365.14,Single-ply,SBD,M
Boys,99.79,10,Landen Dry,Lindale,98.97,127.01,83.91,140.61,351.53,Single-ply,SBD,M
Boys,109.77,1,Khristion Little,Tyler Chapel Hill,103.69,317.51,154.22,263.08,734.82,Single-ply,SBD,M
Boys,109.77,2,James Sandifer,Lindale,108.14,249.48,131.54,249.48,630.49,Single-ply,SBD,M
Boys,109.77,3,Clayton Conrad,Henderson,103.51,226.8,124.74,226.8,578.33,Single-ply,SBD,M
Boys,109.77,4,Micah Dudley,Henderson,109.77,208.65,138.35,210.92,557.92,Single-ply,SBD,M
Boys,109.77,5,Jackson Smith,Tyler Chapel Hill,100.43,210.92,106.59,229.06,546.58,Single-ply,SBD,M
Boys,109.77,6,Tariq Robinson,Tyler Lee,104.87,183.7,129.27,165.56,478.54,Single-ply,SBD,M
Boys,109.77,7,Caleb Nichols,Henderson,108.41,156.49,102.06,170.1,428.64,Single-ply,SBD,M
Boys,109.77,8,Corey Lawrence,Tyler Lee,102.69,129.27,74.84,149.69,353.8,Single-ply,SBD,M
Boys,109.77,9,Donavan Jordan,Tyler Lee,108.5,,111.13,208.65,319.78,Single-ply,BD,M
Boys,124.74,1,Cason Cheney,Lindale,124.74,283.5,158.76,238.14,680.39,Single-ply,SBD,M
Boys,124.74,2,Keith Burkes,Longview Pine Tree,123.47,276.69,145.15,242.67,664.51,Single-ply,SBD,M
Boys,124.74,3,Jesse Hamelinck,Lindale,124.1,256.28,151.95,244.94,653.17,Single-ply,SBD,M
Boys,124.74,4,Michael Sutton,Tyler Chapel Hill,123.47,272.16,136.08,226.8,635.03,Single-ply,SBD,M
Boys,124.74,5,Jace Phillips #1,Lindale,118.84,231.33,136.08,233.6,601.01,Single-ply,SBD,M
Boys,124.74,6,Brayden Price,Tyler Chapel Hill,117.93,249.48,142.88,204.12,596.47,Single-ply,SBD,M
Boys,124.74,7,Roberto Miranda,Henderson,118.84,226.8,133.81,204.12,564.72,Single-ply,SBD,M
Boys,124.74,8,Carson Wilborn,Bullard,110.68,215.46,124.74,201.85,542.04,Single-ply,SBD,M
Boys,124.74,9,Kah'Lil Montague,Tyler Lee,118.57,197.31,122.47,192.78,512.56,Single-ply,SBD,M
Boys,124.74,10,William Morse,Bullard,109.86,206.38,124.74,165.56,496.68,Single-ply,SBD,M
Boys,124.74,11,Tra Whitmill,Tyler Lee,111.67,181.44,90.72,185.97,458.13,Single-ply,SBD,M
Boys,124.74,DQ,Malik Gilliam,Troup,124.74,,,,,Single-ply,SBD,M
Boys,124.74,DQ,DWayne Tutt,Tyler Lee,111.58,,,,,Single-ply,SBD,M
Boys,124.74+,1,Matthew Davis #4,Lindale,179.17,283.5,158.76,240.4,682.66,Single-ply,SBD,M
Boys,124.74+,2,Jacob Nichols,Henderson,160.12,192.78,131.54,181.44,505.76,Single-ply,SBD,M
Boys,124.74+,3,Jadarlon Key,Longview Pine Tree,137.8,185.97,102.06,195.04,483.08,Single-ply,SBD,M
Boys,124.74+,4,Mason Adams,Henderson,128.64,204.12,92.99,156.49,453.59,Single-ply,SBD,M
Boys,124.74+,5,Braylan Williams,Tyler Lee,131,136.08,86.18,195.04,417.3,Single-ply,SBD,M
