Division,WeightClassKg,Place,Name,Team,BodyweightKg,Best3SquatKg,Best3BenchKg,Best3DeadliftKg,TotalKg,Equipment,Event,Sex
Boys,51.71,1,Hector Villegas,Roma,51.35,174.63,92.99,179.17,446.79,Single-ply,SBD,M
Boys,51.71,2,LA Gonzalez,Alice,50.17,151.95,77.11,145.15,374.21,Single-ply,SBD,M
Boys,51.71,3,Nikalas Rosell,Laredo Alexander,50.44,120.2,77.11,129.27,326.59,Single-ply,SBD,M
Boys,51.71,4,Robert Gonzalez,Laredo Cigarroa,49.17,113.4,65.77,124.74,303.91,Single-ply,SBD,M
Boys,51.71,5,David Lozano,Roma,46.08,106.59,54.43,115.67,276.69,Single-ply,SBD,M
Boys,51.71,6,Nelson Carmona,Laredo Martin,45.09,102.06,52.16,111.13,265.35,Single-ply,SBD,M
Boys,51.71,7,Jose Lara,Laredo Nixon,48.99,86.18,61.23,108.86,256.28,Single-ply,SBD,M
Boys,55.79,1,Eric Oliva,Laredo United South,55.52,185.97,108.86,188.24,483.08,Single-ply,SBD,M
Boys,55.79,2,Cesar Esquivel,Laredo Cigarroa,54.88,165.56,70.31,172.37,408.23,Single-ply,SBD,M
Boys,55.79,3,Jesus Trevino,Zapata,55.61,142.88,79.38,167.83,390.09,Single-ply,SBD,M
Boys,55.79,4,Armando Arriola,Alice,55.79,124.74,88.45,124.74,337.93,Single-ply,SBD,M
Boys,55.79,5,Rafa Duenas,Laredo United,55.43,102.06,72.57,142.88,317.51,Single-ply,SBD,M
Boys,55.79,6,Franco Rullan,Laredo Nixon,52.98,95.25,58.97,104.33,258.55,Single-ply,SBD,M
Boys,55.79,DQ,Luis Garcia #4,Laredo Martin,53.16,,,,,Single-ply,SBD,M
Boys,59.87,1,Rudy Martinez,Carrizo Springs,59.06,174.63,92.99,199.58,467.2,Single-ply,SBD,M
Boys,59.87,2,Issac Castillo,Laredo Cigarroa,58.88,183.7,88.45,179.17,451.32,Single-ply,SBD,M
Boys,59.87,3,Robert Perez,Uvalde,59.51,156.49,90.72,181.44,428.64,Single-ply,SBD,M
Boys,59.87,4,Raul Cruz,Carrizo Springs,58.88,142.88,86.18,172.37,401.43,Single-ply,SBD,M
Boys,59.87,5,Daniel Cardenas,Uvalde,59.69,115.67,81.65,147.42,344.73,Single-ply,SBD,M
Boys,67.13,6,Erasmo Aguilar,Alice,60.06,142.88,61.23,136.08,340.19,Single-ply,SBD,M
Boys,59.87,7,Abraham Meneses,Laredo Martin,59.42,129.27,63.5,136.08,328.85,Single-ply,SBD,M
Boys,67.13,8,Esai DeLuna,Carrizo Springs,60.06,120.2,74.84,129.27,324.32,Single-ply,SBD,M
Boys,59.87,9,Joseph Reyes,Alice,57.79,142.88,61.23,111.13,315.25,Single-ply,SBD,M
Boys,59.87,DQ,Artemio Garcia,Zapata,59.42,129.27,,,,Single-ply,SBD,M
Boys,59.87,DQ,Joe Torres #7,Laredo Nixon,58.97,131.54,,,,Single-ply,SBD,M
Boys,67.13,1,Jonathan Pena,Laredo United South,64.77,199.58,124.74,213.19,537.51,Single-ply,SBD,M
Boys,67.13,2,Joseph Canales,Alice,65.5,199.58,120.2,204.12,523.9,Single-ply,SBD,M
Boys,74.84,3,Jesus Gomez,Roma,67.31,183.7,120.2,206.38,510.29,Single-ply,SBD,M
Boys,67.13,4,Josue Tobias,Laredo Nixon,64.86,158.76,102.06,185.97,446.79,Single-ply,SBD,M
Boys,67.13,5,Hector de la Rosa,Laredo United South,66.13,161.03,111.13,170.1,442.25,Single-ply,SBD,M
Boys,67.13,6,Eden Martinez,Carrizo Springs,66.22,167.83,104.33,167.83,439.98,Single-ply,SBD,M
Boys,67.13,7,Joel Aguilar,Roma,61.05,167.83,86.18,163.29,417.3,Single-ply,SBD,M
Boys,67.13,8,Maclovio Gomez,Zapata,60.96,151.95,88.45,172.37,412.77,Single-ply,SBD,M
Boys,67.13,9,Alexis Villarreal,Laredo United,67.13,154.22,92.99,158.76,405.97,Single-ply,SBD,M
Boys,67.13,10,Homero Flores,Laredo Nixon,60.51,145.15,74.84,172.37,392.36,Single-ply,SBD,M
Boys,67.13,11,Rene Cabrera,Laredo Cigarroa,64.05,149.69,90.72,149.69,390.09,Single-ply,SBD,M
Boys,67.13,12,Deiondre Omoruyi,Carrizo Springs,65.95,145.15,83.91,158.76,387.82,Single-ply,SBD,M
Boys,67.13,13,Alex Villapando,Alice,65.05,142.88,77.11,165.56,385.55,Single-ply,SBD,M
Boys,67.13,14,Alfonzo Cruz,Carrizo Springs,61.05,102.06,79.38,124.74,306.17,Single-ply,SBD,M
Boys,74.84,1,Gabriel Loera,Alice,74.3,210.92,131.54,210.92,553.38,Single-ply,SBD,M
Boys,74.84,2,Marco DeLuna,Laredo United South,74.57,208.65,129.27,204.12,542.04,Single-ply,SBD,M
Boys,74.84,3,Bryce Turner,Laredo Alexander,74.12,192.78,138.35,192.78,523.9,Single-ply,SBD,M
Boys,74.84,4,Yahir Garcia,Laredo United South,73.66,188.24,115.67,215.46,519.36,Single-ply,SBD,M
Boys,74.84,5,Sergio Garcia,Laredo Nixon,74.48,208.65,104.33,190.51,503.49,Single-ply,SBD,M
Boys,74.84,6,Marcos Molina,Laredo Cigarroa,71.4,170.1,83.91,185.97,439.98,Single-ply,SBD,M
Boys,74.84,7,Alex Maldonado,Roma,71.58,161.03,102.06,165.56,428.64,Single-ply,SBD,M
Boys,74.84,8,Hilario Mendoza,Laredo Johnson,72.12,165.56,99.79,163.29,428.64,Single-ply,SBD,M
Boys,82.1,9,Jonathan Brooks,Laredo Martin,74.93,161.03,92.99,165.56,419.57,Single-ply,SBD,M
Boys,74.84,10,Andy DeLeon,Laredo Nixon,71.67,136.08,95.25,183.7,415.04,Single-ply,SBD,M
Boys,74.84,11,Marc Cerda,Laredo United,68.67,131.54,92.99,183.7,408.23,Single-ply,SBD,M
Boys,74.84,12,Eduardo Sepulveda,Laredo Johnson,74.84,145.15,74.84,136.08,356.07,Single-ply,SBD,M
Boys,74.84,13,Mateo Mendoza,Zapata,68.31,122.47,70.31,154.22,347,Single-ply,SBD,M
Boys,74.84,14,Jaazil Brunrosto,Carrizo Springs,69.58,102.06,90.72,136.08,328.85,Single-ply,SBD,M
Boys,82.1,1,Victor Ramos,Laredo United South,82.1,226.8,136.08,235.87,598.74,Single-ply,SBD,M
Boys,82.1,2,Adrian Garcia,Roma,81.92,204.12,122.47,188.24,514.83,Single-ply,SBD,M
Boys,82.1,3,Eloy Soto,Laredo Cigarroa,78.2,167.83,115.67,181.44,464.93,Single-ply,SBD,M
Boys,82.1,4,Andy Saucedo,Laredo United,81.01,165.56,90.72,185.97,442.25,Single-ply,SBD,M
Boys,82.1,5,RJ Garza,Roma,81.92,154.22,104.33,176.9,435.45,Single-ply,SBD,M
Boys,82.1,6,Estevan Rodriguez,Uvalde,80.29,142.88,92.99,183.7,419.57,Single-ply,SBD,M
Boys,89.81,7,Michael Vasquez,Carrizo Springs,82.28,136.08,111.13,158.76,405.97,Single-ply,SBD,M
Boys,82.1,8,Jonothan Valadez,Laredo Johnson,79.2,142.88,90.72,156.49,390.09,Single-ply,SBD,M
Boys,82.1,DQ,Ricardo Ciseneros,Laredo Martin,80.83,,,,,Single-ply,SBD,M
Boys,89.81,1,Warren Oaks,Alice,86.64,238.14,172.37,195.04,605.55,Single-ply,SBD,M
Boys,89.81,2,Noe Gonzalez,Laredo United South,88.54,226.8,127.01,226.8,580.6,Single-ply,SBD,M
Boys,89.81,3,Jose Anaya,Laredo United South,86.09,219.99,113.4,206.38,539.77,Single-ply,SBD,M
Boys,89.81,4,David Oliva,Laredo Martin,89.63,210.92,124.74,176.9,512.56,Single-ply,SBD,M
Boys,89.81,5,Jonathan Rodriguez,Laredo Nixon,84.37,188.24,97.52,215.46,501.22,Single-ply,SBD,M
Boys,89.81,6,Rigo Hernandez,Uvalde,86.91,192.78,106.59,185.97,485.34,Single-ply,SBD,M
Boys,89.81,7,Noel Medrano,Laredo Cigarroa,85.55,183.7,90.72,206.38,480.81,Single-ply,SBD,M
Boys,89.81,8,Calvin Martinez,Carrizo Springs,85.91,170.1,120.2,190.51,480.81,Single-ply,SBD,M
Boys,89.81,9,Hugo Zamora,Laredo Cigarroa,82.92,185.97,115.67,176.9,478.54,Single-ply,SBD,M
Boys,89.81,10,Liam McMahan,Bruni,85.09,170.1,113.4,174.63,458.13,Single-ply,SBD,M
Boys,89.81,11,Jose Rios,Roma,86.18,165.56,115.67,174.63,455.86,Single-ply,SBD,M
Boys,89.81,12,Mario Fuentes,Laredo Martin,89.45,142.88,115.67,197.31,455.86,Single-ply,SBD,M
Boys,89.81,13,Derek Garcia,Uvalde,86.36,154.22,106.59,181.44,442.25,Single-ply,SBD,M
Boys,89.81,14,Norman Madrigal,Laredo Johnson,87.91,147.42,90.72,163.29,401.43,Single-ply,SBD,M
Boys,89.81,15,Genaro Chavez,Laredo Johnson,89.54,142.88,83.91,170.1,396.89,Single-ply,SBD,M
Boys,99.79,1,John Rivera,Alice,99.79,272.16,151.95,213.19,637.3,Single-ply,SBD,M
Boys,99.79,2,Marco Banda,Laredo Nixon,93.89,242.67,165.56,204.12,612.35,Single-ply,SBD,M
Boys,99.79,3,David Luna,Laredo Johnson,93.8,213.19,124.74,222.26,560.19,Single-ply,SBD,M
Boys,99.79,4,Cecilio Garcia,Laredo Nixon,95.8,190.51,129.27,217.72,537.51,Single-ply,SBD,M
Boys,99.79,5,Valentin Palomares,Laredo Johnson,95.53,190.51,83.91,213.19,487.61,Single-ply,SBD,M
Boys,99.79,6,Antonio Ruiz,Laredo Martin,91.17,165.56,102.06,215.46,483.08,Single-ply,SBD,M
Boys,99.79,7,Raul Estevis,Laredo United,94.35,151.95,120.2,199.58,471.74,Single-ply,SBD,M
Boys,99.79,8,Eddie Dominguez,Laredo United,95.16,170.1,90.72,190.51,451.32,Single-ply,SBD,M
Boys,99.79,9,Max Ramos,Laredo Johnson,97.7,165.56,79.38,172.37,417.3,Single-ply,SBD,M
Boys,99.79,10,Gilbert Bernal,Alice,93.17,151.95,120.2,142.88,415.04,Single-ply,SBD,M
Boys,99.79,DQ,Jordy Velasquez,Laredo Johnson,97.52,,,,,Single-ply,SBD,M
Boys,109.77,1,Andres Arvizu,Alice,106.96,272.16,154.22,226.8,653.17,Single-ply,SBD,M
Boys,109.77,2,Jose Flores #2,Laredo Cigarroa,104.51,244.94,158.76,247.21,650.91,Single-ply,SBD,M
Boys,109.77,3,Santos Alvarado,Laredo United,109.77,256.28,154.22,238.14,648.64,Single-ply,SBD,M
Boys,109.77,4,Max Flores,Laredo Alexander,107.95,249.48,145.15,249.48,644.1,Single-ply,SBD,M
Boys,109.77,5,Augustin Lara,Laredo United South,104.87,204.12,131.54,208.65,544.31,Single-ply,SBD,M
Boys,109.77,6,Silvestre Bustamante,Zapata,108.95,213.19,131.54,181.44,526.17,Single-ply,SBD,M
Boys,109.77,7,Jason Cortez,Uvalde,104.05,188.24,124.74,185.97,498.95,Single-ply,SBD,M
Boys,109.77,8,Andres Servin,Laredo Cigarroa,109.04,165.56,122.47,185.97,474,Single-ply,SBD,M
Boys,109.77,9,Lucio Melo,Zapata,106.5,176.9,95.25,192.78,464.93,Single-ply,SBD,M
Boys,109.77,10,Armando Castillo,Laredo Alexander,107.77,167.83,111.13,183.7,462.66,Single-ply,SBD,M
Boys,109.77,11,Eric Chapa,Zapata,102.69,167.83,102.06,181.44,451.32,Single-ply,SBD,M
Boys,124.74,12,Jose Beltran,Laredo Martin,109.95,174.63,92.99,181.44,449.06,Single-ply,SBD,M
Boys,109.77,13,Joel Garza,Laredo Johnson,103.6,176.9,90.72,158.76,426.38,Single-ply,SBD,M
Boys,109.77,14,Austin Hart,Laredo Alexander,109.41,161.03,79.38,181.44,421.84,Single-ply,SBD,M
Boys,124.74,15,Jorge Rodriguez,Zapata,109.95,136.08,92.99,174.63,403.7,Single-ply,SBD,M
Boys,109.77,16,Eli Gonzalez,Laredo Alexander,108.59,133.81,92.99,163.29,390.09,Single-ply,SBD,M
Boys,109.77,DQ,Juan Aguinaga,Uvalde,108.05,163.29,90.72,,,Single-ply,SBD,M
Boys,124.74,1,Juan Macias,Alice,123.74,265.35,145.15,226.8,637.3,Single-ply,SBD,M
Boys,124.74,2,Gilbert Hernandez,Laredo Cigarroa,123.74,251.74,163.29,213.19,628.23,Single-ply,SBD,M
Boys,124.74,3,Manuel Navarro,Zapata,123.92,251.74,156.49,204.12,612.35,Single-ply,SBD,M
Boys,124.74,4,Carlos Sanchez,Laredo United South,123.29,226.8,131.54,249.48,607.81,Single-ply,SBD,M
Boys,124.74,5,Gerardo Gonzalez,Laredo Nixon,123.92,226.8,140.61,226.8,594.21,Single-ply,SBD,M
Boys,124.74,6,Gustavo Diaz,Laredo Alexander,113.76,206.38,147.42,199.58,553.38,Single-ply,SBD,M
Boys,124.74,7,Hugo Martinez,Zapata,118.57,208.65,111.13,217.72,537.51,Single-ply,SBD,M
Boys,124.74,8,Juan Ramirez,Carrizo Springs,118.75,188.24,142.88,204.12,535.24,Single-ply,SBD,M
Boys,124.74,9,Jesus Zapata,Roma,114.31,215.46,124.74,185.97,526.17,Single-ply,SBD,M
Boys,124.74,10,Xavier Carrillo,Alice,121.47,190.51,127.01,181.44,498.95,Single-ply,SBD,M
Boys,124.74,11,Tino Torres,Carrizo Springs,122.83,185.97,111.13,185.97,483.08,Single-ply,SBD,M
Boys,124.74,12,Alvaro Ramos,Laredo Johnson,110.86,188.24,106.59,183.7,478.54,Single-ply,SBD,M
Boys,124.74,13,Efrain Batres,Laredo Martin,114.4,192.78,88.45,192.78,474,Single-ply,SBD,M
Boys,124.74,14,Mario Torres,Laredo Johnson,116.3,183.7,81.65,188.24,453.59,Single-ply,SBD,M
Boys,124.74,15,Guadalupe Gonzalez,Laredo Martin,115.48,165.56,83.91,197.31,446.79,Single-ply,SBD,M
Boys,124.74+,1,Rudy Flores,Laredo United South,141.88,306.17,204.12,283.5,793.79,Single-ply,SBD,M
Boys,124.74+,2,Eduardo Sanchez,Zapata,141.52,265.35,163.29,229.06,657.71,Single-ply,SBD,M
Boys,124.74+,3,Ruben Hinojosa,Roma,129.64,265.35,142.88,229.06,637.3,Single-ply,SBD,M
Boys,124.74+,4,Mario Chavez,Carrizo Springs,184.61,195.04,113.4,199.58,508.02,Single-ply,SBD,M
Boys,124.74+,5,Jesse Saldivar,Alice,134.17,158.76,129.27,172.37,460.4,Single-ply,SBD,M
Boys,124.74+,6,Erik Gonzalez #4,Laredo Johnson,136.53,176.9,86.18,174.63,437.72,Single-ply,SBD,M
Boys,,NS,Drew Kirkpatrick,Uvalde,,,,,,Single-ply,SBD,M
Boys,,NS,Miguel Garcia,Uvalde,,,,,,Single-ply,SBD,M
Boys,,NS,Daniel Trevino,Uvalde,,,,,,Single-ply,SBD,M
