Place,Name,State,WeightClassKg,BodyweightKg,Age,Best3SquatKg,Best3BenchKg,Best3DeadliftKg,TotalKg,Sex,Division,Equipment,Event
1,Imiley Hawkins,TX,60,56.5,22,97.5,50,105,252.5,F,Juniors 20-23,Raw,SBD
1,Nallely Hernandez,TX,67.5,66.1,21,117.5,45,130,292.5,F,Juniors 20-23,Raw,SBD
1,Jerika Montoya,TX,52,51.2,26,122.5,67.5,155,345,F,Open,Raw,SBD
1,Berta Tong,TX,56,55.1,42,77.5,37.5,112.5,227.5,F,Open,Raw,SBD
1,Imiley Hawkins,TX,60,56.5,22,97.5,50,105,252.5,F,Open,Raw,SBD
1,Chelsey Levario,TX,67.5,65.2,22,122.5,60,152.5,335,F,Open,Raw,SBD
1,Kyley Houston,TX,75,69.8,24,112.5,75,137.5,325,F,Open,Raw,SBD
1,Vanessa Alvarez,TX,82.5,81.9,25,182.5,85,187.5,455,F,Open,Raw,SBD
2,Cynthia Corralez,TX,82.5,79.8,33,132.5,62.5,187.5,382.5,F,Open,Raw,SBD
3,Aleida Arzate,TX,82.5,81.1,27,120,57.5,127.5,305,F,Open,Raw,SBD
1,Marissa Fierro,TX,90+,116.2,27,130,87.5,150,367.5,F,Open,Raw,SBD
1,Berta Tong,TX,56,55.1,42,77.5,37.5,112.5,227.5,F,Masters 40-44,Raw,SBD
1,Teresa Golden,TX,90,86.1,55,60,47.5,82.5,190,F,Masters 55-59,Raw,SBD
1,Berniece Condry,TX,90+,112,61,72.5,45,97.5,215,F,Masters 60-64,Raw,SBD
1,Ivan Arroyo,TX,67.5,67.5,23,215,150,250,615,M,Juniors 20-23,Raw,SBD
2,Callum Hurst,TX,67.5,66.5,21,210,122.5,240,572.5,M,Juniors 20-23,Raw,SBD
3,Nicholas Gonzales,TX,67.5,65.5,20,162.5,125,202.5,490,M,Juniors 20-23,Raw,SBD
1,Tyler Wilson #6,TX,90,86.7,17,182.5,105,182.5,470,M,Juniors 16-17,Raw,SBD
1,Ivan Arroyo,TX,67.5,67.5,23,215,150,250,615,M,Open,Raw,SBD
2,Callum Hurst,TX,67.5,66.5,21,210,122.5,240,572.5,M,Open,Raw,SBD
3,Daniel Allen,TX,67.5,65.4,33,127.5,117.5,125,370,M,Open,Raw,SBD
1,Ricardo Moncibais,TX,75,74.5,35,187.5,125,197.5,510,M,Open,Raw,SBD
1,Josh Reyes,TX,82.5,75.2,29,190,137.5,227.5,555,M,Open,Raw,SBD
2,David Butler,TX,82.5,81.3,37,172.5,112.5,205,490,M,Open,Raw,SBD
3,William Robb,TX,82.5,81.1,26,175,100,200,475,M,Open,Raw,SBD
DQ,Eric Fernandes,TX,82.5,80.8,28,,,,,M,Open,Raw,SBD
1,Cole Barton #1,TX,90,88.8,26,272.5,205,297.5,775,M,Open,Raw,SBD
2,Eric Villegas,TX,90,86.6,25,227.5,142.5,267.5,637.5,M,Open,Raw,SBD
3,Adam Moncibais,TX,90,87,26,217.5,147.5,215,580,M,Open,Raw,SBD
4,Matthew Scipione,TX,90,87.1,24,185,130,260,575,M,Open,Raw,SBD
1,Armando Melendez,TX,100,96.3,36,245,175,280,700,M,Open,Raw,SBD
2,Jacob Young #4,TX,100,98.3,24,202.5,122.5,250,575,M,Open,Raw,SBD
1,Kevin McGarry,TX,110,107.3,28,227.5,167.5,305,700,M,Open,Raw,SBD
2,Austen Horton,TX,110,109.2,42,255.5,127.5,296,679,M,Open,Raw,SBD
3,Carlos Valdez,TX,110,109,29,215,145,250,610,M,Open,Raw,SBD
1,Jorge Carrillo,TX,125,122.2,37,282.5,212.5,295,790,M,Open,Raw,SBD
2,Shae Jones,TX,125,118.1,40,275,185,275,735,M,Open,Raw,SBD
3,Steve Chappa,TX,125,119.1,34,250,195,275,720,M,Open,Raw,SBD
4,Kyle Slagle,TX,125,110.8,31,200,125,220,545,M,Open,Raw,SBD
1,James Martinez #2,TX,140,133.4,25,325,190,312.5,827.5,M,Open,Raw,SBD
2,Marshall Burson,TX,140,135.2,28,245,130,262.5,637.5,M,Open,Raw,SBD
3,Ryan DelBosque,TX,140,135.4,26,232.5,147.5,220,600,M,Open,Raw,SBD
1,Adam Apodaca,NM,140+,143.4,27,230,147.5,260,637.5,M,Open,Raw,SBD
1,David Butler,TX,82.5,81.3,37,172.5,112.5,205,490,M,Submasters 35-39,Raw,SBD
1,Jorge Carrillo,TX,125,122.2,37,282.5,212.5,295,790,M,Submasters 35-39,Raw,SBD
1,Austen Horton,TX,110,109.2,42,255.5,127.5,296,679,M,Masters 40-44,Raw,SBD
1,Shae Jones,TX,125,118.1,40,275,185,275,735,M,Masters 40-44,Raw,SBD
1,Steven Davenport,TX,125,115.7,48,195,125,205,525,M,Masters 45-49,Raw,SBD
DQ,Manuel Martinez,TX,140,131.6,19,,,,,M,Juniors 18-19,Wraps,SBD
1,Ryan Daigle,TX,90,89.6,24,250,155,285,690,M,Open,Wraps,SBD
1,Rodney Miller,TX,100,98.8,36,195,125,215,535,M,Open,Wraps,SBD
1,Trinton Golden,TX,110,109.6,33,300,197.5,300,797.5,M,Open,Wraps,SBD
2,Jordan Gaston,TX,110,109.8,28,255,180,262.5,697.5,M,Open,Wraps,SBD
1,Rodney Miller,TX,100,98.8,36,195,125,215,535,M,Submasters 35-39,Wraps,SBD
1,Cael Shields,TX,125,114.9,38,300,227.5,227.5,755,M,Submasters 35-39,Wraps,SBD
1,Alyssa Bravo,TX,56,52.2,22,87.5,30,87.5,205,F,Open,Single-ply,SBD
DQ,Justin Conway,TX,110,107.3,38,,,,,M,Submasters 35-39,Raw,B
1,Cynthia Corralez,TX,82.5,79.8,33,,,187.5,187.5,F,Open,Raw,D
1,Marie Quintana,TX,90+,109.3,53,,,127.5,127.5,F,Masters 50-54,Raw,D
1,Austen Horton,TX,110,109.2,42,,,296,296,M,Open,Raw,D
1,Austen Horton,TX,110,109.2,42,,,296,296,M,Masters 40-44,Raw,D
DQ,Justin Conway,TX,110,107.3,38,,,,,M,Submasters 35-39,Raw,BD
