Place,Name,BirthDate,WeightClassKg,Team,BodyweightKg,Best3SquatKg,Best3BenchKg,Best3DeadliftKg,TotalKg,Sex,Division,Event,Equipment
1,Sita,1997-12-28,47,HAR,47,137.5,50,132.5,320,F,Open,SBD,Single-ply
2,Sangle Angali,1999-07-08,47,GUJ,46.6,102.5,50,110,262.5,F,Open,SBD,Single-ply
3,K. Sree Lakshmi,1996-10-11,47,AP,42.3,72.5,37.5,90,200,F,Open,SBD,Single-ply
1,Suman Devi,1997-06-20,52,HAR,52,147.5,82.5,152.5,382.5,F,Open,SBD,Single-ply
2,R. Poorna,1998-12-10,52,AP,52,150,62.5,160,372.5,F,Open,SBD,Single-ply
3,D. Kusuma,1994-01-30,52,AP,51.3,145,50,140,335,F,Open,SBD,Single-ply
4,S Ramya,2000-02-06,52,TN,50.05,127.5,45,127.5,300,F,Open,SBD,Single-ply
1,Sonal Sawant,1998-10-01,57,MAH,55.3,160,102.5,137.5,400,F,Open,SBD,Single-ply
2,Suchita Tendolkar,1995-02-28,57,MAH,54.5,155,80,150,385,F,Open,SBD,Single-ply
3,Sudha Kumari,1979-01-06,57,BIH,55.45,145,97.5,140,382.5,F,Open,SBD,Single-ply
4,Shaik Sadiya Almas,2002-10-27,57,AP,56.75,160,60,140,360,F,Open,SBD,Single-ply
5,Ekta Vishnoi,1974-06-03,57,MAH,55.65,95,60,110,265,F,Open,SBD,Single-ply
DQ,Ramalaxmi Jajula,1989-07-02,57,R.S.P.B,54.25,,,,,F,Open,SBD,Single-ply
1,Jaswinder Kaur,1997-06-07,63,UTK,61.65,172.5,87.5,190,450,F,Open,SBD,Single-ply
2,Manju Rani,1999-12-27,63,HAR,62.5,140,80,150,370,F,Open,SBD,Single-ply
3,Hritvika Sardesai,2000-03-31,63,MAH,62.09,130,65,137.5,332.5,F,Open,SBD,Single-ply
4,M Priya,2000-06-01,63,TN,58.05,120,52.5,127.5,300,F,Open,SBD,Single-ply
1,Prateeksha B Gaikwad,1991-11-24,72,VID,72,202.5,107.5,167.5,477.5,F,Open,SBD,Single-ply
2,Sana Malagi,1994-03-04,72,KTK,71.25,197.5,85,167.5,450,F,Open,SBD,Single-ply
3,Bithika Mondal,1992-09-12,72,WB,69.85,185,77.5,175,437.5,F,Open,SBD,Single-ply
4,M Saloome,1997-06-08,72,AP,71.85,192.5,62.5,162.5,417.5,F,Open,SBD,Single-ply
5,Santosh Kaur,1995-08-02,72,UTK,64.05,170,75,170,415,F,Open,SBD,Single-ply
6,Arthi Arun,1975-03-13,72,TN,65.05,140,62.5,150,352.5,F,Open,SBD,Single-ply
7,Anju Singh,1977-06-15,72,CHAT,71.05,90,50,130,270,F,Open,SBD,Single-ply
DQ,Nisha,1999-12-15,72,HAR,63.07,,,,,F,Open,SBD,Single-ply
1,Sonali Gite,1990-03-31,84,R.S.P.B,84,237.5,140,182.5,560,F,Open,SBD,Single-ply
2,Bhakti Ambre,1982-03-19,84,MAH,81.6,210,140,190,540,F,Open,SBD,Single-ply
3,Ramya Pandian,1996-03-04,84,TN,83.45,200,102.5,165,467.5,F,Open,SBD,Single-ply
4,B. Chandrika,1998-05-01,84,AP,83.6,192.5,80,182.5,455,F,Open,SBD,Single-ply
5,Murchana Saharia H,1997-01-17,84,ASM,83,190,100,162.5,452.5,F,Open,SBD,Single-ply
6,Libas P. Bava,1984-02-27,84,KER,78.9,160,70,140,370,F,Open,SBD,Single-ply
1,Preeti Temghare,1989-10-21,84+,R.S.P.B,84.2,210,85,155,450,F,Open,SBD,Single-ply
2,Jayita Majumder,1991-09-15,84+,WB,99.9,185,102.5,145,432.5,F,Open,SBD,Single-ply
3,V Prasanthi,1998-05-01,84+,AP,93.5,202.5,65,140,407.5,F,Open,SBD,Single-ply
4,Pranjal Solanki,2001-03-12,84+,MP,107.9,160,70,140,370,F,Open,SBD,Single-ply
5,Mary Beena,1965-05-31,84+,KER,86.4,120,60,135,315,F,Open,SBD,Single-ply
6,Anuja Tendolkar,1958-10-01,84+,MAH,102.9,82.5,60,115,257.5,F,Open,SBD,Single-ply
DQ,Konsam Rosida Devi,2000-01-01,84+,MANI,93.2,,,,,F,Open,SBD,Single-ply
1,Puthiyandi Suresh Purayil Suresh,1981-05-27,59,R.S.P.B,58.75,260,170,207.5,637.5,M,Open,SBD,Single-ply
2,Dharmendra Yadav,1993-10-01,59,MAH,58.8,225,160,220,605,M,Open,SBD,Single-ply
3,Rajesh Shukware,1983-10-05,59,MP,58.05,222.5,147.5,200,570,M,Open,SBD,Single-ply
4,Sachin Betkar,1992-03-01,59,MAH,59,220,137.5,210,567.5,M,Open,SBD,Single-ply
5,Mohammed Aarif,1991-10-30,59,GUJ,57.95,180,122.5,200,502.5,M,Open,SBD,Single-ply
6,Yadnesh V. Raut,1998-08-29,59,KTK,58.75,177.5,107.5,180,465,M,Open,SBD,Single-ply
7,Virendra Singh Markam,1998-08-15,59,UP,53.2,155,102.5,190,447.5,M,Open,SBD,Single-ply
8,Dhurv Raj Kure,2002-02-06,59,MP,54.5,165,85,180,430,M,Open,SBD,Single-ply
9,Sainudheen S,1968-12-22,59,KER,59,120,85,135,340,M,Open,SBD,Single-ply
10,Srinivasan K.C,1950-08-28,59,KER,56.1,87.5,90,112.5,290,M,Open,SBD,Single-ply
DQ,K. Narendra,1998-11-12,59,AP,59,160,100,,,M,Open,SBD,Single-ply
1,Sahil Utekar,1996-10-27,66,MAH,64.7,270,152.5,265,687.5,M,Open,SBD,Single-ply
2,Govindasamy B,1994-03-16,66,TN,66,257.5,140,270,667.5,M,Open,SBD,Single-ply
3,Sunil Parasharam Konewadkar,1993-08-05,66,GOA,65.9,260,152.5,247.5,660,M,Open,SBD,Single-ply
4,Bijin Sanki,2000-03-20,66,KER,64.55,185,115,225,525,M,Open,SBD,Single-ply
5,Sidhan Jimmy,2000-07-22,66,KER,66,170,115,170,455,M,Open,SBD,Single-ply
6,Sangle Prakash Chandra,1972-01-14,66,GUJ,66,140,85,140,365,M,Open,SBD,Single-ply
7,G. K. Pali,1967-07-14,66,MP,65.9,122.5,82.5,135,340,M,Open,SBD,Single-ply
8,Ramesh Chandra Namdev,1958-03-24,66,MP,62.15,110,75,117.5,302.5,M,Open,SBD,Single-ply
DQ,Raikumar Naorem,1971-01-02,66,MANI,63.3,,,,,M,Open,SBD,Single-ply
1,Pradeep Kumar,1988-05-04,74,KTK,74,265,192.5,252.5,710,M,Open,SBD,Single-ply
2,Kiran Sanas,1985-12-22,74,MAH,73.83,265,165,265,695,M,Open,SBD,Single-ply
3,Vivek Kumar Gupta,1995-12-05,74,BIH,73.54,250,185,240,675,M,Open,SBD,Single-ply
4,Patel Jay Dinesh,1995-08-11,74,GUJ,73.2,250,167.5,245,662.5,M,Open,SBD,Single-ply
5,Gurjot Arora,1997-08-07,74,PUN,73.85,235,152.5,255,642.5,M,Open,SBD,Single-ply
6,Navdeep Singh,2001-05-04,74,PUN,73.45,242.5,132.5,250,625,M,Open,SBD,Single-ply
7,Prasanth M G,1986-09-10,74,KER,72.75,250,130,200,580,M,Open,SBD,Single-ply
8,A Manimaran,1974-04-13,74,TN,73.2,222.5,107.5,212.5,542.5,M,Open,SBD,Single-ply
DQ,Amit Kumar,1989-07-18,74,UTK,70.56,,,,,M,Open,SBD,Single-ply
DQ,Shivam,1996-11-08,74,BIH,72.9,,,,,M,Open,SBD,Single-ply
1,Nilesh Garate,1991-12-05,83,MAH,83,295,207.5,262.5,765,M,Open,SBD,Single-ply
2,A Sakthivel,1995-06-24,83,TN,82.9,280,170,252.5,702.5,M,Open,SBD,Single-ply
3,Lakhveer Singh,1996-01-10,83,UTK,81.13,255,170,265,690,M,Open,SBD,Single-ply
4,G. Ramesh,1993-12-19,83,TEL,78.25,265,145,245,655,M,Open,SBD,Single-ply
5,S. Naveen,2001-07-26,83,TN,82.6,260,142.5,250,652.5,M,Open,SBD,Single-ply
6,Tanaji Patil,1966-06-01,83,MAH,82.34,217.5,130,220,567.5,M,Open,SBD,Single-ply
7,Ramachandran T.K,1968-01-05,83,KER,81.6,200,130,160,490,M,Open,SBD,Single-ply
DQ,Balram,1999-05-10,83,HAR,81,260,125,,,M,Open,SBD,Single-ply
1,T. Ulaganathan,1994-07-26,93,TN,93,335,182.5,277.5,795,M,Open,SBD,Single-ply
2,S Elavarasan,1996-06-18,93,TN,93,325,175,275,775,M,Open,SBD,Single-ply
3,Mohit Baragi,1996-09-12,93,DEL,91.54,300,157.5,270,727.5,M,Open,SBD,Single-ply
4,Prateek Mishra,1993-08-20,93,MP,93,287.5,202.5,232.5,722.5,M,Open,SBD,Single-ply
5,Veeranna Hingani,1997-12-19,93,KTK,93,280,182.5,255,717.5,M,Open,SBD,Single-ply
6,Abraham Lalihakima,1997-05-14,93,MIZ,92.4,270,185,260,715,M,Open,SBD,Single-ply
7,Samer Dalvi,1979-11-29,93,MAH,91.25,270,197.5,237.5,705,M,Open,SBD,Single-ply
8,Baldev Singh,1989-08-11,93,UTK,90.9,250,152.5,240,642.5,M,Open,SBD,Single-ply
9,Kiran K.K,1996-03-03,93,KER,92.4,270,135,222.5,627.5,M,Open,SBD,Single-ply
10,Hrittik Majhi,2000-01-23,93,W B,85.1,230,137.5,242.5,610,M,Open,SBD,Single-ply
11,Ganesan A,1968-01-14,93,KER,85,222.5,100,220,542.5,M,Open,SBD,Single-ply
DQ,Maheswari Nikhil,1967-08-03,93,GUJ,91.25,180,,,,M,Open,SBD,Single-ply
1,Sandeep Awari,1979-05-01,105,MAH,101,365,230,330,925,M,Open,SBD,Single-ply
2,Yugesh Kumar,1993-11-16,105,PUN,104.3,330,225,330,885,M,Open,SBD,Single-ply
3,Biswajit Gogoi,1995-12-01,105,ASM,98.3,305,217.5,255,777.5,M,Open,SBD,Single-ply
4,Mudasar Khan,1995-12-01,105,UTK,102.7,290,205,270,765,M,Open,SBD,Single-ply
5,Amandeep Singh Arora,1989-09-09,105,UTK,105,270,180,280,730,M,Open,SBD,Single-ply
6,Mahaboobkhan N,1997-07-21,105,TN,104.8,275,162.5,245,682.5,M,Open,SBD,Single-ply
7,Ranajith Paul,1997-08-03,105,WB,100,255,155,235,645,M,Open,SBD,Single-ply
DQ,Bhupendra Pratap Singh,1983-12-15,105,BIH,104,,,,,M,Open,SBD,Single-ply
1,Amol Kaduskar,1985-07-01,120,MAH,117.1,305,197.5,245,747.5,M,Open,SBD,Single-ply
2,Debi Prasad Chaterjee,1980-01-02,120,JHK,120,250,220,250,720,M,Open,SBD,Single-ply
3,P. Lalchamliana,1977-10-11,120,MIZ,109.5,240,185,220,645,M,Open,SBD,Single-ply
4,Mathew T J,1969-05-30,120,KER,112.2,255,122.5,225,602.5,M,Open,SBD,Single-ply
5,Girish Binjwe,1971-10-01,120,MAH,107.9,200,140,212.5,552.5,M,Open,SBD,Single-ply
1,Abhishek B. Horkeri,1998-06-08,120+,KTK,140.1,345,197.5,255,797.5,M,Open,SBD,Single-ply
2,Vijin Krishna V T,1995-06-20,120+,KER,133.4,325,170,250,745,M,Open,SBD,Single-ply
3,Sarath Kumar R,1975-10-03,120+,KER,120.1,280,182.5,270,732.5,M,Open,SBD,Single-ply
4,Rohit Ojha,2002-10-07,120+,RAJ,132.05,200,120,222.5,542.5,M,Open,SBD,Single-ply
