Division,WeightClassKg,Place,Name,Team,BodyweightKg,Best3SquatKg,Best3BenchKg,Best3DeadliftKg,TotalKg,Equipment,Event,Sex
Boys,51.71,1,Thomas Soto,Corpus Christi Calallen,51.62,172.37,92.99,201.85,467.2,Single-ply,SBD,M
Boys,51.71,2,Cesar Casas,Hidalgo Early College,51.71,181.44,104.33,181.44,467.2,Single-ply,SBD,M
Boys,51.71,3,Diego Pena,Roma,51.44,170.1,95.25,179.17,444.52,Single-ply,SBD,M
Boys,51.71,4,JT White,Cedar Hill,51.53,163.29,74.84,197.31,435.45,Single-ply,SBD,M
Boys,51.71,5,Robert Chapa,Gregory-Portland,51.35,161.03,92.99,179.17,433.18,Single-ply,SBD,M
Boys,55.79,6,Haif Martinez,Lewisville The Colony,51.94,176.9,88.45,167.83,433.18,Single-ply,SBD,M
Boys,55.79,7,Pablo Gutierrez #3,Weslaco East,51.8,154.22,99.79,165.56,419.57,Single-ply,SBD,M
Boys,51.71,8,Josh Nowlin,San Antonio East Central,50.53,154.22,90.72,163.29,408.23,Single-ply,SBD,M
Boys,51.71,9,George Bankhead,Freeport Brazosport,51.44,158.76,68.04,158.76,385.55,Single-ply,SBD,M
Boys,51.71,10,Edgar Barbosa,Laredo Cigarroa,50.98,142.88,90.72,149.69,383.29,Single-ply,SBD,M
Boys,51.71,11,Randy Trevino,Gregory-Portland,51.44,154.22,74.84,151.95,381.02,Single-ply,SBD,M
Boys,51.71,12,Kendrel Wilson,Longview,51.17,142.88,77.11,147.42,367.41,Single-ply,SBD,M
Boys,51.71,13,Justin Davis,Buda Hays,51.26,124.74,92.99,149.69,367.41,Single-ply,SBD,M
Boys,55.79,14,Isaiah Robinson,Waco Midway,51.94,131.54,77.11,158.76,367.41,Single-ply,SBD,M
Boys,51.71,15,Ivan Antuna,Plainview,49.44,138.35,72.57,140.61,351.53,Single-ply,SBD,M
Boys,55.79,16,Jose Cordero,Abilene,51.8,120.2,70.31,136.08,326.59,Single-ply,SBD,M
Boys,51.71,DQ,Eric Oliva,Laredo United South,51.07,,,,,Single-ply,SBD,M
Boys,51.71,DQ,Josue Leon,Sulphur Springs,51.17,172.37,,,,Single-ply,SBD,M
Boys,51.71,NS,Martin Villarreal,Laredo United South,,,,,,Single-ply,SBD,M
Boys,51.71,NS,Chancellor Smith,Katy Mayde Creek,,,,,,Single-ply,SBD,M
Boys,51.71,NS,Cassius Fitzpatrick,Denison,,,,,,Single-ply,SBD,M
Boys,55.79,1,Kenny Nguyen,Dickinson,55.79,183.7,136.08,188.24,508.02,Single-ply,SBD,M
Boys,55.79,2,Omar Puente,Los Fresnos,55.34,183.7,124.74,197.31,505.76,Single-ply,SBD,M
Boys,55.79,3,Thomas Mascorro,San Marcos,53.98,181.44,111.13,201.85,494.42,Single-ply,SBD,M
Boys,55.79,4,Daniel Chapa,Gregory-Portland,55.07,181.44,104.33,188.24,474,Single-ply,SBD,M
Boys,55.79,5,Dominique Moreland,Mansfield Summit,55.34,172.37,90.72,199.58,462.66,Single-ply,SBD,M
Boys,55.79,6,JR Torres,San Benito,54.43,154.22,92.99,190.51,437.72,Single-ply,SBD,M
Boys,55.79,7,Toni Ogunsola,Frisco,55.07,163.29,90.72,170.1,424.11,Single-ply,SBD,M
Boys,55.79,8,Pete Rios,Waxahachie,54.79,158.76,86.18,154.22,399.16,Single-ply,SBD,M
Boys,55.79,9,Gabe Garcia,Midland,54.98,142.88,86.18,170.1,399.16,Single-ply,SBD,M
Boys,55.79,10,Luis Gamez #1,Sulphur Springs,55.7,149.69,92.99,154.22,396.89,Single-ply,SBD,M
Boys,55.79,11,Jesse Ramirez #2,San Angelo Lake View,54.98,140.61,86.18,163.29,390.09,Single-ply,SBD,M
Boys,55.79,DQ,Jerry Alaniz,Laredo Alexander,55.43,192.78,,,,Single-ply,SBD,M
Boys,59.87,DQ,Jonathan Johnson,Copperas Cove,55.97,147.42,81.65,,,Single-ply,SBD,M
Boys,55.79,NS,Demitri Sommer,Lewisville The Colony,,,,,,Single-ply,SBD,M
Boys,55.79,DQ,Daniel Moreno #3,Dayton,55.61,181.44,88.45,,,Single-ply,SBD,M
Boys,59.87,1,Clarington Lightfoot,Everman,59.69,240.4,113.4,215.46,569.26,Single-ply,SBD,M
Boys,59.87,2,Ja'Core Aldridge,La Marque,59.78,204.12,113.4,231.33,548.85,Single-ply,SBD,M
Boys,67.13,3,Brandon Alford,Kyle Lehman,60.1,181.44,117.93,217.72,517.1,Single-ply,SBD,M
Boys,59.87,4,Steve Solis,PSJA Memorial,58.88,195.04,106.59,208.65,510.29,Single-ply,SBD,M
Boys,67.13,5,Anthony Grimes,Katy Mayde Creek,60.1,181.44,108.86,217.72,508.02,Single-ply,SBD,M
Boys,59.87,6,Aaron Pomerantz,Lewisville Marcus,58.88,206.38,117.93,181.44,505.76,Single-ply,SBD,M
Boys,59.87,7,Rigo Pena,Pharr Valley View,59.06,190.51,122.47,192.78,505.76,Single-ply,SBD,M
Boys,59.87,8,Jeff Kearns,Gregory-Portland,59.6,197.31,115.67,185.97,498.95,Single-ply,SBD,M
Boys,59.87,9,Eric Garza,Magnolia West,59.78,204.12,102.06,188.24,494.42,Single-ply,SBD,M
Boys,59.87,10,Carlos Bravo,Lewisville The Colony,59.51,181.44,113.4,197.31,492.15,Single-ply,SBD,M
Boys,59.87,11,Chris Jackson #7,Lockhart,59.87,154.22,102.06,190.51,446.79,Single-ply,SBD,M
Boys,59.87,12,Bobby Clift,Canyon Randall,58.97,167.83,104.33,170.1,442.25,Single-ply,SBD,M
Boys,59.87,13,Terrence Butler,Texarkana Texas,59.78,158.76,79.38,192.78,430.91,Single-ply,SBD,M
Boys,59.87,14,Jesus Vasquez,Red Oak,57.79,167.83,79.38,149.69,396.89,Single-ply,SBD,M
Boys,59.87,15,Jonathon Schwartzenberger,Canyon Randall,59.33,124.74,83.91,149.69,358.34,Single-ply,SBD,M
Boys,59.87,NS,Ryan Yanez,Gregory-Portland,,,,,,Single-ply,SBD,M
Boys,67.13,1,JJ Gonzalez,Gregory-Portland,66.59,244.94,156.49,226.8,628.23,Single-ply,SBD,M
Boys,67.13,2,Ruben Salinas,Roma,66.68,251.74,142.88,217.72,612.35,Single-ply,SBD,M
Boys,67.13,3,Zerrick Merchant,College Station A&M Cons,66.41,238.14,124.74,244.94,607.81,Single-ply,SBD,M
Boys,67.13,4,Jared Wetuski,Montgomery,65.23,240.4,136.08,215.46,591.94,Single-ply,SBD,M
Boys,67.13,5,Stefan Sommer,Lewisville The Colony,66.77,226.8,129.27,226.8,582.87,Single-ply,SBD,M
Boys,67.13,6,Ernie Sandell,San Benito,65.95,204.12,140.61,226.8,571.53,Single-ply,SBD,M
Boys,67.13,7,John Wrenn,Bishop Lynch,66.22,226.8,122.47,217.72,566.99,Single-ply,SBD,M
Boys,67.13,8,Brice LaMach,Bay City,66.77,235.87,129.27,201.85,566.99,Single-ply,SBD,M
Boys,67.13,9,Jose Bazaldua,Mercedes,65.68,226.8,127.01,201.85,555.65,Single-ply,SBD,M
Boys,67.13,10,Jared Reilly,Corpus Christi Calallen,66.77,208.65,115.67,226.8,551.11,Single-ply,SBD,M
Boys,67.13,11,Martin Armenta,Victoria West,67.13,206.38,122.47,215.46,544.31,Single-ply,SBD,M
Boys,74.84,12,Essix Lightfoot,Everman,67.22,210.92,108.86,204.12,523.9,Single-ply,SBD,M
Boys,67.13,13,John Hernandez,San Angelo Lake View,66.86,172.37,104.33,195.04,471.74,Single-ply,SBD,M
Boys,67.13,14,Alex Pierson,Longview,64.77,181.44,95.25,181.44,458.13,Single-ply,SBD,M
Boys,67.13,DQ,Edgar Simmons,Marshall,62.32,,,,,Single-ply,SBD,M
Boys,67.13,DQ,Thomas Garcia,Midland,66.77,,,,,Single-ply,SBD,M
Boys,67.13,DQ,Eddie Suarez,San Marcos,66.86,224.53,,,,Single-ply,SBD,M
Boys,67.13,DQ,Chris Galarza,Los Fresnos,65.05,249.48,136.08,,,Single-ply,SBD,M
Boys,67.13,DQ,Devaughn Childress,Frisco Wakeland,67.13,,,,,Single-ply,SBD,M
Boys,74.84,1,Abram Guerra,Rio Grande City,74.3,265.35,151.95,238.14,655.44,Single-ply,SBD,M
Boys,74.84,2,Ronald Winston,Katy Mayde Creek,74.57,226.8,154.22,244.94,625.96,Single-ply,SBD,M
Boys,74.84,3,Esteban Flores,Pharr Valley View,74.39,222.26,136.08,254.01,612.35,Single-ply,SBD,M
Boys,74.84,4,Courtland Taylor,Bay City,72.57,244.94,138.35,226.8,610.08,Single-ply,SBD,M
Boys,74.84,5,Matt Ritch,San Antonio East Central,74.21,263.08,140.61,204.12,607.81,Single-ply,SBD,M
Boys,74.84,6,Stevin Leal,Corpus Christi Tuloso-Midway,73.66,244.94,131.54,224.53,601.01,Single-ply,SBD,M
Boys,74.84,7,Jose de la Rosa,Roma,74.03,238.14,133.81,226.8,598.74,Single-ply,SBD,M
Boys,74.84,8,Miguel Galvan,Pharr Valley View,74.75,226.8,147.42,224.53,598.74,Single-ply,SBD,M
Boys,74.84,9,Austin Martin #3,Greenville,73.48,247.21,133.81,215.46,596.47,Single-ply,SBD,M
Boys,74.84,10,Stephen St John,Belton,74.12,219.99,117.93,244.94,582.87,Single-ply,SBD,M
Boys,74.84,11,Devin Walker,Everman,74.75,235.87,124.74,215.46,576.06,Single-ply,SBD,M
Boys,74.84,12,Marucs Orzabal,College Station A&M Cons,73.48,215.46,129.27,217.72,562.45,Single-ply,SBD,M
Boys,74.84,13,Deshune Barlow,Cedar Hill,74.75,217.72,102.06,240.4,560.19,Single-ply,SBD,M
Boys,74.84,DQ,Aaron Cantu,Abilene Cooper,73.03,,,,,Single-ply,SBD,M
Boys,74.84,DQ,Luis Juarez,Midland,74.75,210.92,120.2,,,Single-ply,SBD,M
Boys,74.84,DQ,Jacovin Coats,Marshall,72.76,,,,,Single-ply,SBD,M
Boys,74.84,DQ,DJ Martinez,PSJA Memorial,73.66,235.87,142.88,,,Single-ply,SBD,M
Boys,82.1,1,Ryan Torres,Gregory-Portland,80.74,276.69,158.76,267.62,703.07,Single-ply,SBD,M
Boys,82.1,2,Luis Munoz #4,Hidalgo Early College,81.65,301.64,147.42,247.21,696.26,Single-ply,SBD,M
Boys,82.1,3,Lonnie Overturf,Comal Canyon,76.2,272.16,179.17,242.67,694,Single-ply,SBD,M
Boys,82.1,4,Collin Charles,Frisco Heritage,79.74,249.48,149.69,272.16,671.32,Single-ply,SBD,M
Boys,82.1,5,Andy Mohl,Corpus Christi Tuloso-Midway,80.74,258.55,163.29,240.4,662.24,Single-ply,SBD,M
Boys,82.1,6,Justin Eberly,Conroe Caney Creek,82.01,249.48,156.49,249.48,655.44,Single-ply,SBD,M
Boys,82.1,7,Miguel Pena,Pharr Valley View,82.1,247.21,158.76,235.87,641.83,Single-ply,SBD,M
Boys,82.1,8,Joe Waithaka,College Station A&M Cons,81.01,254.01,147.42,226.8,628.23,Single-ply,SBD,M
Boys,82.1,9,Eduardo Ramirez #1,Los Fresnos,80.29,258.55,138.35,222.26,619.15,Single-ply,SBD,M
Boys,82.1,10,Omar Pereyra,Dripping Springs,81.28,249.48,142.88,226.8,619.15,Single-ply,SBD,M
Boys,82.1,11,Chris Belmares,Weslaco East,81.74,233.6,129.27,231.33,594.21,Single-ply,SBD,M
Boys,82.1,12,Adrian Gonzales,Plainview,81.92,224.53,133.81,233.6,591.94,Single-ply,SBD,M
Boys,82.1,13,Cameron Bausley,Red Oak,78.2,231.33,124.74,233.6,589.67,Single-ply,SBD,M
Boys,82.1,14,Austin Arnold,Denison,81.87,204.12,158.76,215.46,578.33,Single-ply,SBD,M
Boys,82.1,DQ,Justin Gary,Dickinson,80.56,,,,,Single-ply,SBD,M
Boys,82.1,DQ,Jamal Session,Abilene Cooper,81.87,,,,,Single-ply,SBD,M
Boys,89.81,DQ,Christian Andrews,Beaumont Ozen,82.33,,,,,Single-ply,SBD,M
Boys,82.1,DQ,Jacob Ritch,San Antonio East Central,81.92,,,,,Single-ply,SBD,M
Boys,82.1,DQ,Travis Turner,Texarkana Texas,81.01,249.48,136.08,,,Single-ply,SBD,M
Boys,89.81,1,Brandon Griffith,Port Lavaca Calhoun,89.27,317.51,195.04,263.08,775.64,Single-ply,SBD,M
Boys,89.81,2,Javiel Rojas,Kingsville King,89.81,317.51,142.88,290.3,750.7,Single-ply,SBD,M
Boys,89.81,3,Jefferey Moreno,Comal Canyon,85.91,290.3,172.37,285.76,748.43,Single-ply,SBD,M
Boys,89.81,4,Jordan Glenn,Houston Bellaire,85.37,263.08,181.44,283.5,728.02,Single-ply,SBD,M
Boys,89.81,5,Chris Hall,Santa Fe,89.81,258.55,183.7,283.5,725.75,Single-ply,SBD,M
Boys,89.81,6,Leo Castro,Elgin,88.45,274.42,183.7,265.35,723.48,Single-ply,SBD,M
Boys,89.81,7,DJ Levias,College Station A&M Cons,89.18,290.3,161.03,260.82,712.14,Single-ply,SBD,M
Boys,89.81,8,Mitchell Fountain,Conroe The Woodlands,87.27,265.35,136.08,272.16,673.58,Single-ply,SBD,M
Boys,99.79,9,Craig Renfro,Waxahachie,89.9,249.48,136.08,256.28,641.83,Single-ply,SBD,M
Boys,89.81,10,Danny Mora,Mission Sharyland,88.99,260.82,136.08,242.67,639.57,Single-ply,SBD,M
Boys,89.81,11,Mason Tham,Cedar Park Vista Ridge,89.63,249.48,142.88,244.94,637.3,Single-ply,SBD,M
Boys,89.81,12,Coleton Boudreaux,Orange Little Cypress-Mauriceville,88.63,254.01,147.42,226.8,628.23,Single-ply,SBD,M
Boys,89.81,13,Victor Aguilar #2,Mercedes,89.63,240.4,145.15,242.67,628.23,Single-ply,SBD,M
Boys,89.81,14,KJ Evans,Joshua,86.91,235.87,151.95,235.87,623.69,Single-ply,SBD,M
Boys,89.81,15,Marlin O'Neal,Dripping Springs,89.09,235.87,136.08,249.48,621.42,Single-ply,SBD,M
Boys,89.81,16,Alex Olson,Lewisville Marcus,87.91,249.48,140.61,226.8,616.89,Single-ply,SBD,M
Boys,89.81,17,Matt Hartman #3,Victoria West,88.9,233.6,136.08,247.21,616.89,Single-ply,SBD,M
Boys,89.81,18,Devin Bisby,Gregory-Portland,88.99,240.4,145.15,226.8,612.35,Single-ply,SBD,M
Boys,99.79,19,Mike Denton,Lewisville The Colony,90.04,247.21,115.67,242.67,605.55,Single-ply,SBD,M
Boys,89.81,20,Quinn Harrell,Abilene Cooper,85.09,240.4,138.35,215.46,594.21,Single-ply,SBD,M
Boys,89.81,21,Cody Duffy,Justin Northwest,88.54,231.33,149.69,199.58,580.6,Single-ply,SBD,M
Boys,89.81,DQ,Ozzie Zuniga,Odessa Permian,89.09,226.8,136.08,,,Single-ply,SBD,M
Boys,89.81,DQ,Dequan Raindle,Corsicana,87.45,226.8,,,,Single-ply,SBD,M
Boys,89.81,DQ,Richard Pena,San Antonio Southside,88.81,260.82,170.1,,,Single-ply,SBD,M
Boys,99.79,1,Akuda Esin,Dallas Jesuit,97.61,306.17,174.63,285.76,766.57,Single-ply,SBD,M
Boys,99.79,2,Nathan Ferrara,Lewisville Marcus,96.16,303.91,185.97,274.42,764.3,Single-ply,SBD,M
Boys,99.79,3,Strat Washington,Cedar Hill,96.43,303.91,167.83,285.76,757.5,Single-ply,SBD,M
Boys,109.77,4,Luis Hernandez,Edcouch-Elsa,99.97,278.96,185.97,278.96,743.89,Single-ply,SBD,M
Boys,99.79,5,Roderick Wiltz,Houston Madison,99.16,303.91,165.56,272.16,741.62,Single-ply,SBD,M
Boys,99.79,6,Santos Dominguez,San Antonio East Central,98.16,303.91,174.63,247.21,725.75,Single-ply,SBD,M
Boys,99.79,7,Donnie Preston,Tomball,98.97,281.23,145.15,292.57,718.94,Single-ply,SBD,M
Boys,99.79,8,Nick Trevino #2,Kingsville King,99.43,294.84,142.88,281.23,718.94,Single-ply,SBD,M
Boys,99.79,9,Alex Tanguma,Corpus Christi Calallen,96.25,272.16,181.44,263.08,716.68,Single-ply,SBD,M
Boys,99.79,10,Calan Johnson,Cedar Hill,98.07,272.16,181.44,249.48,703.07,Single-ply,SBD,M
Boys,99.79,11,Dekota Newson,Marshall,97.89,288.03,147.42,254.01,689.46,Single-ply,SBD,M
Boys,99.79,12,Julio Rivas,San Benito,96.71,258.55,154.22,263.08,675.85,Single-ply,SBD,M
Boys,99.79,13,Michael Hodges,Conroe The Woodlands,96.25,260.82,170.1,242.67,673.58,Single-ply,SBD,M
Boys,99.79,14,Ethan Martin,Kyle Lehman,91.53,244.94,142.88,272.16,659.98,Single-ply,SBD,M
Boys,99.79,15,Luis Garcia #2,College Station A&M Cons,94.08,254.01,151.95,226.8,632.76,Single-ply,SBD,M
Boys,99.79,16,Isaiah Hinton,Lewisville The Colony,97.16,251.74,145.15,233.6,630.49,Single-ply,SBD,M
Boys,99.79,17,Rene Zavala,Waxahachie,97.98,249.48,154.22,217.72,621.42,Single-ply,SBD,M
Boys,99.79,18,Kenderick Hunter,Abilene,90.54,219.99,120.2,217.72,557.92,Single-ply,SBD,M
Boys,99.79,19,Stetson Casey,Wolfforth Frenship,93.8,206.38,127.01,217.72,551.11,Single-ply,SBD,M
Boys,99.79,DQ,Axel DeLeon,Little Elm,98.34,272.16,149.69,,,Single-ply,SBD,M
Boys,99.79,DQ,Josh Gutierrez,Magnolia West,99.16,,,,,Single-ply,SBD,M
Boys,109.77,1,Eddie Calico,Longview Pine Tree,107.23,312.98,213.19,294.84,821,Single-ply,SBD,M
Boys,109.77,2,Bridge Blount,Huntsville,108.14,306.17,192.78,299.37,798.32,Single-ply,SBD,M
Boys,109.77,3,Pj Hall,Seguin,109.32,306.17,158.76,290.3,755.23,Single-ply,SBD,M
Boys,109.77,4,Lorenzo Castaneda,Dickinson,109.04,294.84,174.63,274.42,743.89,Single-ply,SBD,M
Boys,109.77,5,Angelo Samarripa,Plainview,105.51,290.3,195.04,244.94,730.28,Single-ply,SBD,M
Boys,109.77,6,Greg Garrett,Waco Midway,106.96,278.96,195.04,240.4,714.41,Single-ply,SBD,M
Boys,109.77,7,Jesus Vallejo,Weslaco East,107.14,281.23,185.97,240.4,707.6,Single-ply,SBD,M
Boys,109.77,8,Clayton McGilvray,Justin Northwest,103.87,272.16,163.29,263.08,698.53,Single-ply,SBD,M
Boys,109.77,9,Victor Martinez,Laredo Martin,108.95,290.3,181.44,226.8,698.53,Single-ply,SBD,M
Boys,109.77,10,Damion Foster,Royse City,109.04,281.23,151.95,265.35,698.53,Single-ply,SBD,M
Boys,109.77,11,Christian Garcia,Weslaco East,103.87,276.69,161.03,240.4,678.12,Single-ply,SBD,M
Boys,109.77,12,Harley Vickers,Alice,107.86,278.96,181.44,217.72,678.12,Single-ply,SBD,M
Boys,109.77,13,Chris McCumber,San Antonio East Central,108.77,269.89,181.44,226.8,678.12,Single-ply,SBD,M
Boys,109.77,14,Aaron Allen #2,San Angelo Lake View,101.42,260.82,127.01,278.96,666.78,Single-ply,SBD,M
Boys,109.77,15,Connor Counce,Denison,108.05,272.16,136.08,249.48,657.71,Single-ply,SBD,M
Boys,109.77,16,Avrelio Garcia,Lockhart,108.95,256.28,151.95,249.48,657.71,Single-ply,SBD,M
Boys,109.77,DQ,Michael Rodriguez #4,Kingsville King,106.59,260.82,,,,Single-ply,SBD,M
Boys,109.77,DQ,Allan Harris,Beaumont Central,108.05,,,,,Single-ply,SBD,M
Boys,124.74,1,Alex Fritz,Haltom City Haltom,121.2,340.19,226.8,278.96,845.95,Single-ply,SBD,M
Boys,124.74,2,Carlos Cuellar,Weslaco East,119.66,342.46,213.19,260.82,816.47,Single-ply,SBD,M
Boys,124.74,3,Pedro Lozano,San Benito,123.38,301.64,183.7,276.69,762.04,Single-ply,SBD,M
Boys,124.74,4,Roy Valdez,Los Fresnos,116.75,308.44,176.9,272.16,757.5,Single-ply,SBD,M
Boys,124.74,5,Albert Willingham,Fort Worth Western Hills,118.75,290.3,235.87,224.53,750.7,Single-ply,SBD,M
Boys,124.74,6,Clayton Anderson,Elgin,111.86,281.23,188.24,256.28,725.75,Single-ply,SBD,M
Boys,124.74,7,Donovan Webb,Longview,120.47,326.59,167.83,231.33,725.75,Single-ply,SBD,M
Boys,124.74,8,Ray Sedwick,Lockhart,124.56,290.3,163.29,258.55,712.14,Single-ply,SBD,M
Boys,124.74,9,Eddie Lopez,San Antonio East Central,120.84,303.91,156.49,249.48,709.87,Single-ply,SBD,M
Boys,124.74,10,Michael Cadena,Bryan,121.38,292.57,167.83,249.48,709.87,Single-ply,SBD,M
Boys,124.74,11,Jerome Daniels,Little Elm,123.56,290.3,167.83,244.94,703.07,Single-ply,SBD,M
Boys,124.74,12,Jake Holliman,Rockwall-Heath,116.3,276.69,163.29,256.28,696.26,Single-ply,SBD,M
Boys,124.74,13,Matt Oubre,Dayton,122.11,272.16,165.56,238.14,675.85,Single-ply,SBD,M
Boys,124.74,14,Raymond Madrigal,Freeport Brazosport,122.74,260.82,181.44,226.8,669.05,Single-ply,SBD,M
Boys,124.74,15,Justin Lewis,Texarkana Texas,120.93,276.69,154.22,235.87,666.78,Single-ply,SBD,M
Boys,124.74,16,Travis Stubblefield,Justin Northwest,115.58,272.16,163.29,226.8,662.24,Single-ply,SBD,M
Boys,124.74,17,Eric Villegas,Midland,110.77,249.48,147.42,235.87,632.76,Single-ply,SBD,M
Boys,124.74,DQ,Brandon Wright,Midland,113.94,,,,,Single-ply,SBD,M
Boys,124.74,DQ,John Rodriguez,Edcouch-Elsa,121.74,256.28,167.83,,,Single-ply,SBD,M
Boys,124.74,DQ,Andrew Cape,Weatherford,123.74,312.98,,,,Single-ply,SBD,M
Boys,124.74+,1,Andrew Billings #1,Waco,138.44,317.51,213.19,294.84,825.54,Single-ply,SBD,M
Boys,124.74+,2,Ben Hughes,Waco University,141.34,308.44,174.63,301.64,784.71,Single-ply,SBD,M
Boys,124.74+,3,Tim Jenkins,Dickinson,131.18,317.51,181.44,272.16,771.11,Single-ply,SBD,M
Boys,124.74+,4,Nick Sunday,Waco,178.9,322.05,179.17,242.67,743.89,Single-ply,SBD,M
Boys,124.74+,5,Mike Benavides,San Benito,160.12,312.98,188.24,231.33,732.55,Single-ply,SBD,M
Boys,124.74+,6,Adam Aleman,Beeville Jones,152.5,326.59,165.56,226.8,718.94,Single-ply,SBD,M
Boys,124.74+,7,Jimmy Miller,Mansfield Summit,199.58,276.69,145.15,258.55,680.39,Single-ply,SBD,M
Boys,124.74+,8,Jensen Jackson,Marshall,131.45,258.55,181.44,213.19,653.17,Single-ply,SBD,M
Boys,124.74+,9,Mike Green,Abilene Cooper,158.85,263.08,145.15,242.67,650.91,Single-ply,SBD,M
Boys,124.74+,DQ,Aderius Epps,Cedar Hill,150.23,,,,,Single-ply,SBD,M
Boys,124.74+,DQ,Travis Romero,Manvel,153.4,,,,,Single-ply,SBD,M
Boys,124.74+,DQ,Joshua Byrd,Marshall,141.07,317.51,142.88,,,Single-ply,SBD,M
Boys,124.74+,DQ,James Martinez,Midland,134.72,260.82,,,,Single-ply,SBD,M
