Division,WeightClassKg,Place,Name,Team,BodyweightKg,Best3SquatKg,Best3BenchKg,Best3DeadliftKg,TotalKg,Equipment,Event,Sex
Boys,51.71,1,Jason Ayers,Lampasas,51.44,140.61,79.38,174.63,394.63,Single-ply,SBD,M
Boys,51.71,2,Preston Fox,Lampasas,47.63,102.06,61.23,115.67,278.96,Single-ply,SBD,M
Boys,51.71,3,Zachary Young,Marble Falls,49.9,81.65,34.02,86.18,201.85,Single-ply,SBD,M
Boys,51.71,DQ,Brian Elliston,Brady,51.26,,,,,Single-ply,SBD,M
Boys,51.71,DQ,Marshall Schmitz,Brownwood,36.74,74.84,,,,Single-ply,SBD,M
Boys,55.79,1,Marlwin Perez,Brownwood,54.43,158.76,81.65,158.76,399.16,Single-ply,SBD,M
Boys,55.79,2,Jake Burkhalter,Burnet,55.34,113.4,58.97,136.08,308.44,Single-ply,SBD,M
Boys,55.79,3,Damian Willborn,Ballinger,54.43,102.06,58.97,127.01,288.03,Single-ply,SBD,M
Boys,59.87,1,Dalton Dewveall,Llano,58.97,170.1,90.72,179.17,439.98,Single-ply,SBD,M
Boys,59.87,2,Anthony Montes,Lampasas,58.97,147.42,102.06,167.83,417.3,Single-ply,SBD,M
Boys,59.87,3,Dakota Cavozos,Lampasas,59.51,147.42,97.52,163.29,408.23,Single-ply,SBD,M
Boys,59.87,4,Quint Pincelli,Llano,59.42,138.35,81.65,156.49,376.48,Single-ply,SBD,M
Boys,59.87,5,Dakota Willis,Brownwood,58.97,142.88,72.57,136.08,351.53,Single-ply,SBD,M
Boys,59.87,6,Drake Martinez,Junction,58.51,136.08,86.18,127.01,349.27,Single-ply,SBD,M
Boys,59.87,7,Ryan Jackson,Burnet,58.97,136.08,72.57,131.54,340.19,Single-ply,SBD,M
Boys,59.87,8,Chayton Gray,Brady,59.78,120.2,58.97,138.35,317.51,Single-ply,SBD,M
Boys,59.87,DQ,Luis Morales,San Angelo Central,58.51,165.56,86.18,,,Single-ply,SBD,M
Boys,67.13,1,John Heflin,Llano,66.68,174.63,99.79,181.44,455.86,Single-ply,SBD,M
Boys,67.13,2,Parker Plumley,Junction,66.22,163.29,111.13,179.17,453.59,Single-ply,SBD,M
Boys,67.13,3,Jacob Delafuenta,Brady,64.77,170.1,95.25,176.9,442.25,Single-ply,SBD,M
Boys,67.13,4,Kasey Sisson,Bangs,66.22,163.29,97.52,165.56,426.38,Single-ply,SBD,M
Boys,67.13,5,Brent Greenwood,Llano,64.86,163.29,102.06,156.49,421.84,Single-ply,SBD,M
Boys,67.13,6,Ethan Oakes,Lampasas,64.05,151.95,102.06,158.76,412.77,Single-ply,SBD,M
Boys,67.13,7,Dylan Bryant,Brady,66.5,158.76,83.91,151.95,394.63,Single-ply,SBD,M
Boys,67.13,8,Daniel Rosales,San Saba,61.23,133.81,88.45,167.83,390.09,Single-ply,SBD,M
Boys,67.13,9,Eloy Castillo,Brownwood,65.77,131.54,79.38,165.56,376.48,Single-ply,SBD,M
Boys,67.13,10,Colin McBurnett,Burnet,63.5,136.08,68.04,156.49,360.61,Single-ply,SBD,M
Boys,67.13,11,Chase Keilers,Early,66.68,142.88,70.31,142.88,356.07,Single-ply,SBD,M
Boys,67.13,12,Alvaro Villarreal,Brownwood,60.78,131.54,72.57,131.54,335.66,Single-ply,SBD,M
Boys,67.13,13,Dalton Scafe,Bangs,64.14,99.79,56.7,117.93,274.42,Single-ply,SBD,M
Boys,67.13,14,Ashton Belk,Ballinger,61.23,92.99,56.7,113.4,263.08,Single-ply,SBD,M
Boys,67.13,DQ,Anthony Larrea,Early,62.14,136.08,,,,Single-ply,SBD,M
Boys,67.13,DQ,Omar Duarte,San Angelo Central,64.41,,,,,Single-ply,SBD,M
Boys,74.84,1,Christian Rodriquez,Llano,74.39,222.26,129.27,210.92,562.45,Single-ply,SBD,M
Boys,74.84,2,Grant Mitchell,Early,73.94,174.63,115.67,204.12,494.42,Single-ply,SBD,M
Boys,74.84,3,Mario Martinez,San Angelo Central,72.57,181.44,113.4,181.44,476.27,Single-ply,SBD,M
Boys,74.84,4,Adrian Pena,Ballinger,71.21,174.63,108.86,183.7,467.2,Single-ply,SBD,M
Boys,74.84,5,Danny Perez,Junction,69.4,172.37,111.13,181.44,464.93,Single-ply,SBD,M
Boys,74.84,6,Nolan Keller,Llano,73.94,167.83,104.33,181.44,453.59,Single-ply,SBD,M
Boys,74.84,7,Xavier Armenta,Brownwood,74.84,165.56,95.25,185.97,446.79,Single-ply,SBD,M
Boys,74.84,8,Hayden Turner,Early,69.85,163.29,95.25,183.7,442.25,Single-ply,SBD,M
Boys,74.84,9,Evan Gravell,Bangs,69.85,147.42,111.13,167.83,426.38,Single-ply,SBD,M
Boys,74.84,10,Jim Fowler,Early,73.48,163.29,97.52,163.29,424.11,Single-ply,SBD,M
Boys,74.84,11,Weston Hill,Junction,73.03,149.69,102.06,154.22,405.97,Single-ply,SBD,M
Boys,74.84,12,Mason Flippin,Early,69.85,154.22,90.72,156.49,401.43,Single-ply,SBD,M
Boys,74.84,13,Gabriel Molina,Junction,69.85,127.01,102.06,154.22,383.29,Single-ply,SBD,M
Boys,74.84,14,Bailey Leach,Llano,73.94,136.08,77.11,142.88,356.07,Single-ply,SBD,M
Boys,74.84,15,Brian Morales,Cross Plains,69.4,131.54,72.57,142.88,347,Single-ply,SBD,M
Boys,74.84,16,Jason Stark,Llano,73.94,124.74,70.31,136.08,331.12,Single-ply,SBD,M
Boys,74.84,DQ,Mason Greenwood,Llano,73.48,197.31,111.13,,,Single-ply,SBD,M
Boys,74.84,DQ,Tristen Cannedy,Llano,72.57,,,,,Single-ply,SBD,M
Boys,74.84,DQ,Michael Cornish,Lampasas,71.21,156.49,,,,Single-ply,SBD,M
Boys,74.84,DQ,Brendon Camp,Coleman,71.67,142.88,72.57,,,Single-ply,SBD,M
Boys,74.84,DQ,Clayton Bertrand,Brownwood,69.85,,,,,Single-ply,SBD,M
Boys,82.1,1,Imanol Martinez,Brady,79.83,206.38,102.06,208.65,517.1,Single-ply,SBD,M
Boys,82.1,2,Michael Nguyen,Lampasas,78.93,195.04,97.52,210.92,503.49,Single-ply,SBD,M
Boys,82.1,3,Logan Thomas,Early,76.66,188.24,122.47,190.51,501.22,Single-ply,SBD,M
Boys,82.1,4,Joe Torres #6,Brady,81.87,197.31,117.93,172.37,487.61,Single-ply,SBD,M
Boys,82.1,5,Aubrey Bucholz,Brady,80.92,165.56,104.33,181.44,451.32,Single-ply,SBD,M
Boys,82.1,6,Austin Sansing,Lampasas,81.65,163.29,104.33,176.9,444.52,Single-ply,SBD,M
Boys,82.1,7,Gabe Torres,Marble Falls,75.3,158.76,97.52,170.1,426.38,Single-ply,SBD,M
Boys,82.1,8,Dakota Pratt,Burnet,78.93,158.76,95.25,163.29,417.3,Single-ply,SBD,M
Boys,82.1,9,Chase Clawson,Early,79.83,156.49,79.38,181.44,417.3,Single-ply,SBD,M
Boys,82.1,10,Massio Sanchez,Coleman,77.56,167.83,81.65,161.03,410.5,Single-ply,SBD,M
Boys,82.1,11,Hunter Wheeler,Ballinger,82.1,158.76,90.72,161.03,410.5,Single-ply,SBD,M
Boys,82.1,12,Jeffrey Atkison,Burnet,81.19,131.54,77.11,142.88,351.53,Single-ply,SBD,M
Boys,82.1,13,Josh Petty,Llano,78.47,122.47,81.65,136.08,340.19,Single-ply,SBD,M
Boys,82.1,14,Caleb Ornales,Ballinger,76.2,138.35,68.04,127.01,333.39,Single-ply,SBD,M
Boys,82.1,DQ,Eric Diehl,Early,76.2,,,,,Single-ply,SBD,M
Boys,82.1,DQ,Hunter Lawrence,Bangs,78.02,151.95,,,,Single-ply,SBD,M
Boys,82.1,DQ,Dylan Sewell,Bangs,76.48,,,,,Single-ply,SBD,M
Boys,89.81,1,Zachary Gartman,Cross Plains,88.9,240.4,117.93,217.72,576.06,Single-ply,SBD,M
Boys,89.81,2,Jace Hankins,Lampasas,84.37,206.38,133.81,226.8,566.99,Single-ply,SBD,M
Boys,89.81,3,Dalton Gilliam,Cross Plains,88,213.19,127.01,219.99,560.19,Single-ply,SBD,M
Boys,89.81,4,Austin Davis,Burnet,88,192.78,104.33,204.12,501.22,Single-ply,SBD,M
Boys,89.81,5,Cameron Geiger,San Angelo Central,84.37,174.63,115.67,201.85,492.15,Single-ply,SBD,M
Boys,89.81,6,Gavin Jefferson,Brownwood,85.73,195.04,99.79,192.78,487.61,Single-ply,SBD,M
Boys,89.81,7,John Daniel Lopez,San Angelo Central,88.45,185.97,108.86,190.51,485.34,Single-ply,SBD,M
Boys,89.81,8,Carson Benedict,Brownwood,88.45,181.44,108.86,192.78,483.08,Single-ply,SBD,M
Boys,89.81,9,Nain Martinez,Cross Plains,88.9,199.58,120.2,158.76,478.54,Single-ply,SBD,M
Boys,89.81,10,Daven Manning,San Angelo Central,88,158.76,113.4,170.1,442.25,Single-ply,SBD,M
Boys,89.81,11,Daniel Sparks,Marble Falls,89.36,167.83,90.72,181.44,439.98,Single-ply,SBD,M
Boys,89.81,12,Tyler Lindell,Llano,89.36,129.27,77.11,136.08,342.46,Single-ply,SBD,M
Boys,89.81,DQ,Aaron Willis,Cross Plains,88.9,204.12,102.06,,,Single-ply,SBD,M
Boys,89.81,DQ,Micah Trull,Brady,82.55,181.44,,,,Single-ply,SBD,M
Boys,89.81,DQ,Brandon Lancaster,Ballinger,86.64,158.76,,,,Single-ply,SBD,M
Boys,99.79,1,Weston Bauer,Brady,97.52,210.92,161.03,226.8,598.74,Single-ply,SBD,M
Boys,99.79,2,Javier Hernandez,Brady,98.88,213.19,138.35,233.6,585.13,Single-ply,SBD,M
Boys,99.79,3,Peyton Menchaca,San Angelo Central,93.89,199.58,108.86,190.51,498.95,Single-ply,SBD,M
Boys,99.79,4,Jordan Monroy,Llano,96.16,183.7,115.67,163.29,462.66,Single-ply,SBD,M
Boys,99.79,5,Brady Herbst,Junction,93.44,158.76,95.25,145.15,399.16,Single-ply,SBD,M
Boys,99.79,6,Adolph Medina,Ballinger,93.89,147.42,90.72,158.76,396.89,Single-ply,SBD,M
Boys,99.79,7,Billy Gruben,Bangs,98.43,136.08,81.65,142.88,360.61,Single-ply,SBD,M
Boys,99.79,DQ,Preston Reeves,Burnet,97.52,,,,,Single-ply,SBD,M
Boys,99.79,DQ,Roger Craig,Burnet,96.16,181.44,,,,Single-ply,SBD,M
Boys,99.79,DQ,Alex Low #2,Coleman,91.17,117.93,,,,Single-ply,SBD,M
Boys,99.79,DQ,James Rhyue,Cross Plains,99.79,,,,,Single-ply,SBD,M
Boys,99.79,DQ,Caden Carrizales,Brady,90.26,,,,,Single-ply,SBD,M
Boys,99.79,DQ,Noah Von Benzerath,Lampasas,96.16,,,,,Single-ply,SBD,M
Boys,99.79,DQ,Hunter Stelly,San Angelo Central,97.98,,,,,Single-ply,SBD,M
Boys,99.79,DQ,Nick Gonzalez,San Angelo Central,97.07,217.72,124.74,,,Single-ply,SBD,M
Boys,109.77,1,Dakoda Trull,Llano,105.69,249.48,133.81,226.8,610.08,Single-ply,SBD,M
Boys,109.77,2,Eric Yescas,Lampasas,109.32,213.19,122.47,190.51,526.17,Single-ply,SBD,M
Boys,109.77,3,Rudy Cruz,Marble Falls,103.42,204.12,102.06,204.12,510.29,Single-ply,SBD,M
Boys,109.77,4,Divad Brioues,Ballinger,107.05,181.44,138.35,165.56,485.34,Single-ply,SBD,M
Boys,109.77,5,Frankie Guttierez,Burnet,101.15,176.9,99.79,176.9,453.59,Single-ply,SBD,M
Boys,109.77,6,Luke Williams,Llano,106.14,181.44,95.25,156.49,433.18,Single-ply,SBD,M
Boys,109.77,7,Dax Simon,Junction,108.86,167.83,104.33,149.69,421.84,Single-ply,SBD,M
Boys,109.77,DQ,Caul Smith,Lampasas,105.69,,,,,Single-ply,SBD,M
Boys,109.77,DQ,Michael Rodriguez #5,Burnet,101.6,165.56,,,,Single-ply,SBD,M
Boys,109.77,DQ,Chris Rangel,Brownwood,107.05,210.92,,,,Single-ply,SBD,M
Boys,109.77,DQ,Jaxon Tucker,Brady,104.33,,,,,Single-ply,SBD,M
Boys,124.74,1,Hayden Day,Brownwood,118.39,249.48,142.88,260.82,653.17,Single-ply,SBD,M
Boys,124.74,2,Donnie Bowers,San Angelo Central,119.75,258.55,131.54,217.72,607.81,Single-ply,SBD,M
Boys,124.74,3,Jace King,Ballinger,119.75,242.67,131.54,210.92,585.13,Single-ply,SBD,M
Boys,124.74,4,Diesel Ceresini,Early,123.83,213.19,111.13,195.04,519.36,Single-ply,SBD,M
Boys,124.74,5,Malik Smith,San Angelo Central,122.02,188.24,122.47,185.97,496.68,Single-ply,SBD,M
Boys,124.74,6,Jacob Scott,Burnet,116.57,192.78,102.06,190.51,485.34,Single-ply,SBD,M
Boys,124.74,7,Dylan Robles,Coleman,115.67,192.78,108.86,181.44,483.08,Single-ply,SBD,M
Boys,124.74,8,Shawn Uvalle,Lampasas,121.56,188.24,115.67,176.9,480.81,Single-ply,SBD,M
Boys,124.74,9,Aaron Kohutek,Marble Falls,122.02,158.76,111.13,181.44,451.32,Single-ply,SBD,M
Boys,124.74,10,Miguel Rios,Marble Falls,110.22,151.95,92.99,142.88,387.82,Single-ply,SBD,M
Boys,124.74+,1,Kelton Parson,Bangs,144.97,244.94,154.22,204.12,603.28,Single-ply,SBD,M
Boys,124.74+,2,Colton Center,Llano,132.9,226.8,131.54,231.33,589.67,Single-ply,SBD,M
Boys,124.74+,3,Desmond Salamanca,San Angelo Central,130.18,210.92,140.61,224.53,576.06,Single-ply,SBD,M
Boys,124.74+,4,Connor Murphy,Early,142.43,226.8,115.67,190.51,532.97,Single-ply,SBD,M
Boys,124.74+,5,Taydon Benson,Coleman,177.81,213.19,102.06,176.9,492.15,Single-ply,SBD,M
Boys,124.74+,DQ,Martin Wright,Junction,132.9,195.04,122.47,,,Single-ply,SBD,M
Boys,124.74+,DQ,Chris Nix,Lampasas,132.45,,,,,Single-ply,SBD,M
Boys,124.74+,DQ,Matt Ontiveroz,San Angelo Central,170.1,,,,,Single-ply,SBD,M
Boys,124.74+,DQ,Sergio Rivero,San Angelo Central,135.17,240.4,,,,Single-ply,SBD,M
Boys,124.74+,DQ,Cedric Smith,San Angelo Central,133.81,267.62,,,,Single-ply,SBD,M
