Place,WeightClassKg,Name,State,Sex,BodyweightKg,Squat4Kg,Best3SquatKg,Bench4Kg,Best3BenchKg,Deadlift4Kg,Best3DeadliftKg,TotalKg,Division,Event,Equipment
1,110,Robert McKinzie,KY,M,109.09,,235,,200,-262.5,252.5,687.5,m2,SBD,Single-ply
1,125,Brad Rich,MO,M,119.57,,,,230,,,230,p+f,B,Single-ply
1,125,Brad Rich,MO,M,119.57,,,,230,,,230,sm1,B,Single-ply
1,110,Nick Dwinell,OK,M,106.87,,,210,205,,,205,m3,B,Single-ply
1,110,Robert McKinzie,KY,M,109.09,,,,200,,,200,m2,B,Single-ply
1,100,Leon McLean,AR,M,97.39,,,,132.5,,,132.5,m4,B,Single-ply
1,125,Jerry Anderson,MO,M,110.77,,,,92.5,,,92.5,m4,B,Single-ply
1,75,Scott Vorhees,MO,M,73.62,,,,150,190,190,340,m1,BD,Raw
1,125,Nick Freitas,MO,M,114.76,,,,125,235,235,360,hs,BD,Raw
1,75,Jake Freitas,MO,M,71.76,,,,85,,142.5,227.5,hs,BD,Raw
1,56,Riley Blanchette,MO,M,54.2,,,,45,,85,130,nov,BD,Raw
DQ,110,Nick Dwinell,OK,M,106.87,,,,172.5,,,,bpm3,BD,Raw
DQ,82.5,Matt Deibert,IL,M,79.7,,,,122.5,,,,bpm1,BD,Raw
DQ,82.5,Matt Deibert,IL,M,79.7,,,,122.5,,,,bpnov,BD,Raw
DQ,125,Austin Williams,KS,M,110.63,,,,,,125,,dlhs,BD,Raw
1,75,Cynthia Morrison,AR,F,74.89,,115,,65,,162.5,342.5,wint,SBD,Raw
2,75,Natasha Batie,AR,F,73.26,,122.5,-73.5,70,,137.5,330,wint,SBD,Raw
1,82.5,Brooklyn Coach,KS,F,80.74,,67.5,,40,,102.5,210,whs,SBD,Raw
2,82.5,Libby Thomasson,KS,F,76.79,,67.5,,45,,70,182.5,whs,SBD,Raw
3,82.5,Kayla Baldwin,KS,F,75.61,,70,,35,,70,175,whs,SBD,Raw
1,140,Matthew Jones #6,KS,M,126.82,,,,195,,,195,bpmp,B,Raw
1,110,Nick Dwinell,OK,M,106.87,,,,172.5,,,172.5,bpm3,B,Raw
1,100,Leon McLean,AR,M,97.39,,,,132.5,,,132.5,bpm4,B,Raw
1,90,Nathan McLean,AR,M,88.99,,,,115,,,115,bpm1,B,Raw
1,82.5,Win Smith,MO,M,78.83,,,,87.5,,,87.5,bpm4,B,Raw
1,82.5,Win Smith,MO,M,78.83,,,,87.5,,,87.5,bppure,B,Raw
1,82.5,John Motazedi,MO,M,81.24,,,,77.5,,,77.5,bpnov,B,Raw
1,125,Nick Freitas,MO,M,114.76,197.5,187.5,,125,235,235,547.5,hs,SBD,Raw
2,125,Kenny Herrenbruck,KS,M,110.22,,165,,112.5,,170,447.5,hs,SBD,Raw
1,110,Matt Miles #2,KS,M,102.1,,135,,107.5,,182.5,425,hs,SBD,Raw
3,125,Tristian Bush,KS,M,114.44,,157.5,,90,,190,437.5,hs,SBD,Raw
1,100,A.J. Himes,KS,M,99.52,,160,,80,,170,410,hs,SBD,Raw
1,75,Narciso Ortiz,KS,M,73.07,,137.5,,85,,125,347.5,hs,SBD,Raw
1,60,Donavan Anderson,KS,M,56.47,,97.5,,57.5,,127.5,282.5,hs,SBD,Raw
4,125,Dawson Adams,KS,M,123.47,,160,,75,,175,410,hs,SBD,Raw
1,67.5,Spencer Barnard,KS,M,62.14,,97.5,,70,,115,282.5,hs,SBD,Raw
2,60,Tyler Price,KS,M,57.29,,87.5,,70,,102.5,260,hs,SBD,Raw
1,140,Justin Schneiders,KS,M,132.31,,137.5,,95,160,160,392.5,hs,SBD,Raw
2,110,Douglas Harper,KS,M,104.69,,110,,75,,160,345,hs,SBD,Raw
2,67.5,Jacob Burks,KS,M,66.54,,85,,57.5,,110,252.5,hs,SBD,Raw
2,100,Aleks Leon,KS,M,99.25,,110,,77.5,,115,302.5,hs,SBD,Raw
2,140,Jake Sheffer,KS,M,131.09,,120,,85,,137.5,342.5,hs,SBD,Raw
2,75,Cole Haider,KS,M,72.53,,67.5,,65,,90,222.5,hs,SBD,Raw
1,110,John Isenmann,MO,M,104.05,,295,,200,,295,790,p+f,SBD,Raw
1,110,Drew Mitchell,KS,M,105.19,-250,242.5,-162.5,157.5,,252.5,652.5,jr,SBD,Raw
1,82.5,Derek Durman,KS,M,81.28,,197.5,,130,225,225,552.5,sm2,SBD,Raw
1,90,Ken Smith #2,MO,M,84.41,,207.5,,132.5,,200,540,int,SBD,Raw
1,100,Ethan Rodgers,MO,M,97.43,,182.5,,155,,227.5,565,p+f,SBD,Raw
1,75,Scott Vorhees,MO,M,73.62,147.5,140,,150,190,190,480,m1,SBD,Raw
1,75,T.J. Williamson,AR,M,73.84,,175,,110,,192.5,477.5,jr,SBD,Raw
1,75,Kris Scheidt,MO,M,74.53,,177.5,,110,,187.5,475,sm2,SBD,Raw
1,90,Kobe Thomas,MO,M,88.77,,175,,102.5,212.5,212.5,490,teen,SBD,Raw
1,82.5,Tyler Burgess,KS,M,80.74,160,152.5,,110,205,192.5,455,int,SBD,Raw
2,90,Christian Gurubel,MO,M,89.13,,127.5,,125,,165,417.5,teen,SBD,Raw
1,75,Nathan Teeter,MO,M,71.35,,130,,90,147.5,147.5,367.5,teen,SBD,Raw
1,90,Melton Menjivar,AR,M,89.86,,,,152.5,,227.5,380,nov,BD,Raw
1,82.5,Derek Durman,KS,M,81.28,,,,130,225,225,355,sm2,BD,Raw
1,75,Kelly Thomas,MO,F,71.8,,,,50,135,135,185,wm1,BD,Raw
1,125,Nick Freitas,MO,M,114.76,,,,125,,,125,hs,B,Raw
1,75,Kelly Thomas,MO,F,71.8,,,,50,,,50,wm1,B,Raw
1,110,Robert McKinzie,KY,M,109.09,,,,200,-262.5,252.5,452.5,m2,BD,Single-ply
