Division,WeightClassKg,Place,Name,Team,BodyweightKg,Best3SquatKg,Best3BenchKg,Best3DeadliftKg,TotalKg,Equipment,Event,Sex
Freshmen,51.71,1,Jerry Alaniz,Laredo Alexander,51.62,90.72,70.31,102.06,263.08,Single-ply,SBD,M
Freshmen,51.71,2,Rodolfo Davila,Laredo United,49.99,83.91,47.63,113.4,244.94,Single-ply,SBD,M
Freshmen,51.71,3,Eli Torres,Laredo Nixon,43.45,88.45,43.09,104.33,235.87,Single-ply,SBD,M
Freshmen,55.79,1,Ricky Fonseca,Laredo United,53.16,131.54,65.77,136.08,333.39,Single-ply,SBD,M
Freshmen,55.79,2,Cesar Alfaro,Laredo United South,55.7,106.59,61.23,124.74,292.57,Single-ply,SBD,M
Freshmen,55.79,3,Arturo Escoto,Roma,54.88,92.99,56.7,111.13,260.82,Single-ply,SBD,M
Freshmen,55.79,4,Victor Garza,Laredo Nixon,54.25,79.38,54.43,111.13,244.94,Single-ply,SBD,M
Freshmen,55.79,5,Javier Garza,Bruni,55.7,74.84,58.97,99.79,233.6,Single-ply,SBD,M
Freshmen,59.87,1,Luis Castillo,Laredo United South,59.69,147.42,95.25,142.88,385.55,Single-ply,SBD,M
Freshmen,59.87,2,David Lopez,Laredo United South,58.51,124.74,92.99,124.74,342.46,Single-ply,SBD,M
Freshmen,59.87,3,Victor Lopez,Roma,58.69,115.67,61.23,124.74,301.64,Single-ply,SBD,M
Freshmen,59.87,4,Carlos Salinas,Roma,58.97,97.52,56.7,120.2,274.42,Single-ply,SBD,M
Freshmen,59.87,5,Ismael Madrigal,Laredo United South,58.42,90.72,52.16,127.01,269.89,Single-ply,SBD,M
Freshmen,59.87,6,Victor Segura,Laredo Nixon,58.97,102.06,54.43,108.86,265.35,Single-ply,SBD,M
Freshmen,59.87,7,Arnold Pineda,Laredo Johnson,58.42,90.72,56.7,115.67,263.08,Single-ply,SBD,M
Freshmen,59.87,DQ,Alan Navarro,Laredo United,59.87,106.59,,,,Single-ply,SBD,M
Freshmen,59.87,DQ,Allan Medina,San Antonio Memorial,59.42,117.93,,,,Single-ply,SBD,M
Freshmen,67.13,1,Jorge Silva,Laredo Nixon,66.32,117.93,72.57,156.49,347,Single-ply,SBD,M
Freshmen,67.13,2,Felipe Hernández #4,Laredo United South,64.05,117.93,72.57,129.27,319.78,Single-ply,SBD,M
Freshmen,67.13,3,Josue Valadez,Zapata,62.23,108.86,65.77,140.61,315.25,Single-ply,SBD,M
Freshmen,67.13,4,Peter Cavasos,Laredo Nixon,66.86,115.67,61.23,138.35,315.25,Single-ply,SBD,M
Freshmen,67.13,5,Josh Stich,Corpus Christi Tuloso-Midway,61.14,106.59,79.38,127.01,312.98,Single-ply,SBD,M
Freshmen,67.13,6,Brian Lopez,Laredo United South,62.05,90.72,61.23,127.01,278.96,Single-ply,SBD,M
Freshmen,67.13,7,Martin Benavides,Bruni,61.87,86.18,56.7,122.47,265.35,Single-ply,SBD,M
Freshmen,67.13,8,Victor Alvarez,San Antonio Memorial,66.22,83.91,52.16,122.47,258.55,Single-ply,SBD,M
Freshmen,67.13,DQ,Raul Meza,Laredo Alexander,66.04,102.06,,,,Single-ply,SBD,M
Freshmen,74.84,1,Austin Lofthouse,Corpus Christi Tuloso-Midway,70.58,147.42,90.72,174.63,412.77,Single-ply,SBD,M
Freshmen,74.84,2,Abram Guerra,Rio Grande City,72.03,149.69,92.99,151.95,394.63,Single-ply,SBD,M
Freshmen,74.84,3,Quintin Baria,Corpus Christi Tuloso-Midway,71.85,138.35,83.91,136.08,358.34,Single-ply,SBD,M
Freshmen,74.84,4,Armin Solis,Rio Grande City,70.22,136.08,86.18,124.74,347,Single-ply,SBD,M
Freshmen,74.84,5,Arturo Delgado,Laredo United,70.85,138.35,72.57,136.08,347,Single-ply,SBD,M
Freshmen,74.84,6,Roger Moreno,Laredo United,69.67,115.67,58.97,147.42,322.05,Single-ply,SBD,M
Freshmen,74.84,7,Erasmo Canales,Rio Grande City,73.03,122.47,81.65,113.4,317.51,Single-ply,SBD,M
Freshmen,74.84,8,Jesus Sanchez,San Antonio Memorial,74.39,122.47,63.5,122.47,308.44,Single-ply,SBD,M
Freshmen,74.84,9,Pedro Garcia,Corpus Christi Tuloso-Midway,74.66,113.4,70.31,113.4,297.1,Single-ply,SBD,M
Freshmen,74.84,10,Braden Garcia,Laredo Nixon,74.84,90.72,63.5,129.27,283.5,Single-ply,SBD,M
Freshmen,74.84,11,Joshua Garcia,San Antonio Memorial,73.94,97.52,49.9,102.06,249.48,Single-ply,SBD,M
Freshmen,74.84,DQ,Francisco Mireles,Laredo Alexander,73.66,81.65,92.99,,,Single-ply,SBD,M
Freshmen,74.84,DQ,Justin Tijerina,Laredo Alexander,70.76,102.06,77.11,,,Single-ply,SBD,M
Freshmen,74.84,DQ,Jesus Lopez,Zapata,74.03,,,,,Single-ply,SBD,M
Freshmen,82.1,1,Jose Herrera,Laredo United,80.1,163.29,70.31,181.44,415.04,Single-ply,SBD,M
Freshmen,82.1,2,Oscar Mohamed,Laredo United,79.74,117.93,90.72,158.76,367.41,Single-ply,SBD,M
Freshmen,82.1,3,Julio Cruz,Bruni,75.57,120.2,63.5,136.08,319.78,Single-ply,SBD,M
Freshmen,89.81,1,Fernando Flores,Corpus Christi Tuloso-Midway,85.28,147.42,97.52,183.7,428.64,Single-ply,SBD,M
Freshmen,89.81,2,Robert Rodriguez,Laredo Nixon,84.55,142.88,102.06,163.29,408.23,Single-ply,SBD,M
Freshmen,89.81,3,David Cruz,Zapata,89.81,138.35,72.57,140.61,351.53,Single-ply,SBD,M
Freshmen,89.81,4,Maglin Blanco,Laredo Johnson,82.74,102.06,72.57,147.42,322.05,Single-ply,SBD,M
Freshmen,89.81,5,George Rodriguez,Laredo Alexander,85.73,104.33,77.11,,181.44,Single-ply,SB,M
Freshmen,89.81,6,Eloy Sauceda,Laredo Alexander,87.36,97.52,77.11,,174.63,Single-ply,SB,M
Freshmen,89.81,DQ,Aaron Castillo,Laredo Johnson,82.64,,,,,Single-ply,SB,M
Freshmen,99.79,DQ,Edgar Martinez #1,Laredo United South,89.99,120.2,,,,Single-ply,SB,M
Freshmen,99.79,1,Erick Fernandez,Laredo Nixon,98.43,179.17,115.67,197.31,492.15,Single-ply,SBD,M
Freshmen,99.79,2,Christian Rosas,Laredo Alexander,96.34,140.61,90.72,179.17,410.5,Single-ply,SBD,M
Freshmen,99.79,3,Mateo Villarreal,Laredo Nixon,97.52,142.88,65.77,181.44,390.09,Single-ply,SBD,M
Freshmen,99.79,4,Nick Vasquez,Corpus Christi Tuloso-Midway,97.52,149.69,88.45,142.88,381.02,Single-ply,SBD,M
Freshmen,99.79,5,Oscar Nava,Roma,97.79,149.69,81.65,133.81,365.14,Single-ply,SBD,M
Freshmen,99.79,6,Dennis Cruz,Zapata,90.26,92.99,52.16,117.93,263.08,Single-ply,SBD,M
Freshmen,109.77,1,Omar Ramirez,Roma,100.97,188.24,97.52,197.31,483.08,Single-ply,SBD,M
Freshmen,109.77,2,Rick Martinez,Laredo United,105.14,210.92,106.59,158.76,476.27,Single-ply,SBD,M
Freshmen,109.77,3,Matt Watson #4,Corpus Christi Tuloso-Midway,106.41,170.1,124.74,176.9,471.74,Single-ply,SBD,M
Freshmen,109.77,4,Aaron Tijerina,Laredo United,102.51,145.15,70.31,142.88,358.34,Single-ply,SBD,M
Freshmen,109.77,5,Francisco Villarreal,Laredo Martin,106.05,120.2,83.91,151.95,356.07,Single-ply,SBD,M
Freshmen,124.74,6,Luciano Chavez,Laredo Nixon,109.86,92.99,65.77,136.08,294.84,Single-ply,SBD,M
Freshmen,109.77,DQ,Ivan Dominguez,Laredo United South,106.96,113.4,,,,Single-ply,SBD,M
Freshmen,124.74,1,Eluid Aguero,Laredo Alexander,120.93,204.12,113.4,213.19,530.7,Single-ply,SBD,M
Freshmen,124.74,2,Juan Moreno,Roma,121.93,154.22,90.72,151.95,396.89,Single-ply,SBD,M
Freshmen,124.74,3,Alexis Madrigal,Laredo United,123.47,136.08,95.25,142.88,374.21,Single-ply,SBD,M
Freshmen,124.74,4,Jesus Lopez,Laredo Johnson,113.76,124.74,81.65,136.08,342.46,Single-ply,SBD,M
Freshmen,124.74,5,Chris Lira,Bruni,118.84,127.01,70.31,115.67,312.98,Single-ply,SBD,M
Freshmen,124.74+,1,Gerardo Urdiales,Laredo Nixon,126.37,151.95,74.84,149.69,376.48,Single-ply,SBD,M
Freshmen,124.74+,2,Jacob Chapa,Bruni,128.28,147.42,77.11,131.54,356.07,Single-ply,SBD,M
Freshmen,124.74+,3,John Bernal,Laredo United South,133.08,142.88,61.23,145.15,349.27,Single-ply,SBD,M
Freshmen,124.74+,4,Daniel Valdillez,San Antonio Memorial,131.54,115.67,58.97,136.08,310.71,Single-ply,SBD,M
Boys,51.71,1,Robert Barajas,Laredo Martin,51.71,165.56,77.11,188.24,430.91,Single-ply,SBD,M
Boys,51.71,2,Rafael Morales,Laredo Cigarroa,51.35,136.08,83.91,149.69,369.68,Single-ply,SBD,M
Boys,51.71,3,Diego Pena,Roma,50.62,131.54,74.84,138.35,344.73,Single-ply,SBD,M
Boys,51.71,4,Martin Villareal,Laredo United South,51.71,136.08,65.77,142.88,344.73,Single-ply,SBD,M
Boys,51.71,5,Robert Ramos,Corpus Christi Tuloso-Midway,48.35,111.13,54.43,106.59,272.16,Single-ply,SBD,M
Boys,51.71,6,Jesus Ramirez,Zapata,44.36,70.31,45.36,95.25,210.92,Single-ply,SBD,M
Boys,55.79,1,Enrique Alvarez,Laredo Cigarroa,53.34,176.9,102.06,181.44,460.4,Single-ply,SBD,M
Boys,55.79,2,Enrique Gonzalez,Roma,54.34,133.81,92.99,179.17,405.97,Single-ply,SBD,M
Boys,55.79,3,Michael Sauceda,Laredo United,52.25,142.88,74.84,154.22,371.95,Single-ply,SBD,M
Boys,59.87,4,Saul Elizondo,Rio Grande City,55.97,136.08,63.5,142.88,342.46,Single-ply,SBD,M
Boys,55.79,5,Felipe Medina,Zapata,55.25,124.74,65.77,140.61,331.12,Single-ply,SBD,M
Boys,55.79,6,Alexis Flores #4,Laredo Alexander,54.25,113.4,79.38,129.27,322.05,Single-ply,SBD,M
Boys,55.79,DQ,Carlos Vedarte,Laredo United South,55.79,117.93,68.04,133.81,,Single-ply,SBD,M
Boys,67.13,1,Aj Dovalina,Laredo Alexander,60.06,170.1,92.99,181.44,444.52,Single-ply,SBD,M
Boys,59.87,2,Edgar Martinez #4,Laredo Cigarroa,59.15,158.76,92.99,185.97,437.72,Single-ply,SBD,M
Boys,59.87,3,Eduardo Porras,Roma,57.7,151.95,99.79,179.17,430.91,Single-ply,SBD,M
Boys,59.87,4,Marcos Ortiz,Laredo Alexander,59.33,147.42,108.86,161.03,417.3,Single-ply,SBD,M
Boys,59.87,5,Amado De La Fuente,Laredo United South,58.79,147.42,90.72,167.83,405.97,Single-ply,SBD,M
Boys,59.87,6,Leo Ibarra,Laredo Johnson,58.06,142.88,97.52,145.15,385.55,Single-ply,SBD,M
Boys,59.87,7,Matt Buentello,Corpus Christi Tuloso-Midway,59.78,136.08,72.57,158.76,367.41,Single-ply,SBD,M
Boys,59.87,8,Ricardo Garcia,Rio Grande City,57.33,136.08,72.57,149.69,358.34,Single-ply,SBD,M
Boys,59.87,9,Josh Romero,Laredo Alexander,59.78,129.27,81.65,147.42,358.34,Single-ply,SBD,M
Boys,59.87,10,Yoni Portillo,Laredo Nixon,59.78,122.47,72.57,138.35,333.39,Single-ply,SBD,M
Boys,67.13,11,Nigel Carednas,San Antonio Memorial,59.92,106.59,61.23,115.67,283.5,Single-ply,SBD,M
Boys,59.87,DQ,Steven Moreno,Laredo United,59.87,122.47,63.5,151.95,,Single-ply,SBD,M
Boys,59.87,DQ,Alex Cruz,San Antonio Memorial,59.42,102.06,,,,Single-ply,SBD,M
Boys,67.13,1,Ruben Salinas,Roma,65.86,192.78,117.93,183.7,494.42,Single-ply,SBD,M
Boys,67.13,2,Pedro Vargas,Roma,65.95,179.17,102.06,181.44,462.66,Single-ply,SBD,M
Boys,74.84,3,Felipe Gonzalez,Roma,67.22,161.03,104.33,181.44,446.79,Single-ply,SBD,M
Boys,67.13,4,Frank Rubaclava,Laredo Cigarroa,65.86,165.56,104.33,165.56,435.45,Single-ply,SBD,M
Boys,67.13,5,Vinny Flores,Zapata,63.23,142.88,108.86,181.44,433.18,Single-ply,SBD,M
Boys,67.13,6,William Valdez,Rio Grande City,64.41,151.95,122.47,156.49,430.91,Single-ply,SBD,M
Boys,67.13,7,Danny Granados,Laredo Nixon,66.68,156.49,68.04,167.83,392.36,Single-ply,SBD,M
Boys,67.13,8,Alfonso Flores,Laredo Martin,64.77,140.61,72.57,170.1,383.29,Single-ply,SBD,M
Boys,67.13,9,Angel Espinosa,Laredo Cigarroa,62.32,142.88,68.04,158.76,369.68,Single-ply,SBD,M
Boys,67.13,10,Alex Villarreal,Laredo Nixon,66.22,129.27,83.91,151.95,365.14,Single-ply,SBD,M
Boys,67.13,DQ,Jose Gonzalez #19,Laredo Cigarroa,64.59,,,,,Single-ply,SBD,M
Boys,67.13,DQ,David Trinidad,Laredo United South,66.41,151.95,95.25,165.56,,Single-ply,SBD,M
Boys,74.84,DQ,Edward Hernandez,San Antonio Memorial,67.22,136.08,,,,Single-ply,SBD,M
Boys,67.13,DQ,Chris Chan,Laredo United,61.33,129.27,,,,Single-ply,SBD,M
Boys,82.1,1,Cesar Castillo,Laredo United South,74.93,210.92,129.27,215.46,555.65,Single-ply,SBD,M
Boys,74.84,2,Danny Flores,Zapata,71.4,197.31,106.59,210.92,514.83,Single-ply,SBD,M
Boys,74.84,3,Andy Mohl,Corpus Christi Tuloso-Midway,71.3,192.78,124.74,188.24,505.76,Single-ply,SBD,M
Boys,74.84,4,Edward Salinas,Laredo Cigarroa,71.35,183.7,111.13,190.51,485.34,Single-ply,SBD,M
Boys,74.84,5,Alfredo Castillo,Zapata,73.94,167.83,111.13,181.44,460.4,Single-ply,SBD,M
Boys,74.84,6,Oscar Cabello,Laredo Alexander,71.3,151.95,108.86,174.63,435.45,Single-ply,SBD,M
Boys,74.84,7,Carlos Ramirez #5,Laredo Alexander,70.94,151.95,106.59,172.37,430.91,Single-ply,SBD,M
Boys,74.84,8,Alex Salinas,Laredo United,73.48,165.56,92.99,165.56,424.11,Single-ply,SBD,M
Boys,74.84,9,Cruz Garica,Roma,72.76,170.1,92.99,151.95,415.04,Single-ply,SBD,M
Boys,74.84,10,Justin Guerra,Rio Grande City,73.75,167.83,99.79,136.08,403.7,Single-ply,SBD,M
Boys,74.84,11,David Garza,Laredo Johnson,70.49,145.15,79.38,145.15,369.68,Single-ply,SBD,M
Boys,74.84,12,Ruben Bernal,San Antonio Memorial,74.84,136.08,86.18,138.35,360.61,Single-ply,SBD,M
Boys,74.84,DQ,Jesus Cruz,Roma,73.3,151.95,102.06,174.63,,Single-ply,SBD,M
Boys,74.84,DQ,Eliezer Gomez,Laredo United South,68.13,151.95,106.59,158.76,,Single-ply,SBD,M
Boys,74.84,DQ,Gerry Rodriguez,Laredo Nixon,74.84,176.9,90.72,,,Single-ply,SBD,M
Boys,74.84,DQ,Daniel Wells,Laredo Nixon,74.39,176.9,,,,Single-ply,SBD,M
Boys,82.1,1,Danny Cruz,Donna,76.93,215.46,117.93,204.12,537.51,Single-ply,SBD,M
Boys,82.1,2,Ricardo Lopez,Rio Grande City,79.92,238.14,111.13,181.44,530.7,Single-ply,SBD,M
Boys,82.1,3,Andrew Benavides,Corpus Christi Tuloso-Midway,77.66,201.85,124.74,192.78,519.36,Single-ply,SBD,M
Boys,82.1,4,Jerry Tanguma,Rio Grande City,79.83,201.85,111.13,195.04,508.02,Single-ply,SBD,M
Boys,82.1,5,Ricky Martinez,Laredo Nixon,80.47,197.31,111.13,192.78,501.22,Single-ply,SBD,M
Boys,82.1,6,Jose de la Rosa,Roma,79.74,190.51,102.06,188.24,480.81,Single-ply,SBD,M
Boys,82.1,7,Alfredo Ibarra,Laredo United,79.74,199.58,86.18,179.17,464.93,Single-ply,SBD,M
Boys,82.1,8,Alex Hernandez #20,Zapata,78.2,167.83,115.67,170.1,453.59,Single-ply,SBD,M
Boys,82.1,9,Jorge Gonzalez #7,Laredo United South,81.83,174.63,95.25,183.7,453.59,Single-ply,SBD,M
Boys,82.1,10,Luis Villanueva,Laredo Alexander,78.47,151.95,95.25,154.22,401.43,Single-ply,SBD,M
Boys,82.1,11,Alfredo Mancias,Laredo United,79.47,142.88,104.33,151.95,399.16,Single-ply,SBD,M
Boys,82.1,12,Jesus Hernandez #2,San Antonio Memorial,81.65,151.95,88.45,142.88,383.29,Single-ply,SBD,M
Boys,82.1,13,Jacob Jaquez,San Antonio Memorial,81.74,131.54,102.06,136.08,369.68,Single-ply,SBD,M
Boys,82.1,14,Josephat Dominguez,Laredo United,80.92,129.27,79.38,156.49,365.14,Single-ply,SBD,M
Boys,89.81,15,Ebert Gaona,Donna,82.28,127.01,90.72,147.42,365.14,Single-ply,SBD,M
Boys,89.81,16,Abel Gonzalez,San Antonio Memorial,82.19,106.59,68.04,127.01,301.64,Single-ply,SBD,M
Boys,82.1,DQ,Jerry Ayala,Laredo Johnson,79.74,,,,,Single-ply,SBD,M
Boys,99.79,1,Alex Wheeler,Zapata,89.9,231.33,167.83,235.87,635.03,Single-ply,SBD,M
Boys,89.81,2,Chris Castillo,Corpus Christi Tuloso-Midway,87.72,190.51,113.4,208.65,512.56,Single-ply,SBD,M
Boys,99.79,3,Kevin Castro,Laredo Nixon,89.99,192.78,117.93,199.58,510.29,Single-ply,SBD,M
Boys,89.81,4,Rick Reyes,Laredo Alexander,89.36,170.1,113.4,208.65,492.15,Single-ply,SBD,M
Boys,89.81,5,Justin Fuentes,Zapata,87.36,190.51,120.2,172.37,483.08,Single-ply,SBD,M
Boys,89.81,6,Larry Banda,Laredo Nixon,85.37,170.1,113.4,181.44,464.93,Single-ply,SBD,M
Boys,89.81,7,Noe Ortega,Laredo United South,89.72,249.48,113.4,,362.87,Single-ply,SB,M
Boys,89.81,DQ,Ivan Paredes,Laredo United South,83.82,151.95,83.91,165.56,,Single-ply,SBD,M
Boys,89.81,DQ,Daniel Sánchez,Laredo United South,84.55,170.1,97.52,195.04,,Single-ply,SBD,M
Boys,89.81,DQ,Ely Guzman,Roma,86.55,142.88,102.06,172.37,,Single-ply,SBD,M
Boys,89.81,DQ,Hector Castillo,San Antonio Memorial,89.36,195.04,,,,Single-ply,SB,M
Boys,99.79,1,Andres Castellanos,Corpus Christi Tuloso-Midway,96.16,263.08,127.01,229.06,619.15,Single-ply,SBD,M
Boys,99.79,2,Jerry Nino,Laredo Martin,99.52,233.6,156.49,226.8,616.89,Single-ply,SBD,M
Boys,99.79,3,Ricky Lopez,Laredo United South,93.71,222.26,120.2,217.72,560.19,Single-ply,SBD,M
Boys,99.79,4,Ivan Pina,Roma,96.52,219.99,133.81,201.85,555.65,Single-ply,SBD,M
Boys,99.79,5,George Gonzalez,Laredo United South,92.9,224.53,102.06,226.8,553.38,Single-ply,SBD,M
Boys,99.79,6,Alonzo Villarreal,Laredo Alexander,96.71,183.7,102.06,197.31,483.08,Single-ply,SBD,M
Boys,99.79,7,Juan Garcia,Laredo Johnson,93.62,183.7,106.59,183.7,474,Single-ply,SBD,M
Boys,99.79,8,Victor Godines,Laredo Alexander,92.17,170.1,108.86,183.7,462.66,Single-ply,SBD,M
Boys,99.79,9,Carlos Muñoz,Laredo Nixon,94.35,167.83,86.18,197.31,451.32,Single-ply,SBD,M
Boys,99.79,10,Jorge Gutierrez,Zapata,98.34,154.22,120.2,174.63,449.06,Single-ply,SBD,M
Boys,99.79,11,Kevin Lujan,Laredo United,92.99,156.49,99.79,158.76,415.04,Single-ply,SBD,M
Boys,99.79,12,Ricky Sanchez,Laredo Johnson,92.53,147.42,104.33,154.22,405.97,Single-ply,SBD,M
Boys,99.79,13,Efrain Uvalle,Laredo Johnson,99.25,145.15,92.99,165.56,403.7,Single-ply,SBD,M
Boys,99.79,14,Eddie Alvarez,Laredo Martin,99.61,158.76,72.57,158.76,390.09,Single-ply,SBD,M
Boys,99.79,DQ,Isreal Hernandez,Laredo Johnson,90.63,136.08,83.91,154.22,,Single-ply,SBD,M
Boys,99.79,DQ,Joey Coreas,Laredo Cigarroa,93.98,,,,,Single-ply,SBD,M
Boys,109.77,1,Freddy Chavarria,Laredo Martin,106.68,263.08,156.49,217.72,637.3,Single-ply,SBD,M
Boys,109.77,2,Rafael Vasquez,Laredo United South,109.59,240.4,131.54,217.72,589.67,Single-ply,SBD,M
Boys,109.77,3,Eduardo Fraire,Donna,100.79,233.6,113.4,231.33,578.33,Single-ply,SBD,M
Boys,109.77,4,Sergio Guevara,Donna,104.69,224.53,133.81,219.99,578.33,Single-ply,SBD,M
Boys,109.77,5,Matt Salazar,Corpus Christi Tuloso-Midway,101.15,222.26,124.74,195.04,542.04,Single-ply,SBD,M
Boys,109.77,6,Raul Hinojosa,Zapata,105.96,199.58,124.74,213.19,537.51,Single-ply,SBD,M
Boys,109.77,7,Juan Saenz,Roma,107.68,231.33,111.13,192.78,535.24,Single-ply,SBD,M
Boys,109.77,8,Ricardo Aleman,San Antonio Memorial,100.24,190.51,124.74,190.51,505.76,Single-ply,SBD,M
Boys,109.77,9,Victor Martinez,Laredo Martin,109.59,204.12,106.59,188.24,498.95,Single-ply,SBD,M
Boys,109.77,10,Rogelio Camero,Laredo United South,101.7,215.46,88.45,190.51,494.42,Single-ply,SBD,M
Boys,124.74,11,Benji Mota,Laredo Alexander,109.86,172.37,102.06,206.38,480.81,Single-ply,SBD,M
Boys,109.77,12,Robert Carednas,Corpus Christi Tuloso-Midway,106.32,185.97,117.93,172.37,476.27,Single-ply,SBD,M
Boys,109.77,13,Antonio Saaverda,Laredo Johnson,102.33,138.35,99.79,136.08,374.21,Single-ply,SBD,M
Boys,109.77,DQ,Xavier Lopez,San Antonio Memorial,101.15,145.15,147.42,,,Single-ply,SBD,M
Boys,124.74,1,Jason Guerra,Rio Grande City,120.29,272.16,151.95,224.53,648.64,Single-ply,SBD,M
Boys,124.74,2,D'Marco Smith,Corpus Christi Tuloso-Midway,116.85,263.08,156.49,199.58,619.15,Single-ply,SBD,M
Boys,124.74,3,Adrian Trinidad,Laredo United South,113.85,206.38,117.93,226.8,551.11,Single-ply,SBD,M
Boys,124.74,4,Joel Sanchez #3,Rio Grande City,121.83,226.8,111.13,181.44,519.36,Single-ply,SBD,M
Boys,124.74,DQ,Eric Morales,Roma,120.02,174.63,106.59,210.92,,Single-ply,SBD,M
Boys,124.74+,1,Mando Salazar,Donna,125.28,272.16,172.37,222.26,666.78,Single-ply,SBD,M
Boys,124.74+,2,Carlos Gomez,Laredo Martin,126.73,213.19,142.88,208.65,564.72,Single-ply,SBD,M
Boys,124.74+,3,Adrian Cantu,Rio Grande City,154.86,240.4,117.93,190.51,548.85,Single-ply,SBD,M
Boys,124.74+,4,Rudy Martinez,Laredo Nixon,125.19,215.46,117.93,208.65,542.04,Single-ply,SBD,M
Boys,124.74+,5,Alex Cruz,Laredo Nixon,125.19,229.06,99.79,204.12,532.97,Single-ply,SBD,M
Boys,124.74+,6,Edward Garza,Laredo Johnson,144.24,199.58,122.47,183.7,505.76,Single-ply,SBD,M
Boys,124.74+,7,Benito Vega,Laredo United South,130.36,204.12,90.72,199.58,494.42,Single-ply,SBD,M
Boys,124.74+,8,Alex Hernandez #18,Laredo Johnson,134.72,183.7,106.59,167.83,458.13,Single-ply,SBD,M
Boys,124.74+,9,Arturo Velasquez,Roma,125.28,179.17,111.13,158.76,449.06,Single-ply,SBD,M
Boys,124.74+,10,JR Sandoval,Laredo United,129,192.78,86.18,158.76,437.72,Single-ply,SBD,M
Boys,124.74+,11,Gerardo Cadena,Laredo Cigarroa,165.47,145.15,81.65,142.88,369.68,Single-ply,SBD,M
Boys,124.74+,12,Samuel Alarcon,Laredo Johnson,171.73,142.88,72.57,104.33,319.78,Single-ply,SBD,M
