Sex,Name,BirthDate,Division,WeightClassKg,Equipment,Country,Squat1Kg,Squat2Kg,Squat3Kg,Squat4Kg,Best3SquatKg,Bench1Kg,Bench2Kg,Bench3Kg,Bench4Kg,Best3BenchKg,Deadlift1Kg,Deadlift2Kg,Deadlift3Kg,Deadlift4Kg,Best3DeadliftKg,TotalKg,Place,Event
M,Alexander Koch,1967-03-27,Masters 50-54,90,Wraps,Germany,-150,150,170,,170,110,-120,-120,,110,160,180,200,-212.5,200,480,1,SBD
M,Alexander Wolf,1995-07-04,Open,82.5,Wraps,Germany,140,-155,160,,160,,,,,,,,,,,160,1,S
M,Andreas Schmid,1969-03-16,Masters 50-54,82.5,Wraps,Austria,110,117.5,125,,125,100,-110,-115,,100,150,160,-170,,160,385,1,SBD
M,Andreas Zuther,1958-11-08,Masters 60-64,100,Raw,Germany,,,,,,125,135,140,145,140,,,,,,140,1,B
F,Anne Hoffmans,1988-03-21,Open,56,Wraps,Netherlands,90,95,98.5,,98.5,47.5,52.5,55.5,-56,55.5,105,107.5,108.5,110,108.5,262.5,1,SBD
M,Anton Schnurrer,1957-01-14,Masters 60-64,75,Raw,Austria,,,,,,,,,,,165,175,-185,,175,175,1,D
M,Axel Gersdorf,1951-04-07,Masters 65-69,100,Single-ply,Germany,,,,,,135,-140,140,,140,,,,,,140,1,B
M,Axel Gersdorf,1951-04-07,Masters 65-69,100,Raw,Germany,,,,,,120,125,130.5,-135.5,130.5,,,,,,130.5,1,B
M,Bastiaan De Vries,1979-01-08,Masters 40-44,100,Single-ply,Netherlands,,,,,,160,165,170,,170,,,,,,170,1,B
M,Bernd Beyer,1968-03-21,Masters 50-54,125,Wraps,Germany,120,125,130,,130,80,-85,,,80,120,130,,,130,340,1,SBD
F,Brigitte Maczka,1961-10-05,Masters 55-59,67.5,Raw,Germany,,,,,,,,,,,80,95,102.5,,102.5,102.5,1,D
F,Brigitte Maczka,1961-10-05,Masters 55-59,67.5,Single-ply,Germany,,,,,,30,35,-40,,35,,,,,,35,1,B
F,Brigitte Maczka,1961-10-05,Masters 55-59,67.5,Raw,Germany,,,,,,30,35,37.5,,37.5,,,,,,37.5,1,B
F,Brigitte Maczka,1961-10-05,Masters 55-59,67.5,Single-ply,Germany,,,,,,,,,,,80,90,100,,100,100,1,D
M,Calin Eschenasy,1955-12-15,Masters 60-64,75,Single-ply,Germany,150,-180,-200,,150,110,116,120,,120,190,-217.5,217.5,,217.5,487.5,1,SBD
M,Calin Eschenasy,1955-12-15,Masters 60-64,75,Wraps,Germany,150,-170,,,150,80,95,,,95,170,190,,,190,435,1,SBD
M,Dana Schulte,2001-04-11,Teen 15-19,90,Raw,Germany,,,,,,,,,,,130,140,151,-155,151,151,1,D
M,Dana Schulte,2001-04-11,Teen 15-19,90,Raw,Germany,,,,,,66,70,-75,,70,,,,,,70,1,B
M,Dana Schulte,2001-04-11,Teen 15-19,90,Wraps,Germany,112.5,117.5,124,,124,,,,,,,,,,,124,1,S
M,Dana Schulte,2001-04-11,Teen 15-19,90,Wraps,Germany,110,117.5,123.5,,123.5,66,70,72.5,75,72.5,125,132.5,141,,141,337,1,SBD
M,Daniel Hiller,1991-08-09,Open,110,Wraps,Germany,220,230,240,,240,130,145,-150,,145,260,280,-290,,280,665,1,SBD
M,Danilo Pufe,1976-08-28,Masters 40-44,110,Single-ply,Germany,,,,,,195,205,215,,215,,,,,,215,1,B
M,Dawit Worku,2000-06-20,Teen 15-19,125,Wraps,Germany,160,175,-190,,175,120,130,-132.5,,130,200,210,-215,,210,515,1,SBD
M,Dennis Wijnacker,1994-11-09,Open,82.5,Wraps,Netherlands,140,147.5,152.5,,152.5,95,102.5,105,,105,157.5,162.5,167.5,,167.5,425,1,SBD
M,Detlef Thiede,1960-10-25,Masters 55-59,90,Raw,Germany,,,,,,110,115,120,,120,,,,,,120,1,B
M,Dominik Grams,1993-10-26,Open,90,Wraps,Germany,170,185,195,-200,195,125,130,-140,,130,190,200,215,-220,215,540,1,SBD
M,Eberhard Pufe,1948-08-19,Masters 70-74,82.5,Single-ply,Germany,,,,,,110,-120,120,,120,,,,,,120,1,B
M,Gerhard Holleitner,1959-06-20,Masters 60-64,125,Raw,Austria,,,,,,,,,,,215,242.5,260,-300,260,260,1,D
M,Hakki Bozat,1960-10-20,Masters 55-59,75,Wraps,Turkey,-130,-130,-130,,,,,,,,,,,,,,DQ,SBD
M,Hartmut Ewert,1959-04-24,Masters 60-64,75,Raw,Germany,,,,,,60,80,100,105.5,100,,,,,,100,1,B
M,Heiner Schildbach,1943-02-20,Masters 75-79,100,Raw,Germany,,,,,,100,105,110,,110,,,,,,110,1,B
M,Heinz Bongard,1944-02-04,Masters 75-79,75,Raw,Germany,,,,,,95,100,-105,,100,,,,,,100,1,B
M,Helmut Nebelung,1944-01-19,Masters 75-79,82.5,Raw,Germany,,,,,,75,80,85,90,85,,,,,,85,1,B
M,Hubert Markwort,1951-08-22,Masters 65-69,90,Raw,Germany,,,,,,60,65,-70,,65,,,,,,65,1,B
M,Huisman Maikel,1971-08-30,Masters 45-49,100,Single-ply,Netherlands,-200,-210,210,,210,130,135,137.5,,137.5,200,-207.5,,,200,547.5,1,SBD
F,Iris Hooisma,1999-08-10,Juniors 20-23,90,Wraps,Netherlands,50,60,70,,70,50,55,-60,,55,80,90,95,,95,220,1,SBD
F,Ivonne Ludwig,1977-03-20,Masters 40-44,60,Raw,Germany,,,,,,57.5,60,62.5,,62.5,,,,,,62.5,1,B
M,Jens Barthel,,Open,100,Raw,Germany,,,,,,,,,,,,,,,,,DQ,D
M,Jens Barthel,,Open,100,Raw,Germany,,,,,,,,,,,,,,,,,DQ,B
M,Jens Barthel,,Open,100,Wraps,,,,,,,,,,,,,,,,,,DQ,SBD
M,Joachim Eulenstein,1947-05-03,Masters 70-74,100,Single-ply,Germany,,,,,,80,90,100,,100,,,,,,100,1,B
M,Joachim Eulenstein,1947-05-03,Masters 70-74,100,Raw,Germany,,,,,,80,90,105,,105,,,,,,105,1,B
M,Jörg Rödiger,1966-06-29,Masters 50-54,90,Wraps,Germany,-142.5,-142.5,162.5,,162.5,100,107.5,115,,115,132.5,142.5,152.5,,152.5,430,2,SBD
M,Juri Hochsetter,,Open,100,Raw,Germany,,,,,,,,,,,,,,,,,DQ,D
M,Kevin Strempel,1978-03-07,Masters 40-44,90,Raw,Germany,,,,,,,,,,,130,150,170,180,170,170,1,D
M,Kevin Strempel,1978-03-07,Masters 40-44,90,Raw,Germany,,,,,,120,130,140,145,140,,,,,,140,1,B
M,Mieczysłąw Maczka,1954-09-11,Masters 65-69,82.5,Raw,Germany,,,,,,,,,,,120,150,,,150,150,1,D
M,Mieczysłąw Maczka,1954-09-11,Masters 65-69,82.5,Single-ply,Germany,,,,,,100,-116,116,,116,,,,,,116,1,B
M,Mieczysłąw Maczka,1954-09-11,Masters 65-69,82.5,Raw,Germany,,,,,,100,110,112.5,,112.5,,,,,,112.5,1,B
M,Mieczysłąw Maczka,1954-09-11,Masters 65-69,82.5,Single-ply,Germany,110,140,,,140,,,,,,,,,,,140,1,S
M,Mieczysłąw Maczka,1954-09-11,Masters 65-69,82.5,Wraps,Germany,110,130,,,130,,,,,,,,,,,130,1,S
M,Mieczysłąw Maczka,1954-09-11,Masters 65-69,82.5,Single-ply,Germany,115,145,-155,,145,100,110,115,,115,120,150,-160,,150,410,1,SBD
M,Mieczysłąw Maczka,1954-09-11,Masters 65-69,82.5,Wraps,Germany,115,150,,,150,100,115,-120,,115,120,152.5,,,152.5,417.5,1,SBD
M,Mieczysłąw Maczka,1954-09-11,Masters 65-69,82.5,Single-ply,Germany,,,,,,,,,,,120,150,,,150,150,1,D
M,Paul Kraft,1973-12-03,Masters 45-49,82.5,Single-ply,Germany,,,,,,180,190,200.5,,200.5,,,,,,200.5,1,B
M,Peter Kotschenreuther,1963-12-30,Masters 55-59,100,Raw,Germany,,,,,,,,,,,200,212.5,-215,,212.5,212.5,1,D
M,Peter Kotschenreuther,1963-12-30,Masters 55-59,100,Wraps,Germany,145,150,152.5,,152.5,110,117.5,122.5,,122.5,195,-205,210,,210,485,1,SBD
M,Peter Schlegel,1963-02-16,Masters 55-59,100,Raw,Germany,,,,,,115,125,-130,,125,,,,,,125,2,B
M,Peter-Jens Protzmann,1967-07-06,Masters 50-54,140+,Raw,Germany,,,,,,170,177.5,185,,185,,,,,,185,1,B
M,René Falk,1970-08-10,Masters 45-49,125,Raw,Germany,,,,,,,,,,,285,300,-310,,300,300,1,D
M,René Falk,1970-08-10,Masters 45-49,125,Wraps,Germany,247,262.5,275,,275,,,,,,,,,,,275,1,S
M,René Seitz,1991-09-07,Open,100,Raw,Germany,,,,,,195,205,207.5,-212.5,207.5,,,,,,207.5,1,B
M,Robin Satkunaseelan,2001-02-13,Teen 15-19,125,Wraps,Germany,-160,-160,-160,,,,,,,,,,,,,,DQ,SBD
M,Serhat Balcik,2000-10-05,Teen 15-19,82.5,Wraps,Germany,120,130,135,,135,100,110,-115,,110,160,180,200,,200,445,1,SBD
M,Steffan van Dalen,1989-08-03,Open,100,Wraps,Netherlands,175,-180,-180,,175,150,157.5,-160,,157.5,185,195,-202.5,,195,527.5,1,SBD
M,Steffen Burkhard,1950-05-29,Masters 65-69,75,Single-ply,Germany,115,-125,,,115,,,,,,,,,,,115,1,S
M,Sven Gietz,1970-08-16,Masters 45-49,75,Raw,Germany,,,,,,102.5,107.5,112.5,,112.5,,,,,,112.5,1,B
M,Thorsten Ritter,1964-08-14,Masters 55-59,100,Raw,Germany,,,,,,135,145,-150,,145,,,,,,145,1,B
M,Ulrich Mielich,1939-11-29,Masters 75-79,75,Wraps,Germany,45,55,60,,60,47.5,52.5,57.5,,57.5,85,100,110,,110,227.5,1,SBD
F,Ursula Eulenstein,1949-08-08,Masters 70-74,82.5,Raw,Germany,,,,,,50,55,60,65,60,,,,,,60,1,B
