Division,WeightClassKg,Place,Name,Team,BodyweightKg,Best3SquatKg,Best3BenchKg,Best3DeadliftKg,TotalKg,Equipment,Event,Sex
Boys,51.71,1,Hutch Rabenhaldt,Marion,48.85,106.59,72.57,108.86,288.03,Single-ply,SBD,M
Boys,51.71,2,Adrian Narvaiz,Cotulla,50.21,97.52,61.23,127.01,285.76,Single-ply,SBD,M
Boys,51.71,3,Austin Hernandez,Cotulla,51.07,97.52,61.23,117.93,276.69,Single-ply,SBD,M
Boys,51.71,4,Gabe Gonzales,Blanco,49.67,88.45,47.63,102.06,238.14,Single-ply,SBD,M
Boys,51.71,5,Christian Salazar,San Antonio Kennedy,49.8,79.38,45.36,104.33,229.06,Single-ply,SBD,M
Boys,51.71,6,Wyatt Owens,Natalia,42.41,83.91,31.75,92.99,208.65,Single-ply,SBD,M
Boys,55.79,1,Scott Ramirez,Cotulla,55.43,127.01,86.18,154.22,367.41,Single-ply,SBD,M
Boys,55.79,2,Paul Herrera,Floresville,54.75,106.59,70.31,129.27,306.17,Single-ply,SBD,M
Boys,59.87,1,Manuel Padilla,Natalia,59.83,204.12,102.06,210.92,517.1,Single-ply,SBD,M
Boys,59.87,2,Sebastian Flores,Blanco,59.74,190.51,124.74,199.58,514.83,Single-ply,SBD,M
Boys,59.87,3,Matthew Hughes #1,Del Rio,59.6,163.29,106.59,174.63,444.52,Single-ply,SBD,M
Boys,59.87,4,Ryan Juarez,Natalia,59.65,165.56,88.45,181.44,435.45,Single-ply,SBD,M
Boys,59.87,5,Jacob Sarabia,San Antonio East Central,59.87,142.88,86.18,161.03,390.09,Single-ply,SBD,M
Boys,59.87,6,Evy Curiel,Natalia,59.87,145.15,77.11,154.22,376.48,Single-ply,SBD,M
Boys,59.87,7,Aaron Urrutia,Del Rio,59.38,113.4,86.18,151.95,351.53,Single-ply,SBD,M
Boys,59.87,8,Jerome Martinez,Cotulla,59.56,136.08,77.11,122.47,335.66,Single-ply,SBD,M
Boys,59.87,9,Ernest Garza,Knippa,59.83,115.67,68.04,122.47,306.17,Single-ply,SBD,M
Boys,59.87,10,Patrick Almond,Comal Canyon Lake,59.87,111.13,61.23,120.2,292.57,Single-ply,SBD,M
Boys,59.87,DQ,Ethan Bierschwale,San Antonio East Central,56.38,131.54,,,,Single-ply,SBD,M
Boys,67.13,1,Christian Flores,Blanco,64.46,190.51,102.06,190.51,483.08,Single-ply,SBD,M
Boys,67.13,2,Garrett McDonald,Jourdanton,66.81,210.92,88.45,179.17,478.54,Single-ply,SBD,M
Boys,67.13,3,Diego Zapata,Natalia,67,192.78,95.25,188.24,476.27,Single-ply,SBD,M
Boys,67.13,4,Juid Colchado,Cotulla,67,181.44,115.67,170.1,467.2,Single-ply,SBD,M
Boys,67.13,5,Taylor Cason,Cotulla,66.9,163.29,90.72,195.04,449.06,Single-ply,SBD,M
Boys,67.13,6,John Slaughter,Bandera,66.68,161.03,95.25,174.63,430.91,Single-ply,SBD,M
Boys,67.13,7,Saul Valadez,Natalia,63.59,181.44,79.38,163.29,424.11,Single-ply,SBD,M
Boys,67.13,8,Caleb Almond,Comal Canyon Lake,65.41,154.22,104.33,154.22,412.77,Single-ply,SBD,M
Boys,67.13,9,Brian Burns,Bandera,65.45,161.03,86.18,165.56,412.77,Single-ply,SBD,M
Boys,67.13,10,Eduardo Garcia-Ocampo,San Antonio East Central,63.28,136.08,81.65,158.76,376.48,Single-ply,SBD,M
Boys,67.13,11,Xavier Vasquez,Natalia,66.04,142.88,83.91,145.15,371.95,Single-ply,SBD,M
Boys,67.13,12,Hunter Young,Marion,65.14,129.27,74.84,158.76,362.87,Single-ply,SBD,M
Boys,67.13,13,Greg Flores,Cotulla,67.04,136.08,74.84,151.95,362.87,Single-ply,SBD,M
Boys,67.13,14,Isaac Rios,Natalia,67.04,124.74,77.11,156.49,358.34,Single-ply,SBD,M
Boys,67.13,15,Anatolio Ramirez,Cotulla,66.18,120.2,83.91,133.81,337.93,Single-ply,SBD,M
Boys,67.13,16,Cameron Kistner,Marion,63.46,138.35,56.7,136.08,331.12,Single-ply,SBD,M
Boys,67.13,17,Reese McDole,Natalia,67.04,124.74,86.18,120.2,331.12,Single-ply,SBD,M
Boys,67.13,18,Ismael Perez,San Antonio Kennedy,60.06,111.13,70.31,142.88,324.32,Single-ply,SBD,M
Boys,67.13,19,Larry Allen,Knippa,67.13,102.06,83.91,124.74,310.71,Single-ply,SBD,M
Boys,67.13,20,Derek Wytrek,Comal Canyon Lake,66.18,102.06,81.65,124.74,308.44,Single-ply,SBD,M
Boys,67.13,21,Francisco Hernandez,Cotulla,67.04,111.13,63.5,129.27,303.91,Single-ply,SBD,M
Boys,67.13,22,Diego Flores,Marion,67.13,113.4,56.7,117.93,288.03,Single-ply,SBD,M
Boys,67.13,23,Carson Hiebert,Knippa,62.41,104.33,61.23,115.67,281.23,Single-ply,SBD,M
Boys,74.84,1,Josh Herrera,Floresville,73.3,188.24,117.93,188.24,494.42,Single-ply,SBD,M
Boys,74.84,2,Seth Taggs,Floresville,71.26,172.37,106.59,183.7,462.66,Single-ply,SBD,M
Boys,74.84,3,Matthew Contreras,Natalia,70.67,176.9,90.72,183.7,451.32,Single-ply,SBD,M
Boys,74.84,4,Ray Rayos,Marion,72.26,138.35,90.72,181.44,410.5,Single-ply,SBD,M
Boys,74.84,5,Golderer Tillman,Marion,70.85,136.08,92.99,142.88,371.95,Single-ply,SBD,M
Boys,74.84,6,Colby Kennedy,Bandera,70.94,142.88,70.31,136.08,349.27,Single-ply,SBD,M
Boys,74.84,7,Ethan Whitehead,Knippa,73.21,79.38,68.04,127.01,274.42,Single-ply,SBD,M
Boys,74.84,8,Francisco Suttles,San Antonio Kennedy,70.81,81.65,74.84,97.52,254.01,Single-ply,SBD,M
Boys,74.84,DQ,Joel Mendez,Natalia,74.25,176.9,,,,Single-ply,SBD,M
Boys,82.1,1,Mario Sanchez,Blanco,78.7,199.58,124.74,185.97,510.29,Single-ply,SBD,M
Boys,82.1,2,Jordan Lara,Knippa,79.29,197.31,102.06,210.92,510.29,Single-ply,SBD,M
Boys,82.1,3,Joel Rios,Natalia,78.97,188.24,106.59,204.12,498.95,Single-ply,SBD,M
Boys,82.1,4,Jacob Ledesma,San Antonio East Central,76.48,188.24,106.59,195.04,489.88,Single-ply,SBD,M
Boys,82.1,5,Giovanni Mendez,Cotulla,80.74,192.78,124.74,172.37,489.88,Single-ply,SBD,M
Boys,82.1,6,Enrique Perez,San Antonio Kennedy,78.43,188.24,106.59,192.78,487.61,Single-ply,SBD,M
Boys,82.1,7,Nick Padilla,Del Rio,80.47,163.29,124.74,192.78,480.81,Single-ply,SBD,M
Boys,82.1,8,Felix Delgado,Jourdanton,75.11,192.78,108.86,167.83,469.47,Single-ply,SBD,M
Boys,82.1,9,Jacob Ruff,Comal Canyon Lake,77.88,158.76,99.79,201.85,460.4,Single-ply,SBD,M
Boys,82.1,10,Ricky Gonzalez,Del Rio,81.69,161.03,117.93,172.37,451.32,Single-ply,SBD,M
Boys,82.1,11,Manuel Ortiz,San Antonio Kennedy,78.65,154.22,102.06,192.78,449.06,Single-ply,SBD,M
Boys,82.1,12,Carlos Nandin,Del Rio,82.1,158.76,111.13,174.63,444.52,Single-ply,SBD,M
Boys,82.1,13,Javier Saucedo,Comal Canyon Lake,77.11,158.76,83.91,181.44,424.11,Single-ply,SBD,M
Boys,82.1,14,Eli Gonzalez,Cotulla,81.1,188.24,97.52,133.81,419.57,Single-ply,SBD,M
Boys,82.1,15,Joseph Sulaica,Del Rio,80.78,149.69,99.79,147.42,396.89,Single-ply,SBD,M
Boys,82.1,16,Alex Hardin,Comal Canyon Lake,76.57,142.88,95.25,156.49,394.63,Single-ply,SBD,M
Boys,82.1,17,Dustyne Fritz,Bandera,77.38,142.88,77.11,167.83,387.82,Single-ply,SBD,M
Boys,82.1,18,Nick Padron,San Antonio East Central,79.74,131.54,99.79,151.95,383.29,Single-ply,SBD,M
Boys,82.1,19,Victor Castaneda,Natalia,78.52,140.61,88.45,151.95,381.02,Single-ply,SBD,M
Boys,82.1,20,Ricky Rosales,Jourdanton,79.79,142.88,79.38,142.88,365.14,Single-ply,SBD,M
Boys,89.81,1,Alex Garza,Cotulla,89.36,229.06,124.74,219.99,573.79,Single-ply,SBD,M
Boys,89.81,2,Kyle Martinez,Blanco,87.14,229.06,136.08,195.04,560.19,Single-ply,SBD,M
Boys,89.81,3,Michael Martinez,Natalia,89.68,231.33,115.67,185.97,532.97,Single-ply,SBD,M
Boys,89.81,4,Elian Consuegra,Cotulla,87.41,197.31,142.88,183.7,523.9,Single-ply,SBD,M
Boys,89.81,5,Tucker Walters,Marion,84.32,190.51,111.13,219.99,521.63,Single-ply,SBD,M
Boys,89.81,6,Chris Beltran,San Antonio East Central,88.9,210.92,113.4,197.31,521.63,Single-ply,SBD,M
Boys,89.81,7,Chance Lamb,Natalia,88.95,188.24,113.4,217.72,519.36,Single-ply,SBD,M
Boys,89.81,8,Brandon Phipps,Blanco,89.81,181.44,129.27,188.24,498.95,Single-ply,SBD,M
Boys,89.81,9,Kyle Ferrell,Floresville,89.81,183.7,102.06,204.12,489.88,Single-ply,SBD,M
Boys,89.81,10,Eddie Bankston,San Antonio East Central,84.14,183.7,108.86,192.78,485.34,Single-ply,SBD,M
Boys,89.81,11,Eliaz Cruz,Bandera,88.41,172.37,106.59,158.76,437.72,Single-ply,SBD,M
Boys,89.81,12,Kaleb Roberts,Floresville,89.04,156.49,102.06,156.49,415.04,Single-ply,SBD,M
Boys,99.79,1,Francisco Duran,Marion,96.3,215.46,140.61,213.19,569.26,Single-ply,SBD,M
Boys,99.79,2,Justin Salazar,Cotulla,97.84,229.06,115.67,210.92,555.65,Single-ply,SBD,M
Boys,99.79,3,Logan Huereca,Jourdanton,92.67,206.38,133.81,195.04,535.24,Single-ply,SBD,M
Boys,99.79,4,Jeremiah Gomez,Natalia,98.38,188.24,122.47,208.65,519.36,Single-ply,SBD,M
Boys,99.79,5,Max Eguia,San Antonio Kennedy,99.02,188.24,136.08,192.78,517.1,Single-ply,SBD,M
Boys,99.79,6,Andrew Stillwell,Cotulla,91.26,217.72,122.47,172.37,512.56,Single-ply,SBD,M
Boys,99.79,7,Will Adams,Blanco,94.57,185.97,117.93,192.78,496.68,Single-ply,SBD,M
Boys,99.79,8,Braaden Hodge,Comal Canyon Lake,93.94,147.42,117.93,161.03,426.38,Single-ply,SBD,M
Boys,99.79,9,Sam Grodman,Bandera,91.4,154.22,92.99,156.49,403.7,Single-ply,SBD,M
Boys,99.79,10,Adam Andres,Knippa,98.7,142.88,95.25,147.42,385.55,Single-ply,SBD,M
Boys,99.79,11,Alex Martinez #10,Blanco,92.94,142.88,104.33,111.13,358.34,Single-ply,SBD,M
Boys,99.79,12,Manuel Arreola,San Antonio Kennedy,92.44,115.67,74.84,142.88,333.39,Single-ply,SBD,M
Boys,109.77,1,Uriel Arellano,Natalia,100.29,226.8,154.22,201.85,582.87,Single-ply,SBD,M
Boys,109.77,2,Josh Almond,Comal Canyon Lake,104.28,219.99,142.88,219.99,582.87,Single-ply,SBD,M
Boys,109.77,3,Rolando Pulido,Floresville,106.23,217.72,120.2,226.8,564.72,Single-ply,SBD,M
Boys,109.77,4,Chance Horton,Blanco,109.68,226.8,140.61,174.63,542.04,Single-ply,SBD,M
Boys,109.77,5,Zakary Widenor,Bandera,100.61,204.12,102.06,217.72,523.9,Single-ply,SBD,M
Boys,109.77,6,Mauricio Chavez,Floresville,103.01,197.31,120.2,199.58,517.1,Single-ply,SBD,M
Boys,109.77,7,Justin Beccera,San Antonio East Central,107.64,204.12,113.4,188.24,505.76,Single-ply,SBD,M
Boys,109.77,8,Paul Martinez,San Antonio East Central,103.42,172.37,74.84,183.7,430.91,Single-ply,SBD,M
Boys,109.77,9,Vincent Cruz,Natalia,105.23,181.44,79.38,161.03,421.84,Single-ply,SBD,M
Boys,109.77,10,Abraham Rosas,Del Rio,107.05,142.88,90.72,185.97,419.57,Single-ply,SBD,M
Boys,109.77,11,Francisco Hinojosa,Cotulla,104.37,136.08,90.72,142.88,369.68,Single-ply,SBD,M
Boys,124.74,1,Paul Billalobos,Natalia,122.61,272.16,133.81,206.38,612.35,Single-ply,SBD,M
Boys,124.74,2,Oscar Ramirez,Natalia,118.3,235.87,149.69,219.99,605.55,Single-ply,SBD,M
Boys,124.74,3,Donny Brown,Floresville,121.11,165.56,133.81,183.7,483.08,Single-ply,SBD,M
Boys,124.74,4,Ed Saldivar,Marion,124.42,142.88,106.59,183.7,433.18,Single-ply,SBD,M
Boys,124.74,5,Gabriel Aguirre,Del Rio,113.49,136.08,77.11,172.37,385.55,Single-ply,SBD,M
Boys,124.74+,1,Victor Cruz,Natalia,131.59,235.87,163.29,244.94,644.1,Single-ply,SBD,M
Boys,124.74+,2,Abee Hinojosa,Del Rio,136.03,244.94,131.54,208.65,585.13,Single-ply,SBD,M
Boys,124.74+,3,Enrique Paredes,Cotulla,196.9,206.38,158.76,210.92,576.06,Single-ply,SBD,M
Boys,124.74+,4,Andrew Romero,San Antonio Kennedy,128.55,224.53,165.56,183.7,573.79,Single-ply,SBD,M
Boys,124.74+,5,Pedro Castillo,Floresville,132.45,219.99,145.15,190.51,555.65,Single-ply,SBD,M
Boys,124.74+,6,Kevin Del Toro,San Antonio Kennedy,130.86,219.99,102.06,229.06,551.11,Single-ply,SBD,M
Boys,124.74+,7,Ronnie Galindo,Del Rio,136.44,190.51,111.13,183.7,485.34,Single-ply,SBD,M
Boys,124.74+,8,Gerry Gonzalez,Del Rio,127.37,170.1,104.33,195.04,469.47,Single-ply,SBD,M
Boys,124.74+,9,Adrian Gomez,Knippa,132.22,181.44,115.67,170.1,467.2,Single-ply,SBD,M
Boys,124.74+,10,Javier Lopez,Cotulla,137.48,192.78,97.52,163.29,453.59,Single-ply,SBD,M
Boys,124.74+,11,Christian Ramirez #2,Del Rio,138.07,149.69,117.93,172.37,439.98,Single-ply,SBD,M
