Division,WeightClassKg,Place,Name,Team,BodyweightKg,Best3SquatKg,Best3BenchKg,Best3DeadliftKg,TotalKg,Equipment,Event,Sex
Boys,51.71,1,Jonathon Luna,Tulia,51.71,115.67,79.38,142.88,337.93,Single-ply,SBD,M
Boys,51.71,2,Carlos Bravo,Olton,48.99,102.06,58.97,122.47,283.5,Single-ply,SBD,M
Boys,51.71,3,Matt Longoria,Tulia,51.71,106.59,56.7,120.2,283.5,Single-ply,SBD,M
Boys,51.71,4,Zack Tovar,Abernathy,51.26,104.33,72.57,104.33,281.23,Single-ply,SBD,M
Boys,51.71,5,Corey Chavira,Levelland,51.26,102.06,54.43,115.67,272.16,Single-ply,SBD,M
Boys,51.71,6,Arturo Aguillon,Bovina,49.44,95.25,54.43,117.93,267.62,Single-ply,SBD,M
Boys,51.71,7,Erli Rueda,Bovina,51.26,90.72,45.36,122.47,258.55,Single-ply,SBD,M
Boys,51.71,8,Jakob Williams,Childress,47.63,68.04,36.29,88.45,192.78,Single-ply,SBD,M
Boys,51.71,9,Fernando Corpus,Amarillo Highland Park,41.73,52.16,34.02,90.72,176.9,Single-ply,SBD,M
Boys,51.71,DQ,Jorge Guitron,Sudan,51.71,,,,,Single-ply,SBD,M
Boys,55.79,1,Troy Morales,Floydada,53.52,145.15,90.72,154.22,390.09,Single-ply,SBD,M
Boys,55.79,2,Andy Duarte,Bovina,55.79,142.88,81.65,149.69,374.21,Single-ply,SBD,M
Boys,55.79,3,Frankie Mendoza,Abernathy,54.88,97.52,74.84,138.35,310.71,Single-ply,SBD,M
Boys,55.79,4,Carson DeFever,Shallowater,54.43,104.33,74.84,129.27,308.44,Single-ply,SBD,M
Boys,55.79,5,Derrick Seibman,Childress,52.16,104.33,65.77,120.2,290.3,Single-ply,SBD,M
Boys,55.79,6,Trent Morgan,Amarillo Highland Park,55.34,102.06,61.23,124.74,288.03,Single-ply,SBD,M
Boys,55.79,7,Juan Pinela,Bovina,53.07,104.33,54.43,122.47,281.23,Single-ply,SBD,M
Boys,55.79,8,Jason Dowd,Amarillo Highland Park,54.43,63.5,68.04,113.4,244.94,Single-ply,SBD,M
Boys,59.87,1,Ben Alvarez,Floydada,59.87,151.95,102.06,174.63,428.64,Single-ply,SBD,M
Boys,59.87,2,Jonathan Valderas,Levelland,58.97,172.37,83.91,138.35,394.63,Single-ply,SBD,M
Boys,59.87,3,Carlos Sosa,Muleshoe,58.97,142.88,72.57,149.69,365.14,Single-ply,SBD,M
Boys,59.87,4,Gerardo Ortiz,Bovina,58.97,127.01,68.04,151.95,347,Single-ply,SBD,M
Boys,59.87,5,Ramiro Nicolas,Bovina,59.87,117.93,72.57,142.88,333.39,Single-ply,SBD,M
Boys,59.87,6,Jj Garcia,Tulia,58.51,115.67,74.84,138.35,328.85,Single-ply,SBD,M
Boys,59.87,7,Jordan Magers,Childress,58.97,111.13,81.65,133.81,326.59,Single-ply,SBD,M
Boys,59.87,8,Levi Wright,Slaton,58.06,127.01,68.04,122.47,317.51,Single-ply,SBD,M
Boys,59.87,9,Braden Aguirre,Childress,58.51,115.67,72.57,129.27,317.51,Single-ply,SBD,M
Boys,59.87,10,Cesar Medrano,Sudan,58.51,113.4,70.31,129.27,312.98,Single-ply,SBD,M
Boys,59.87,11,Eric Fira,Crosbyton,59.42,102.06,56.7,113.4,272.16,Single-ply,SBD,M
Boys,59.87,12,Anthony Pondo,Tulia,58.51,90.72,63.5,108.86,263.08,Single-ply,SBD,M
Boys,59.87,13,Shane Gentry,Crosbyton,58.97,95.25,47.63,102.06,244.94,Single-ply,SBD,M
Boys,59.87,14,Austin Price,Hale Center,57.15,61.23,43.09,111.13,215.46,Single-ply,SBD,M
Boys,59.87,DQ,Ken Crawford,Childress,59.87,,,,,Single-ply,SBD,M
Boys,59.87,DQ,Oscar Jasso,Bovina,59.87,,,,,Single-ply,SBD,M
Boys,59.87,DQ,Glen Egerton,Childress,59.87,,,,,Single-ply,SBD,M
Boys,59.87,DQ,Juan Pulga,Bovina,59.87,,,,,Single-ply,SBD,M
Boys,59.87,DQ,Edwin Espinosa,Slaton,59.87,,,,,Single-ply,SBD,M
Boys,67.13,1,Davy Salazar,Childress,65.77,151.95,113.4,179.17,444.52,Single-ply,SBD,M
Boys,67.13,2,Matthew Fennimore,Slaton,67.13,183.7,90.72,170.1,444.52,Single-ply,SBD,M
Boys,67.13,3,Chris Muniz,Levelland,63.5,154.22,86.18,170.1,410.5,Single-ply,SBD,M
Boys,67.13,4,Marco Terrones,Friona,63.5,149.69,90.72,163.29,403.7,Single-ply,SBD,M
Boys,67.13,5,Michael Pardo,Hale Center,64.41,131.54,95.25,156.49,383.29,Single-ply,SBD,M
Boys,67.13,6,Casey Redden,Hale Center,66.22,120.2,92.99,151.95,365.14,Single-ply,SBD,M
Boys,67.13,7,Levi Mills,Levelland,62.14,136.08,83.91,136.08,356.07,Single-ply,SBD,M
Boys,67.13,8,Matthew Guajardo,Levelland,64.86,122.47,88.45,142.88,353.8,Single-ply,SBD,M
Boys,67.13,9,Steven Smallwood,Levelland,62.6,129.27,86.18,129.27,344.73,Single-ply,SBD,M
Boys,67.13,10,Junior Baca,Muleshoe,61.69,131.54,72.57,136.08,340.19,Single-ply,SBD,M
Boys,67.13,11,Dex Baker,Sudan,63.96,115.67,61.23,136.08,312.98,Single-ply,SBD,M
Boys,67.13,12,Tim Barrientes,Tulia,63.96,102.06,70.31,138.35,310.71,Single-ply,SBD,M
Boys,67.13,13,Betio Champion,Abernathy,65.32,111.13,79.38,111.13,301.64,Single-ply,SBD,M
Boys,67.13,14,Angel Cantu,Levelland,63.5,102.06,74.84,108.86,285.76,Single-ply,SBD,M
Boys,67.13,15,Andres Vasquez,Levelland,62.6,108.86,58.97,108.86,276.69,Single-ply,SBD,M
Boys,67.13,16,Jorge Jaramillo,Bovina,64.86,90.72,70.31,111.13,272.16,Single-ply,SBD,M
Boys,67.13,17,Miguel Dominguez,Bovina,65.32,83.91,58.97,120.2,263.08,Single-ply,SBD,M
Boys,67.13,18,Robert Veraon,Crosbyton,63.5,115.67,52.16,92.99,260.82,Single-ply,SBD,M
Boys,67.13,19,Evan Shedd,Levelland,62.6,90.72,63.5,104.33,258.55,Single-ply,SBD,M
Boys,67.13,20,Jacob Buxton,Hale Center,64.41,79.38,56.7,106.59,242.67,Single-ply,SBD,M
Boys,67.13,DQ,Paul Barrientos,Hale Center,67.13,,,,,Single-ply,SBD,M
Boys,67.13,DQ,Zachary Gallaway,Hale Center,67.13,,,,,Single-ply,SBD,M
Boys,67.13,DQ,John Angel Yannis,Floydada,67.13,,,,,Single-ply,SBD,M
Boys,67.13,DQ,Oscar de Leon,Levelland,67.13,,,,,Single-ply,SBD,M
Boys,67.13,DQ,Charles Robertson,Crosbyton,67.13,,,,,Single-ply,SBD,M
Boys,67.13,DQ,Brien Berry,Crosbyton,67.13,,,,,Single-ply,SBD,M
Boys,67.13,DQ,Isaac Pierson,Abernathy,67.13,,,,,Single-ply,SBD,M
Boys,67.13,DQ,Nathan Guerra,Slaton,67.13,,,,,Single-ply,SBD,M
Boys,67.13,DQ,Zach Strickland,Shallowater,67.13,,,,,Single-ply,SBD,M
Boys,67.13,DQ,Koby Perez,Shallowater,67.13,,,,,Single-ply,SBD,M
Boys,67.13,DQ,Alberto Flores,Olton,63.96,161.03,97.52,,,Single-ply,SBD,M
Boys,67.13,DQ,Marq Burns,Amarillo Highland Park,65.77,,,,,Single-ply,SBD,M
Boys,74.84,1,Brendan Harris,Amarillo Highland Park,68.49,167.83,90.72,181.44,439.98,Single-ply,SBD,M
Boys,74.84,2,Luke Sherman,Lockney,73.94,154.22,102.06,167.83,424.11,Single-ply,SBD,M
Boys,74.84,3,Ceaser Aguirre,Amarillo Highland Park,74.84,172.37,88.45,158.76,419.57,Single-ply,SBD,M
Boys,74.84,4,Emilio Sandoval,Olton,71.67,147.42,92.99,174.63,415.04,Single-ply,SBD,M
Boys,74.84,5,Chris Taylor #11,Amarillo Highland Park,70.31,145.15,79.38,170.1,394.63,Single-ply,SBD,M
Boys,74.84,6,Phong Nguyen,Amarillo Highland Park,70.76,149.69,72.57,170.1,392.36,Single-ply,SBD,M
Boys,74.84,7,Uriel Delgado,Sudan,74.39,149.69,81.65,161.03,392.36,Single-ply,SBD,M
Boys,74.84,8,Matthew Race,Levelland,68.49,136.08,86.18,167.83,390.09,Single-ply,SBD,M
Boys,74.84,9,Lance Mullins,Amarillo Highland Park,71.67,136.08,72.57,176.9,385.55,Single-ply,SBD,M
Boys,74.84,10,Eric Waters,Abernathy,72.12,147.42,68.04,163.29,378.75,Single-ply,SBD,M
Boys,74.84,11,Abdiel Ramos,Bovina,72.12,140.61,74.84,158.76,374.21,Single-ply,SBD,M
Boys,74.84,12,Omar Ramos,Friona,70.31,140.61,90.72,136.08,367.41,Single-ply,SBD,M
Boys,74.84,13,Kennedy Prescott,Amarillo Highland Park,71.67,136.08,88.45,140.61,365.14,Single-ply,SBD,M
Boys,74.84,14,Brenner Fox,Crosbyton,69.4,145.15,88.45,129.27,362.87,Single-ply,SBD,M
Boys,74.84,15,Adrian Prieto,Friona,74.84,133.81,77.11,145.15,356.07,Single-ply,SBD,M
Boys,74.84,16,John Paul Acevedo,Hale Center,73.94,115.67,90.72,142.88,349.27,Single-ply,SBD,M
Boys,74.84,17,Matthew Ambriz,Muleshoe,70.76,124.74,70.31,145.15,340.19,Single-ply,SBD,M
Boys,74.84,18,Lonnie Ellifritz,Childress,74.84,127.01,86.18,127.01,340.19,Single-ply,SBD,M
Boys,74.84,19,Reymundo Salinas,Crosbyton,70.31,136.08,77.11,115.67,328.85,Single-ply,SBD,M
Boys,74.84,20,Mikal Miner,Hale Center,69.4,124.74,77.11,124.74,326.59,Single-ply,SBD,M
Boys,74.84,21,Kain Alexander,Levelland,71.21,124.74,74.84,117.93,317.51,Single-ply,SBD,M
Boys,74.84,22,Matt Gerber,Levelland,73.48,102.06,70.31,129.27,301.64,Single-ply,SBD,M
Boys,74.84,23,Marc Miner,Hale Center,71.67,102.06,70.31,111.13,283.5,Single-ply,SBD,M
Boys,74.84,24,James Hill,Tulia,74.84,70.31,47.63,92.99,210.92,Single-ply,SBD,M
Boys,74.84,DQ,Jake Bramlet,Lockney,74.84,,,,,Single-ply,SBD,M
Boys,74.84,DQ,Adrian Garcia,Levelland,74.84,,,,,Single-ply,SBD,M
Boys,74.84,DQ,Taylor Berry,Crosbyton,74.84,,,,,Single-ply,SBD,M
Boys,74.84,DQ,Julio Calderon,Crosbyton,74.84,,,,,Single-ply,SBD,M
Boys,74.84,DQ,Chris Guzman,Crosbyton,74.84,,,,,Single-ply,SBD,M
Boys,74.84,DQ,Jd Lopez,Childress,74.84,,,,,Single-ply,SBD,M
Boys,82.1,1,Jeremy Mandrel,Olton,81.19,181.44,99.79,190.51,471.74,Single-ply,SBD,M
Boys,82.1,2,Anthony Ortiz,Bovina,81.65,154.22,104.33,170.1,428.64,Single-ply,SBD,M
Boys,82.1,3,Christian Cantu,Olton,80.29,142.88,90.72,181.44,415.04,Single-ply,SBD,M
Boys,82.1,4,Nick Runkles,Levelland,78.93,154.22,90.72,158.76,403.7,Single-ply,SBD,M
Boys,82.1,5,Ricky Ramirez,Tulia,78.93,149.69,79.38,161.03,390.09,Single-ply,SBD,M
Boys,82.1,6,Arnoldo Santellano,Abernathy,77.56,138.35,83.91,161.03,383.29,Single-ply,SBD,M
Boys,82.1,7,Max Belyou,Hale Center,79.83,131.54,92.99,147.42,371.95,Single-ply,SBD,M
Boys,82.1,8,Kolton Pirkle,Shallowater,76.2,138.35,90.72,140.61,369.68,Single-ply,SBD,M
Boys,82.1,9,Angel Fierro,Levelland,81.19,136.08,90.72,142.88,369.68,Single-ply,SBD,M
Boys,82.1,10,Jose Trejo,Sudan,75.75,117.93,65.77,136.08,319.78,Single-ply,SBD,M
Boys,82.1,11,Damion Montes,Sudan,79.38,117.93,68.04,115.67,301.64,Single-ply,SBD,M
Boys,82.1,12,Tyler Perez,Levelland,78.93,108.86,68.04,122.47,299.37,Single-ply,SBD,M
Boys,82.1,13,Tanner Thompson,Childress,78.47,104.33,77.11,106.59,288.03,Single-ply,SBD,M
Boys,82.1,14,Alex Ovalle,Friona,78.02,115.67,52.16,117.93,285.76,Single-ply,SBD,M
Boys,82.1,15,Tanner Hastings,Levelland,76.66,70.31,54.43,102.06,226.8,Single-ply,SBD,M
Boys,82.1,DQ,Evaristo Rodriguez,Levelland,82.1,,,,,Single-ply,SBD,M
Boys,82.1,DQ,Michael Garcia,Friona,82.1,,,,,Single-ply,SBD,M
Boys,82.1,DQ,Rex Mathis,Floydada,82.1,,,,,Single-ply,SBD,M
Boys,82.1,DQ,Uriel Vargas,Hale Center,82.1,,,,,Single-ply,SBD,M
Boys,82.1,DQ,Joe Rojas,Childress,82.1,,,,,Single-ply,SBD,M
Boys,82.1,DQ,Edwin Delgado,Sudan,82.1,,,,,Single-ply,SBD,M
Boys,82.1,DQ,Victor Rios,Slaton,82.1,,,,,Single-ply,SBD,M
Boys,82.1,DQ,Landon Phelps,Shallowater,82.1,,,,,Single-ply,SBD,M
Boys,82.1,DQ,Arturo Mendez,Tulia,82.1,,,,,Single-ply,SBD,M
Boys,82.1,DQ,Jory Flores,Shallowater,82.1,,,,,Single-ply,SBD,M
Boys,89.81,1,Shaq Thompson,Lockney,83.01,192.78,145.15,197.31,535.24,Single-ply,SBD,M
Boys,89.81,2,Denver Morris,Childress,83.91,183.7,129.27,197.31,510.29,Single-ply,SBD,M
Boys,89.81,3,Kane Isaacks,Levelland,83.46,176.9,113.4,208.65,498.95,Single-ply,SBD,M
Boys,89.81,4,Royce Strader,Muleshoe,84.37,190.51,113.4,185.97,489.88,Single-ply,SBD,M
Boys,89.81,5,Rolando Perez,Bovina,88.9,154.22,113.4,158.76,426.38,Single-ply,SBD,M
Boys,89.81,6,Anthony Tapia,Friona,87.09,158.76,97.52,163.29,419.57,Single-ply,SBD,M
Boys,89.81,7,Austin Zandt,Crosbyton,83.91,163.29,83.91,163.29,410.5,Single-ply,SBD,M
Boys,89.81,8,Jerrardo Ruelas,Levelland,87.09,158.76,95.25,145.15,399.16,Single-ply,SBD,M
Boys,89.81,9,Alex Mejia,Bovina,87.54,136.08,97.52,158.76,392.36,Single-ply,SBD,M
Boys,89.81,10,Ty Lust,Abernathy,85.73,154.22,92.99,138.35,385.55,Single-ply,SBD,M
Boys,89.81,11,Daniel Soltero,Friona,83.01,140.61,90.72,151.95,383.29,Single-ply,SBD,M
Boys,89.81,12,Jesus Castaneda,Bovina,85.73,136.08,102.06,145.15,383.29,Single-ply,SBD,M
Boys,89.81,13,Carson Cleavinger,Levelland,83.46,158.76,90.72,131.54,381.02,Single-ply,SBD,M
Boys,89.81,14,Abel Palacios,Friona,84.82,142.88,72.57,161.03,376.48,Single-ply,SBD,M
Boys,89.81,15,Ryan Ramirez #4,Tulia,85.28,142.88,72.57,154.22,369.68,Single-ply,SBD,M
Boys,89.81,16,Zack McCoy,Childress,89.81,140.61,86.18,131.54,358.34,Single-ply,SBD,M
Boys,89.81,17,Collin Fulton,Lockney,87.54,104.33,83.91,151.95,340.19,Single-ply,SBD,M
Boys,89.81,18,Blake Cooper,Childress,85.28,138.35,70.31,129.27,337.93,Single-ply,SBD,M
Boys,89.81,19,Nathan Rodriguez,Levelland,83.91,120.2,79.38,124.74,324.32,Single-ply,SBD,M
Boys,89.81,20,Justin Curtis,Bovina,89.36,127.01,61.23,136.08,324.32,Single-ply,SBD,M
Boys,89.81,DQ,Aaron Rosas,Abernathy,89.81,,,,,Single-ply,SBD,M
Boys,99.79,1,Juan DeOchoa,Floydada,99.34,215.46,145.15,240.4,601.01,Single-ply,SBD,M
Boys,99.79,2,Levi Salinas,Slaton,99.34,226.8,133.81,215.46,576.06,Single-ply,SBD,M
Boys,99.79,3,Duncan Welch,Friona,91.63,183.7,145.15,208.65,537.51,Single-ply,SBD,M
Boys,99.79,4,Rj Gonzales,Abernathy,98.43,204.12,117.93,201.85,523.9,Single-ply,SBD,M
Boys,99.79,5,Leo Lucio,Muleshoe,97.52,176.9,117.93,210.92,505.76,Single-ply,SBD,M
Boys,99.79,6,Adrian Merino,Friona,95.25,192.78,120.2,183.7,496.68,Single-ply,SBD,M
Boys,99.79,7,Marcos Mercado,Lockney,91.63,172.37,113.4,176.9,462.66,Single-ply,SBD,M
Boys,99.79,8,Ryan Johnson #22,Muleshoe,91.63,176.9,104.33,167.83,449.06,Single-ply,SBD,M
Boys,99.79,9,Chris Thomas,Slaton,96.62,181.44,90.72,140.61,412.77,Single-ply,SBD,M
Boys,99.79,10,Cameron Cave,Amarillo Highland Park,97.52,163.29,90.72,158.76,412.77,Single-ply,SBD,M
Boys,99.79,11,Eddie Campos,Levelland,91.63,147.42,120.2,142.88,410.5,Single-ply,SBD,M
Boys,99.79,12,Isiah Hernandez,Abernathy,95.25,102.06,58.97,117.93,278.96,Single-ply,SBD,M
Boys,99.79,DQ,Mario Pineda,Amarillo Highland Park,99.79,,,,,Single-ply,SBD,M
Boys,99.79,DQ,Breck Hicks,Childress,99.79,,,,,Single-ply,SBD,M
Boys,99.79,DQ,Reese Webb,Shallowater,99.79,,,,,Single-ply,SBD,M
Boys,99.79,DQ,Omar Montez,Tulia,99.79,,,,,Single-ply,SBD,M
Boys,109.77,1,Trae Taylor,Levelland,100.24,242.67,142.88,213.19,598.74,Single-ply,SBD,M
Boys,109.77,2,Joseph DeOchoa,Floydada,105.23,226.8,124.74,215.46,566.99,Single-ply,SBD,M
Boys,109.77,3,Colter Peck,Slaton,108.41,170.1,113.4,188.24,471.74,Single-ply,SBD,M
Boys,109.77,4,Matt Knoll,Bovina,102.51,170.1,113.4,172.37,455.86,Single-ply,SBD,M
Boys,109.77,5,Stephen Wiggins,Shallowater,102.97,190.51,90.72,124.74,405.97,Single-ply,SBD,M
Boys,109.77,6,Aaron Castaneda,Bovina,102.06,163.29,88.45,145.15,396.89,Single-ply,SBD,M
Boys,109.77,7,Santana Benitez,Abernathy,104.33,136.08,68.04,165.56,369.68,Single-ply,SBD,M
Boys,109.77,8,Ivan Gonzales,Hale Center,101.15,138.35,88.45,138.35,365.14,Single-ply,SBD,M
Boys,109.77,9,Many Munoz,Olton,107.05,158.76,70.31,136.08,365.14,Single-ply,SBD,M
Boys,109.77,10,Librado Chavarria,Floydada,107.95,149.69,77.11,136.08,362.87,Single-ply,SBD,M
Boys,109.77,11,Edwin Carrillo,Bovina,109.77,142.88,79.38,111.13,333.39,Single-ply,SBD,M
Boys,109.77,DQ,Saul Salazar,Childress,109.77,,,,,Single-ply,SBD,M
Boys,109.77,DQ,Seth Whitten,Childress,109.77,,,,,Single-ply,SBD,M
Boys,109.77,DQ,Logan Hackler,Childress,109.77,,,,,Single-ply,SBD,M
Boys,109.77,DQ,Eli Henn,Crosbyton,109.77,,,,,Single-ply,SBD,M
Boys,109.77,DQ,Jacob Acevedo,Hale Center,109.77,,,,,Single-ply,SBD,M
Boys,109.77,DQ,Matt Cruz,Abernathy,101.15,,,,,Single-ply,SBD,M
Boys,109.77,DQ,Brennen George,Tulia,100.7,127.01,,,,Single-ply,SBD,M
Boys,124.74,1,Sergio Mendez,Friona,117.03,215.46,122.47,174.63,512.56,Single-ply,SBD,M
Boys,124.74,2,Homero Ramirez,Floydada,112.04,188.24,117.93,183.7,489.88,Single-ply,SBD,M
Boys,124.74,3,Jimbo Bentley,Childress,114.31,181.44,122.47,174.63,478.54,Single-ply,SBD,M
Boys,124.74,4,Jason Olvera,Bovina,118.39,163.29,99.79,174.63,437.72,Single-ply,SBD,M
Boys,124.74,5,Derek Cherino,Crosbyton,115.21,145.15,77.11,145.15,367.41,Single-ply,SBD,M
Boys,124.74,6,Christian Campos,Muleshoe,110.68,99.79,77.11,124.74,301.64,Single-ply,SBD,M
Boys,124.74,7,ZR Smith,Slaton,112.49,115.67,61.23,106.59,283.5,Single-ply,SBD,M
Boys,124.74,DQ,Ryan Fred,Sudan,124.74,,,,,Single-ply,SBD,M
Boys,124.74,DQ,Nathan Stinson,Shallowater,114.76,145.15,,,,Single-ply,SBD,M
Boys,124.74+,1,Clayton Smiley,Friona,157.85,272.16,142.88,217.72,632.76,Single-ply,SBD,M
Boys,124.74+,2,Michael Staudenraus,Slaton,129.27,226.8,104.33,192.78,523.9,Single-ply,SBD,M
Boys,124.74+,3,Marquise Trevino,Muleshoe,139.25,170.1,102.06,208.65,480.81,Single-ply,SBD,M
Boys,124.74+,4,Batai Grisonno,Shallowater,144.24,181.44,81.65,217.72,480.81,Single-ply,SBD,M
Boys,124.74+,5,Daniel Meza,Friona,160.57,172.37,111.13,145.15,428.64,Single-ply,SBD,M
Boys,124.74+,DQ,Wesley Escamilla,Amarillo Highland Park,127.01,,,,,Single-ply,SBD,M
Boys,,NS,Truitt Pierce,Shallowater,,,,,,Single-ply,SBD,M
